0 0
0.02 0.40576
0.04 0.613602
0.06 0.825931
0.08 1.0305
0.1 1.22235
0.12 1.39046
0.14 1.53092
0.16 1.652
0.18 1.74206
0.2 1.81323
0.22 1.83641
0.24 1.83415
0.26 1.78488
0.28 1.71248
0.3 1.59919
0.32 1.45803
0.34 1.28343
0.36 1.07246
0.38 0.833626
0.4 0.569847
0.42 0.289876
0.44 0.00241228
0.46 -0.289052
0.48 -0.578612
0.5 -0.878079
0.52 -1.1877
0.54 -1.51122
0.56 -1.84666
0.58 -2.17302
0.6 -2.48157
0.62 -2.76618
0.64 -3.0232
0.66 -3.2602
0.68 -3.47794
0.7 -3.66581
0.72 -3.81825
0.74 -3.92989
0.76 -3.99241
0.78 -4.00576
0.8 -3.97617
0.82 -3.90377
0.84 -3.79433
0.86 -3.65447
0.88 -3.48692
0.9 -3.29363
0.92 -3.0779
0.94 -2.84109
0.96 -2.58828
0.98 -2.31637
1 -2.03015
1.02 -1.72862
1.04 -1.41411
1.06 -1.08537
1.08 -0.748702
1.1 -0.40216
1.12 -0.04611
1.14 0.320063
1.16 0.69713
1.18 1.07917
1.2 1.46461
1.22 1.8505
1.24 2.23451
1.26 2.6132
1.28 2.98825
1.3 3.35754
1.32 3.71714
1.34 4.0599
1.36 4.38207
1.38 4.67956
1.4 4.95158
1.42 5.1967
1.44 5.41533
1.46 5.61183
1.48 5.78241
1.5 5.91625
1.52 6.01132
1.54 6.07027
1.56 6.09522
1.58 6.08872
1.6 6.0548
1.62 6.00058
1.64 5.93115
1.66 5.84415
1.68 5.7354
1.7 5.60373
1.72 5.44005
1.74 5.24253
1.76 5.01577
1.78 4.7749
1.8 4.52519
1.82 4.27246
1.84 4.02743
1.86 3.77042
1.88 3.49867
1.9 3.214
1.92 2.91784
1.94 2.61461
1.96 2.31125
1.98 2.01007
2 1.70913
2.02 1.40302
2.04 1.08551
2.06 0.755728
2.08 0.409739
2.1 0.0487908
2.12 -0.318055
2.14 -0.682936
2.16 -1.04196
2.18 -1.39405
2.2 -1.73402
2.22 -2.06255
2.24 -2.38221
2.26 -2.69222
2.28 -2.99501
2.3 -3.29176
2.32 -3.58257
2.34 -3.86607
2.36 -4.14229
2.38 -4.40928
2.4 -4.66713
2.42 -4.91916
2.44 -5.1665
2.46 -5.40897
2.48 -5.64953
2.5 -5.88972
2.52 -6.12597
2.54 -6.35134
2.56 -6.56362
2.58 -6.76193
2.6 -6.9418
2.62 -7.10309
2.64 -7.24796
2.66 -7.37925
2.68 -7.49678
2.7 -7.60169
2.72 -7.69517
2.74 -7.77426
2.76 -7.8334
2.78 -7.87079
2.8 -7.88014
2.82 -7.86303
2.84 -7.82461
2.86 -7.77109
2.88 -7.70267
2.9 -7.6237
2.92 -7.53392
2.94 -7.4199
2.96 -7.29605
2.98 -7.14701
3 -6.97927
3.02 -6.8094
3.04 -6.60956
3.06 -6.42551
3.08 -6.22582
3.1 -6.04218
3.12 -5.8659
3.14 -5.69086
3.16 -5.5293
3.18 -5.37439
3.2 -5.22679
3.22 -5.10088
3.24 -4.99329
3.26 -4.90509
3.28 -4.8409
3.3 -4.79709
3.32 -4.77474
3.34 -4.77646
3.36 -4.79778
3.38 -4.84165
3.4 -4.90714
3.42 -4.9898
3.44 -5.09283
3.46 -5.22043
3.48 -5.37586
3.5 -5.56184
3.52 -5.78268
3.54 -6.0401
3.56 -6.33288
3.58 -6.65344
3.6 -6.99553
3.62 -7.35134
3.64 -7.71572
3.66 -8.08609
3.68 -8.46059
3.7 -8.84021
3.72 -9.2224
3.74 -9.6008
3.76 -9.96813
3.78 -10.3164
3.8 -10.638
3.82 -10.9282
3.84 -11.1794
3.86 -11.3895
3.88 -11.5635
3.9 -11.6937
3.92 -11.7823
3.94 -11.8247
3.96 -11.822
3.98 -11.7701
4 -11.6756
4.02 -11.5471
4.04 -11.3798
4.06 -11.1765
4.08 -10.9427
4.1 -10.6758
4.12 -10.377
4.14 -10.046
4.16 -9.6882
4.18 -9.30818
4.2 -8.90582
4.22 -8.48842
4.24 -8.06626
4.26 -7.64218
4.28 -7.22512
4.3 -6.81876
4.32 -6.41947
4.34 -6.03595
4.36 -5.66582
4.38 -5.29899
4.4 -4.94531
4.42 -4.59944
4.44 -4.28238
4.46 -3.99348
4.48 -3.73081
4.5 -3.4979
4.52 -3.2811
4.54 -3.08494
4.56 -2.90977
4.58 -2.75405
4.6 -2.62993
4.62 -2.53668
4.64 -2.48237
4.66 -2.46333
4.68 -2.48051
4.7 -2.52956
4.72 -2.60952
4.74 -2.72037
4.76 -2.85429
4.78 -3.0106
4.8 -3.18736
4.82 -3.37849
4.84 -3.58535
4.86 -3.81281
4.88 -4.06168
4.9 -4.32233
4.92 -4.59466
4.94 -4.8597
4.96 -5.12746
4.98 -5.38483
5 -5.64899
5.02 -5.9095
5.04 -6.18359
5.06 -6.45388
5.08 -6.71807
5.1 -6.97387
5.12 -7.20734
5.14 -7.42302
5.16 -7.62262
5.18 -7.79721
5.2 -7.95489
5.22 -8.08938
5.24 -8.2064
5.26 -8.30553
5.28 -8.38338
5.3 -8.44061
5.32 -8.47255
5.34 -8.47719
5.36 -8.45553
5.38 -8.40996
5.4 -8.34194
5.42 -8.25066
5.44 -8.13815
5.46 -7.99865
5.48 -7.83069
5.5 -7.63441
5.52 -7.4039
5.54 -7.13929
5.56 -6.84674
5.58 -6.51985
5.6 -6.16198
5.62 -5.77647
5.64 -5.36092
5.66 -4.92117
5.68 -4.45449
5.7 -3.96703
5.72 -3.457
5.74 -2.91326
5.76 -2.36562
5.78 -1.78705
5.8 -1.20586
5.82 -0.630766
5.84 -0.0487132
5.86 0.512606
5.88 1.05252
5.9 1.56654
5.92 2.02753
5.94 2.42988
5.96 2.74547
5.98 2.95574
6 3.03216
