   0.0000000e+00   5.3482712e+00
   2.0000000e-02   4.8939993e+00
   4.0000000e-02   4.4397273e+00
   6.0000000e-02   3.9854554e+00
   8.0000000e-02   3.5311834e+00
   1.0000000e-01   3.0769114e+00
   1.2000000e-01   2.6226395e+00
   1.4000000e-01   2.1683675e+00
   1.6000000e-01   1.7140956e+00
   1.8000000e-01   1.2598236e+00
   2.0000000e-01   8.0555164e-01
   2.2000000e-01   3.5127968e-01
   2.4000000e-01  -1.0299228e-01
   2.6000000e-01  -5.5726424e-01
   2.8000000e-01  -1.0115362e+00
   3.0000000e-01  -1.4658082e+00
   3.2000000e-01  -1.6701252e+00
   3.4000000e-01  -1.8744422e+00
   3.6000000e-01  -2.0787592e+00
   3.8000000e-01  -2.2830762e+00
   4.0000000e-01  -2.4873932e+00
   4.2000000e-01  -2.6917102e+00
   4.4000000e-01  -2.8960272e+00
   4.6000000e-01  -3.1003442e+00
   4.8000000e-01  -3.3046613e+00
   5.0000000e-01  -3.5089783e+00
   5.2000000e-01  -3.7132953e+00
   5.4000000e-01  -3.9176123e+00
   5.6000000e-01  -4.1219293e+00
   5.8000000e-01  -4.3262463e+00
   6.0000000e-01  -4.5305633e+00
   6.2000000e-01  -3.9698721e+00
   6.4000000e-01  -3.4091809e+00
   6.6000000e-01  -2.8484897e+00
   6.8000000e-01  -2.2877984e+00
   7.0000000e-01  -1.7271072e+00
   7.2000000e-01  -1.1664160e+00
   7.4000000e-01  -6.0572478e-01
   7.6000000e-01  -4.5033559e-02
   7.8000000e-01   5.1565766e-01
   8.0000000e-01   1.0763489e+00
   8.2000000e-01   1.6370401e+00
   8.4000000e-01   2.1977313e+00
   8.6000000e-01   2.7584225e+00
   8.8000000e-01   3.3191138e+00
   9.0000000e-01   3.8798050e+00
   9.2000000e-01   3.8357012e+00
   9.4000000e-01   3.7915974e+00
   9.6000000e-01   3.7474936e+00
   9.8000000e-01   3.7033898e+00
   1.0000000e+00   3.6592860e+00
   1.0200000e+00   3.6151822e+00
   1.0400000e+00   3.5710784e+00
   1.0600000e+00   3.5269746e+00
   1.0800000e+00   3.4828708e+00
   1.1000000e+00   3.4387670e+00
   1.1200000e+00   3.3946632e+00
   1.1400000e+00   3.3505594e+00
   1.1600000e+00   3.3064556e+00
   1.1800000e+00   3.2623518e+00
   1.2000000e+00   3.2182480e+00
   1.2200000e+00   2.8448623e+00
   1.2400000e+00   2.4714765e+00
   1.2600000e+00   2.0980908e+00
   1.2800000e+00   1.7247051e+00
   1.3000000e+00   1.3513194e+00
   1.3200000e+00   9.7793370e-01
   1.3400000e+00   6.0454799e-01
   1.3600000e+00   2.3116228e-01
   1.3800000e+00  -1.4222343e-01
   1.4000000e+00  -5.1560914e-01
   1.4200000e+00  -8.8899485e-01
   1.4400000e+00  -1.2623806e+00
   1.4600000e+00  -1.6357663e+00
   1.4800000e+00  -2.0091520e+00
   1.5000000e+00  -2.3825377e+00
   1.5200000e+00  -2.8903685e+00
   1.5400000e+00  -3.3981993e+00
   1.5600000e+00  -3.9060302e+00
   1.5800000e+00  -4.4138610e+00
   1.6000000e+00  -4.9216918e+00
   1.6200000e+00  -5.4295226e+00
   1.6400000e+00  -5.9373534e+00
   1.6600000e+00  -6.4451843e+00
   1.6800000e+00  -6.9530151e+00
   1.7000000e+00  -7.4608459e+00
   1.7200000e+00  -7.9686767e+00
   1.7400000e+00  -8.4765075e+00
   1.7600000e+00  -8.9843384e+00
   1.7800000e+00  -9.4921692e+00
   1.8000000e+00  -1.0000000e+01
   1.8200000e+00  -1.0000000e+01
   1.8400000e+00  -1.0000000e+01
   1.8600000e+00  -1.0000000e+01
   1.8800000e+00  -1.0000000e+01
   1.9000000e+00  -1.0000000e+01
   1.9200000e+00  -1.0000000e+01
   1.9400000e+00  -1.0000000e+01
   1.9600000e+00  -1.0000000e+01
   1.9800000e+00  -1.0000000e+01
   2.0000000e+00  -1.0000000e+01
   2.0200000e+00  -1.0000000e+01
   2.0400000e+00  -1.0000000e+01
   2.0600000e+00  -1.0000000e+01
   2.0800000e+00  -1.0000000e+01
   2.1000000e+00  -1.0000000e+01
   2.1200000e+00  -1.0000000e+01
   2.1400000e+00  -1.0000000e+01
   2.1600000e+00  -1.0000000e+01
   2.1800000e+00  -1.0000000e+01
   2.2000000e+00  -1.0000000e+01
   2.2200000e+00  -1.0000000e+01
   2.2400000e+00  -1.0000000e+01
   2.2600000e+00  -1.0000000e+01
   2.2800000e+00  -1.0000000e+01
   2.3000000e+00  -1.0000000e+01
   2.3200000e+00  -1.0000000e+01
   2.3400000e+00  -1.0000000e+01
   2.3600000e+00  -1.0000000e+01
   2.3800000e+00  -1.0000000e+01
   2.4000000e+00  -1.0000000e+01
   2.4200000e+00  -9.8137999e+00
   2.4400000e+00  -9.6275998e+00
   2.4600000e+00  -9.4413997e+00
   2.4800000e+00  -9.2551997e+00
   2.5000000e+00  -9.0689996e+00
   2.5200000e+00  -8.8827995e+00
   2.5400000e+00  -8.6965994e+00
   2.5600000e+00  -8.5103994e+00
   2.5800000e+00  -8.3241993e+00
   2.6000000e+00  -8.1379992e+00
   2.6200000e+00  -7.9517991e+00
   2.6400000e+00  -7.7655991e+00
   2.6600000e+00  -7.5793990e+00
   2.6800000e+00  -7.3931989e+00
   2.7000000e+00  -7.2069988e+00
   2.7200000e+00  -6.9503598e+00
   2.7400000e+00  -6.6937208e+00
   2.7600000e+00  -6.4370818e+00
   2.7800000e+00  -6.1804427e+00
   2.8000000e+00  -5.9238037e+00
   2.8200000e+00  -5.6671647e+00
   2.8400000e+00  -5.4105257e+00
   2.8600000e+00  -5.1538866e+00
   2.8800000e+00  -4.8972476e+00
   2.9000000e+00  -4.6406086e+00
   2.9200000e+00  -4.3839696e+00
   2.9400000e+00  -4.1273305e+00
   2.9600000e+00  -3.8706915e+00
   2.9800000e+00  -3.6140525e+00
   3.0000000e+00  -3.3574135e+00
   3.0200000e+00  -3.2056564e+00
   3.0400000e+00  -3.0538994e+00
   3.0600000e+00  -2.9021424e+00
   3.0800000e+00  -2.7503853e+00
   3.1000000e+00  -2.5986283e+00
   3.1200000e+00  -2.4468713e+00
   3.1400000e+00  -2.2951142e+00
   3.1600000e+00  -2.1433572e+00
   3.1800000e+00  -1.9916002e+00
   3.2000000e+00  -1.8398431e+00
   3.2200000e+00  -1.6880861e+00
   3.2400000e+00  -1.5363291e+00
   3.2600000e+00  -1.3845720e+00
   3.2800000e+00  -1.2328150e+00
   3.3000000e+00  -1.0810580e+00
   3.3200000e+00  -1.0226239e+00
   3.3400000e+00  -9.6418978e-01
   3.3600000e+00  -9.0575569e-01
   3.3800000e+00  -8.4732160e-01
   3.4000000e+00  -7.8888751e-01
   3.4200000e+00  -7.3045343e-01
   3.4400000e+00  -6.7201934e-01
   3.4600000e+00  -6.1358525e-01
   3.4800000e+00  -5.5515117e-01
   3.5000000e+00  -4.9671708e-01
   3.5200000e+00  -4.3828299e-01
   3.5400000e+00  -3.7984890e-01
   3.5600000e+00  -3.2141482e-01
   3.5800000e+00  -2.6298073e-01
   3.6000000e+00  -2.0454664e-01
   3.6200000e+00  -1.9217646e-01
   3.6400000e+00  -1.7980628e-01
   3.6600000e+00  -1.6743610e-01
   3.6800000e+00  -1.5506592e-01
   3.7000000e+00  -1.4269574e-01
   3.7200000e+00  -1.3032556e-01
   3.7400000e+00  -1.1795538e-01
   3.7600000e+00  -1.0558520e-01
   3.7800000e+00  -9.3215023e-02
   3.8000000e+00  -8.0844843e-02
   3.8200000e+00  -6.8474662e-02
   3.8400000e+00  -5.6104482e-02
   3.8600000e+00  -4.3734302e-02
   3.8800000e+00  -3.1364122e-02
   3.9000000e+00  -1.8993942e-02
   3.9200000e+00  -1.7185004e-02
   3.9400000e+00  -1.5376066e-02
   3.9600000e+00  -1.3567128e-02
   3.9800000e+00  -1.1758190e-02
   4.0000000e+00  -9.9492520e-03
   4.0200000e+00  -8.1403140e-03
   4.0400000e+00  -6.3313759e-03
   4.0600000e+00  -4.5224379e-03
   4.0800000e+00  -2.7134998e-03
   4.1000000e+00  -9.0456176e-04
   4.1200000e+00   9.0437628e-04
   4.1400000e+00   2.7133143e-03
   4.1600000e+00   4.5222524e-03
   4.1800000e+00   6.3311904e-03
   4.2000000e+00   8.1401284e-03
   4.2200000e+00   8.3208831e-03
   4.2400000e+00   8.5016377e-03
   4.2600000e+00   8.6823924e-03
   4.2800000e+00   8.8631470e-03
   4.3000000e+00   9.0439017e-03
   4.3200000e+00   9.2246563e-03
   4.3400000e+00   9.4054110e-03
   4.3600000e+00   9.5861656e-03
   4.3800000e+00   9.7669203e-03
   4.4000000e+00   9.9476749e-03
   4.4200000e+00   1.0128430e-02
   4.4400000e+00   1.0309184e-02
   4.4600000e+00   1.0489939e-02
   4.4800000e+00   1.0670694e-02
   4.5000000e+00   1.0851448e-02
   4.5200000e+00   1.1018397e-02
   4.5400000e+00   1.1185347e-02
   4.5600000e+00   1.1352296e-02
   4.5800000e+00   1.1519245e-02
   4.6000000e+00   1.1686194e-02
   4.6200000e+00   1.1853143e-02
   4.6400000e+00   1.2020093e-02
   4.6600000e+00   1.2187042e-02
   4.6800000e+00   1.2353991e-02
   4.7000000e+00   1.2520940e-02
   4.7200000e+00   1.2687889e-02
   4.7400000e+00   1.2854839e-02
   4.7600000e+00   1.3021788e-02
   4.7800000e+00   1.3188737e-02
   4.8000000e+00   1.3355686e-02
   4.8200000e+00   1.3828014e-02
   4.8400000e+00   1.4300341e-02
   4.8600000e+00   1.4772669e-02
   4.8800000e+00   1.5244996e-02
   4.9000000e+00   1.5717324e-02
   4.9200000e+00   1.6189652e-02
   4.9400000e+00   1.6661979e-02
   4.9600000e+00   1.7134307e-02
   4.9800000e+00   1.7606634e-02
   5.0000000e+00   1.8078962e-02
   5.0200000e+00   1.8551289e-02
   5.0400000e+00   1.9023617e-02
   5.0600000e+00   1.9495944e-02
   5.0800000e+00   1.9968272e-02
   5.1000000e+00   2.0440599e-02
   5.1200000e+00   2.1208767e-02
   5.1400000e+00   2.1976935e-02
   5.1600000e+00   2.2745103e-02
   5.1800000e+00   2.3513270e-02
   5.2000000e+00   2.4281438e-02
   5.2200000e+00   2.5049606e-02
   5.2400000e+00   2.5817774e-02
   5.2600000e+00   2.6585942e-02
   5.2800000e+00   2.7354109e-02
   5.3000000e+00   2.8122277e-02
   5.3200000e+00   2.8890445e-02
   5.3400000e+00   2.9658613e-02
   5.3600000e+00   3.0426780e-02
   5.3800000e+00   3.1194948e-02
   5.4000000e+00   3.1963116e-02
   5.4200000e+00   3.1492736e-02
   5.4400000e+00   3.1022357e-02
   5.4600000e+00   3.0551978e-02
   5.4800000e+00   3.0081598e-02
   5.5000000e+00   2.9611219e-02
   5.5200000e+00   2.9140840e-02
   5.5400000e+00   2.8670460e-02
   5.5600000e+00   2.8200081e-02
   5.5800000e+00   2.7729702e-02
   5.6000000e+00   2.7259322e-02
   5.6200000e+00   2.6788943e-02
   5.6400000e+00   2.6318564e-02
   5.6600000e+00   2.5848184e-02
   5.6800000e+00   2.5377805e-02
   5.7000000e+00   2.4907425e-02
   5.7200000e+00   2.1919769e-02
   5.7400000e+00   1.8932113e-02
   5.7600000e+00   1.5944457e-02
   5.7800000e+00   1.2956801e-02
   5.8000000e+00   9.9691447e-03
   5.8200000e+00   6.9814886e-03
   5.8400000e+00   3.9938325e-03
   5.8600000e+00   1.0061764e-03
   5.8800000e+00  -1.9814798e-03
   5.9000000e+00  -4.9691359e-03
   5.9200000e+00  -7.9567920e-03
   5.9400000e+00  -1.0944448e-02
   5.9600000e+00  -1.3932104e-02
   5.9800000e+00  -1.6919760e-02
   6.0000000e+00  -1.9907416e-02
