<robot name="valkyrie">
<!-- Modified from the original version of Drake: A Planning, Control, and Analysis Toolbox for Nonlinear Dynamical Systems -->
<!-- http://drake.mit.edu -->
  <link name="base_link">
    <inertial>
      <mass value="8.22"/>
      <origin rpy="0 0 0" xyz="-0.00532 -0.003512 -0.0036"/>
      <inertia ixx="0.11866378" ixy="-0.000143482" ixz="0.003271293" iyy="0.097963425" iyz="0.002159545" izz="0.083854638"/>
    </inertial>
    <visual>
      <origin rpy="0.0 0.0 0.0" xyz="0.0 0.0 0.0"/>
      <geometry>
        <mesh filename="package://valkyrie_description/model/meshes/pelvis/pelvis.dae" scale="1 1 1"/>
      </geometry>
    </visual>
  </link>
  <link name="torsoYawLink">
    <inertial>
      <mass value="0.5"/>
      <origin rpy="0 0 0" xyz="0.000000 0.000000 -0.010000"/>
      <inertia ixx="0.000608427" ixy="-1.172e-06" ixz="1.647e-06" iyy="0.000620328" iyz="-2.33e-07" izz="0.001078108"/>
    </inertial>
    <visual>
      <geometry>
        <mesh filename="package://valkyrie_description/model/meshes/torso/torsoyaw.dae"/>
      </geometry>
      <origin rpy="0.0 0.0 0.0" xyz="0.0 0.0 0.0"/>
    </visual>
  </link>
  <link name="torsoPitchLink">
    <inertial>
      <mass value="0.1"/>
      <origin rpy="0 0 0" xyz="0.000000 0.000000  0.005000"/>
      <inertia ixx="3.032e-05" ixy="0.0" ixz="-1.145e-06" iyy="2.1274e-05" iyz="0.0" izz="2.8285e-05"/>
    </inertial>
    <visual>
      <geometry>
        <mesh filename="package://valkyrie_description/model/meshes/torso/torsopitch.dae"/>
      </geometry>
      <origin rpy="0.0 0.0 0.0" xyz="0.0 0.0 0.0"/>
    </visual>
  </link>
  <link name="torso">
    <inertial>
      <mass value="39.47"/>
      <origin rpy="0 0 0" xyz="-0.095548 -0.003337 0.243098"/>
      <inertia ixx="0.87326933" ixy="9.9563e-05" ixz="0.061345211" iyy="1.0108485" iyz="0.00181849" izz="0.77839801"/>
    </inertial>
    <visual>
      <geometry>
        <mesh filename="package://valkyrie_description/model/meshes/torso/torso.dae"/>
      </geometry>
      <origin rpy="0.0 0.0 0.0" xyz="0.0 0.0 0.0"/>
    </visual>
  </link>
  <joint name="torsoYaw" type="revolute">
    <origin rpy="0.0 0.0 0.0" xyz="0.0 0.0 0.0"/>
    <axis xyz="0 0 1"/>
    <parent link="base_link"/>
    <child link="torsoYawLink"/>
    <limit effort="190" lower="-1.329" upper="1.181" velocity="5.89"/>
    <controller_gains Kd="400" Kp="20000"/>
    <dynamics damping="0.1" friction="0.0"/>
  </joint>
  <joint name="torsoPitch" type="revolute">
    <origin rpy="0.0 0.0 0.0" xyz="0.04191 0.0 0.0"/>
    <axis xyz="0 1 0"/>
    <parent link="torsoYawLink"/>
    <child link="torsoPitchLink"/>
    <limit effort="150" lower="-0.13" upper="0.666" velocity="9"/>
    <controller_gains Kd="400" Kp="20000"/>
    <dynamics damping="0.1" friction="0.0"/>
  </joint>
  <joint name="torsoRoll" type="revolute">
    <origin rpy="0.0 0.0 0.0" xyz="0.0 0.0 0.0203"/>
    <axis xyz="1 0 0"/>
    <parent link="torsoPitchLink"/>
    <child link="torso"/>
    <limit effort="150" lower="-0.23" upper="0.255" velocity="9"/>
    <controller_gains Kd="400" Kp="20000"/>
    <dynamics damping="0.1" friction="0.0"/>
  </joint>
  <link name="lowerNeckPitchLink">
    <inertial>
      <mass value="1.05"/>
      <origin rpy="0 0 0" xyz="-0.020000 0.000000  0.040000"/>
      <inertia ixx="0.001470716" ixy="-0.000126021" ixz="0.000632521" iyy="0.001851919" iyz="0.000243012" izz="0.000832117"/>
    </inertial>
    <visual>
      <geometry>
        <mesh filename="package://valkyrie_description/model/meshes/head/neckj1.dae"/>
      </geometry>
      <origin rpy="0.0 0.0 0.0" xyz="0.0 0.0 0.0"/>
    </visual>
  </link>
  <link name="neckYawLink">
    <inertial>
      <mass value="1.4"/>
      <origin rpy="0 0 0" xyz="-0.030000  -0.010000 0.150000"/>
      <inertia ixx="0.001997698" ixy="-0.000180062" ixz="0.000723677" iyy="0.002919928" iyz="0.000246467" izz="0.002119751"/>
    </inertial>
    <visual>
      <geometry>
        <mesh filename="package://valkyrie_description/model/meshes/head/neckj2.dae"/>
      </geometry>
      <origin rpy="0.0 0.0 0.0" xyz="0.0 0.0 0.0"/>
    </visual>
  </link>
  <link name="upperNeckPitchLink">
    <inertial>
      <mass value="4.59"/>
      <origin rpy="0 0 0" xyz="0.100912 0.005783 0.034787"/>
      <inertia ixx="0.039847525" ixy="-0.000470418" ixz="-0.002829842" iyy="0.041418564" iyz="-0.000782564" izz="0.036841236"/>
    </inertial>
    <visual>
      <geometry>
        <mesh filename="package://valkyrie_description/model/meshes/head/head_multisense_no_visor.dae"/>
      </geometry>
      <origin rpy="0.0 0.0 0.0" xyz="0.0 0.0 0.0"/>
    </visual>
  </link>
  <joint name="lowerNeckPitch" type="revolute">
    <origin rpy="0.0 0.0 0.0" xyz="0.0203518 0.0 0.33845"/>
    <axis xyz="0 1 0"/>
    <parent link="torso"/>
    <child link="lowerNeckPitchLink"/>
    <limit effort="26" lower="0" upper="1.162" velocity="5"/>
    <controller_gains Kd="0" Kp="20000"/>
    <dynamics damping="0.1" friction="0.0"/>
  </joint>
  <joint name="neckYaw" type="fixed">
    <origin rpy="0.0 0.0 0.0" xyz="-0.051924 0.0 0.0"/>
    <axis xyz="0 0 1"/>
    <parent link="lowerNeckPitchLink"/>
    <child link="neckYawLink"/>
    <limit effort="26" lower="-1.04719755" upper="1.04719755" velocity="5"/>
    <controller_gains Kd="0" Kp="20000"/>
    <dynamics damping="0.1" friction="0.0"/>
  </joint>
  <joint name="upperNeckPitch" type="fixed">
    <origin rpy="0.0 0.0 0.0" xyz="-0.06 0 0.195997"/>
    <axis xyz="0 1 0"/>
    <parent link="neckYawLink"/>
    <child link="upperNeckPitchLink"/>
    <limit effort="26" lower="-0.872" upper="0.0" velocity="5"/>
    <controller_gains Kd="0" Kp="20000"/>
    <dynamics damping="0.1" friction="0.0"/>
  </joint>
  <link name="rightShoulderPitchLink">
    <inertial>
      <mass value="2.65"/>
      <origin rpy="0 0 0" xyz="-0.012000 -0.251 0.000000"/>
      <inertia ixx="0.013718167" ixy="0.0" ixz="0.0" iyy="0.010502833" iyz="0.0" izz="0.014806433"/>
    </inertial>
    <visual>
      <geometry>
        <mesh filename="package://valkyrie_description/model/meshes/arms/aj1_right.dae"/>
      </geometry>
      <origin rpy="0.0 0.0 0.0" xyz="0.0 0.0 0.0"/>
    </visual>
  </link>
  <link name="rightShoulderRollLink">
    <inertial>
      <mass value="3.97"/>
      <origin rpy="0 0 0" xyz="-0.008513 -0.02068 0.001088"/>
      <inertia ixx="0.009494119" ixy="-6.7294e-05" ixz="3.7177e-05" iyy="0.007680534" iyz="8.874e-06" izz="0.011454772"/>
    </inertial>
    <visual>
      <geometry>
        <mesh filename="package://valkyrie_description/model/meshes/arms/aj2_right.dae"/>
      </geometry>
      <origin rpy="0.0 0.0 0.0" xyz="0.0 0.0 0.0"/>
    </visual>
  </link>
  <link name="rightShoulderYawLink">
    <inertial>
      <mass value="3.085"/>
      <origin rpy="0 0 0" xyz="-0.004304 -0.209832 -0.007295"/>
      <inertia ixx="0.039355177" ixy="0.007827077" ixz="0.000753947" iyy="0.004905765" iyz="0.002723873" izz="0.041879481"/>
    </inertial>
    <visual>
      <geometry>
        <mesh filename="package://valkyrie_description/model/meshes/arms/aj3_right.dae"/>
      </geometry>
      <origin rpy="0.0 0.0 0.0" xyz="0.0 0.0 0.0"/>
    </visual>
  </link>
  <link name="rightElbowPitchLink">
    <inertial>
      <mass value="1.83"/>
      <origin rpy="0 0 0" xyz="-0.020344 -0.014722 -0.022300"/>
      <inertia ixx="0.004285137" ixy="0.000408334" ixz="-0.003326627" iyy="0.008440601" iyz="0.000140731" izz="0.007469454"/>
    </inertial>
    <visual>
      <geometry>
        <mesh filename="package://valkyrie_description/model/meshes/arms/aj4_right.dae"/>
      </geometry>
      <origin rpy="0.0 0.0 0.0" xyz="0.0 0.0 0.0"/>
    </visual>
  </link>
  <joint name="rightShoulderPitch" type="revolute">
    <origin rpy="0.0 0.0 0.0" xyz="-0.0316 0.0 0.2984"/>
    <axis xyz="0 1 0"/>
    <parent link="torso"/>
    <child link="rightShoulderPitchLink"/>
    <limit effort="190" lower="-2.85" upper="2.0" velocity="5.89"/>
    <controller_gains Kd="400" Kp="20000"/>
    <dynamics damping="0.1" friction="0.0"/>
  </joint>
  <joint name="rightShoulderRoll" type="revolute">
    <origin rpy="0.0 0.0 0.0" xyz="0.0 -0.2499 0.0"/>
    <axis xyz="1 0 0"/>
    <parent link="rightShoulderPitchLink"/>
    <child link="rightShoulderRollLink"/>
    <limit effort="190" lower="-1.266" upper="1.519" velocity="5.89"/>
    <controller_gains Kd="400" Kp="20000"/>
    <dynamics damping="0.1" friction="0.0"/>
  </joint>
  <joint name="rightShoulderYaw" type="revolute">
    <origin rpy="0.0 0.0 0.0" xyz="0.0 0.0 0.0"/>
    <axis xyz="0 1 0"/>
    <parent link="rightShoulderRollLink"/>
    <child link="rightShoulderYawLink"/>
    <limit effort="65" lower="-3.1" upper="2.18" velocity="11.5"/>
    <controller_gains Kd="400" Kp="20000"/>
    <dynamics damping="0.1" friction="0.0"/>
  </joint>
  <joint name="rightElbowPitch" type="revolute">
    <origin rpy="0.0 0.0 0.0" xyz="0.0254 -0.33 0.0"/>
    <axis xyz="0 0 1"/>
    <parent link="rightShoulderYawLink"/>
    <child link="rightElbowPitchLink"/>
    <limit effort="65" lower="-0.12" upper="2.174" velocity="11.5"/>
    <controller_gains Kd="400" Kp="20000"/>
    <dynamics damping="0.1" friction="0.0"/>
  </joint>
  <link name="rightForearmLink">
    <inertial>
      <mass value="2.476"/>
      <origin rpy="0 0 0" xyz="0.015000 -0.13 0.019564"/>
      <inertia ixx="0.015011" ixy="-0.001300853" ixz="-0.000727141" iyy="0.005071567" iyz="-0.001695416" izz="0.011365657"/>
    </inertial>
    <visual>
      <geometry>
        <mesh filename="package://valkyrie_description/model/meshes/arms/aj5_right.dae"/>
      </geometry>
      <origin rpy="0.0 0.0 0.0" xyz="0.0 0.0 0.0"/>
    </visual>
  </link>
  <link name="rightWristRollLink">
    <inertial>
      <mass value="0.14"/>
      <origin rpy="0 0 0" xyz="0 -0.0 0"/>
      <inertia ixx="3.0251e-05" ixy="-1.25e-07" ixz="-3.6e-08" iyy="3.772e-05" iyz="0.0" izz="9.395e-06"/>
    </inertial>
    <visual>
      <geometry>
        <mesh filename="package://valkyrie_description/model/meshes/arms/aj6_right.dae"/>
      </geometry>
      <origin rpy="0.0 0.0 0.0" xyz="0.0 0.0 0.0"/>
    </visual>
   </link>
  <link name="rightPalm">
    <inertial>
      <mass value="0.712"/>
      <origin rpy="0 0 0" xyz="0.002954 -0.052034 -0.000236"/>
      <inertia ixx="0.000943493" ixy="3.4393e-05" ixz="-3.8828e-05" iyy="0.000711024" iyz="2.3429e-05" izz="0.000610199"/>
    </inertial>
    <visual>
      <geometry>
        <mesh filename="package://valkyrie_description/model/meshes/arms/palm_right.dae"/>
      </geometry>
      <origin rpy="0.0 0.0 0.0" xyz="0.0 0.0 0.0"/>
    </visual>
  </link>
  <joint name="rightForearmYaw" type="revolute">
    <origin rpy="0.0 0.0 0.0" xyz="-0.0254 0 0"/>
    <axis xyz="0 1 0"/>
    <parent link="rightElbowPitchLink"/>
    <child link="rightForearmLink"/>
    <limit effort="26" lower="-2.019" upper="3.14" velocity="5"/>
    <controller_gains Kd="0" Kp="20000"/>
    <dynamics damping="0.1" friction="0.0"/>
  </joint>
  <joint name="rightWristRoll" type="revolute">
    <origin rpy="0.0 0.0 0.0" xyz="0.0 -0.2871 0.0"/>
    <axis xyz="1 0 0"/>
    <parent link="rightForearmLink"/>
    <child link="rightWristRollLink"/>
    <limit effort="14" lower="-0.625" upper="0.62" velocity="1"/>
    <controller_gains Kd="400" Kp="20000"/>
    <dynamics damping="0.1" friction="0.0"/>
  </joint>
  <joint name="rightWristPitch" type="revolute">
    <origin rpy="0.0 0.0 0.0" xyz="0.0 0.0 0.0"/>
    <axis xyz="0 0 1"/>
    <parent link="rightWristRollLink"/>
    <child link="rightPalm"/>
    <limit effort="14" lower="-0.49" upper="0.36" velocity="1"/>
    <controller_gains Kd="400" Kp="20000"/>
    <dynamics damping="0.1" friction="0.0"/>
  </joint>
  <link name="rightThumbRollLink">
    <inertial>
      <mass value="0.017"/>
      <origin rpy="0 0 0" xyz="0 -0.0 0.01"/>
      <inertia ixx="2.7778767e-06" ixy="5.6718533e-09" ixz="-9.5523207e-08" iyy="3.5462642e-06" iyz="3.663718e-08" izz="1.3553297e-06"/>
    </inertial>
    <visual>
      <geometry>
        <mesh filename="package://valkyrie_description/model/meshes/fingers/thumbj1_right.dae"/>
      </geometry>
      <origin rpy="0.0 0.0 0.0" xyz="0.0 0.0 0.0"/>
    </visual>
  </link>
  <link name="rightThumbPitch1Link">
    <inertial>
      <mass value="0.02"/>
      <origin rpy="0 0 0" xyz="0.0 -0.005 0.02"/>
      <inertia ixx="4.239e-06" ixy="0.0" ixz="-0.0" iyy="4.582e-06" iyz="0.0" izz="1.47e-06"/>
    </inertial>
    <visual>
      <geometry>
        <mesh filename="package://valkyrie_description/model/meshes/fingers/thumbj2_right.dae"/>
      </geometry>
      <origin rpy="0.0 0.0 0.0" xyz="0.0 0.0 0.0"/>
    </visual>
  </link>
  <link name="rightThumbPitch2Link">
    <inertial>
      <mass value="0.013"/>
      <origin rpy="0 0 0" xyz="0 -0.004 0.017"/>
      <inertia ixx="1.266e-06" ixy="0.0" ixz="-0.0" iyy="1.503e-06" iyz="-0.0" izz="6.99e-07"/>
    </inertial>
    <visual>
      <geometry>
        <mesh filename="package://valkyrie_description/model/meshes/fingers/thumbj3_right.dae"/>
      </geometry>
      <origin rpy="0.0 0.0 0.0" xyz="0.0 0.0 0.0"/>
    </visual>

  </link>
  <link name="rightThumbPitch3Link">
    <inertial>
      <mass value="0.006"/>
      <origin rpy="0 0 0" xyz="0 -0.004 0.01"/>
      <inertia ixx="3.22e-07" ixy="0.0" ixz="0.0" iyy="4.06e-07" iyz="0.0" izz="2.1e-07"/>
    </inertial>
    <visual>
      <geometry>
        <mesh filename="package://valkyrie_description/model/meshes/fingers/thumbj4_right.dae"/>
      </geometry>
      <origin rpy="0.0 0.0 0.0" xyz="0.0 0.0 0.0"/>
    </visual>

  </link>
  <joint name="rightThumbRoll" type="fixed">
    <origin rpy="0.3491 0.0 0.0" xyz="0.0049 -0.0351 0.0228"/>
    <axis xyz="0 0 1"/>
    <parent link="rightPalm"/>
    <child link="rightThumbRollLink"/>
  </joint>
  <gazebo reference="rightThumbRoll">
    <implicitSpringDamper>1</implicitSpringDamper>
  </gazebo>
  <joint name="rightThumbPitch1" type="fixed">
    <origin rpy="-0.3491 0.0 0.0" xyz="0.0 0.0 0.0229"/>
    <axis xyz="0 0 1"/>
    <parent link="rightThumbRollLink"/>
    <child link="rightThumbPitch1Link"/>
  </joint>
  <joint name="rightThumbPitch2" type="fixed">
    <origin rpy="0.0 0.0 0.0" xyz="0.0 -0.0066 0.0375"/>
    <axis xyz="0 0 1"/>
    <parent link="rightThumbPitch1Link"/>
    <child link="rightThumbPitch2Link"/>
  </joint>
  <joint name="rightThumbPitch3" type="fixed">
    <origin rpy="0.0 0.0 0.0" xyz="0.0 -0.0049 0.0275"/>
    <axis xyz="0 0 1"/>
    <parent link="rightThumbPitch2Link"/>
    <child link="rightThumbPitch3Link"/>
  </joint>
  <gazebo reference="rightThumbPitch3">
    <implicitSpringDamper>1</implicitSpringDamper>
  </gazebo>
  <link name="rightIndexFingerPitch1Link">
    <inertial>
      <mass value="0.02"/>
      <origin rpy="0 0 0" xyz="0 -0.02 0"/>
      <inertia ixx="4.232e-06" ixy="-6e-08" ixz="-8e-09" iyy="1.215e-06" iyz="-7e-09" izz="3.892e-06"/>
    </inertial>
    <visual>
      <geometry>
        <mesh filename="package://valkyrie_description/model/meshes/fingers/indexj1_right.dae"/>
      </geometry>
      <origin rpy="0.0 0.0 0.0" xyz="0.0 0.0 0.0"/>
    </visual>
  </link>
  <link name="rightIndexFingerPitch2Link">
    <inertial>
      <mass value="0.018"/>
      <origin rpy="0 0 0" xyz="0 -0.013 0"/>
      <inertia ixx="1.562e-06" ixy="-1.7e-08" ixz="-1.3e-08" iyy="7.22e-07" iyz="3.1e-08" izz="1.255e-06"/>
    </inertial>
    <visual>
      <geometry>
        <mesh filename="package://valkyrie_description/model/meshes/fingers/indexj2_right.dae"/>
      </geometry>
      <origin rpy="0.0 0.0 0.0" xyz="0.0 0.0 0.0"/>
    </visual>
  </link>
  <link name="rightIndexFingerPitch3Link">
    <inertial>
      <mass value="0.01"/>
      <origin rpy="0 0 0" xyz="0 -0.01 0"/>
      <inertia ixx="6.02e-07" ixy="-2.4e-08" ixz="0.0" iyy="2.09e-07" iyz="1.7e-08" izz="5.02e-07"/>
    </inertial>
    <visual>
      <geometry>
        <mesh filename="package://valkyrie_description/model/meshes/fingers/indexj3_right.dae"/>
      </geometry>
      <origin rpy="0.0 0.0 0.0" xyz="0.0 0.0 0.0"/>
    </visual>
  </link>
  <joint name="rightIndexFingerPitch1" type="fixed">
    <origin rpy="-0.1745 0.0 0.0" xyz="0.0022 -0.0976 0.0235"/>
    <axis xyz="0 0 1"/>
    <parent link="rightPalm"/>
    <child link="rightIndexFingerPitch1Link"/>
  </joint>
  <joint name="rightIndexFingerPitch2" type="fixed">
    <origin rpy="0.0 0.0 0.0" xyz="0.0 -0.0381 0.0"/>
    <axis xyz="0 0 1"/>
    <parent link="rightIndexFingerPitch1Link"/>
    <child link="rightIndexFingerPitch2Link"/>
  </joint>
  <joint name="rightIndexFingerPitch3" type="fixed">
    <origin rpy="0.0 0.0 0.0" xyz="0.0 -0.0229 0"/>
    <axis xyz="0 0 1"/>
    <parent link="rightIndexFingerPitch2Link"/>
    <child link="rightIndexFingerPitch3Link"/>
  </joint>
  <link name="rightMiddleFingerPitch1Link">
    <inertial>
      <mass value="0.02"/>
      <origin rpy="0 0 0" xyz="0 -0.02 0"/>
      <inertia ixx="5.148e-06" ixy="-4.2e-08" ixz="-1.1e-08" iyy="1.322e-06" iyz="-4e-09" izz="4.592e-06"/>
    </inertial>
    <visual>
      <geometry>
        <mesh filename="package://valkyrie_description/model/meshes/fingers/middlej1_right.dae"/>
      </geometry>
      <origin rpy="0.0 0.0 0.0" xyz="0.0 0.0 0.0"/>
    </visual>
  </link>
  <link name="rightMiddleFingerPitch2Link">
    <inertial>
      <mass value="0.011"/>
      <origin rpy="0 0 0" xyz="0 -0.013 0"/>
      <inertia ixx="1.97e-06" ixy="3.4e-08" ixz="-1.1e-08" iyy="5.54e-07" iyz="-7.8e-08" izz="2.272e-06"/>
    </inertial>
    <visual>
      <geometry>
        <mesh filename="package://valkyrie_description/model/meshes/fingers/middlej2_right.dae"/>
      </geometry>
      <origin rpy="0.0 0.0 0.0" xyz="0.0 0.0 0.0"/>
    </visual>
  </link>
  <link name="rightMiddleFingerPitch3Link">
    <inertial>
      <mass value="0.006"/>
      <origin rpy="0 0 0" xyz="0 -0.01 0"/>
      <inertia ixx="3.96e-07" ixy="-9e-09" ixz="-1e-09" iyy="1.6e-07" iyz="1.6e-08" izz="3.03e-07"/>
    </inertial>
    <visual>
      <geometry>
        <mesh filename="package://valkyrie_description/model/meshes/fingers/middlej3_right.dae"/>
      </geometry>
      <origin rpy="0.0 0.0 0.0" xyz="0.0 0.0 0.0"/>
    </visual>
  </link>
  <joint name="rightMiddleFingerPitch1" type="fixed">
    <origin rpy="0.1222 0.0 0.0" xyz="0.0022 -0.097 -0.0119"/>
    <axis xyz="0 0 1"/>
    <parent link="rightPalm"/>
    <child link="rightMiddleFingerPitch1Link"/>
  </joint>
  <joint name="rightMiddleFingerPitch2" type="fixed">
    <origin rpy="0.0 0.0 0.0" xyz="0.0 -0.0381 0.0"/>
    <axis xyz="0 0 1"/>
    <parent link="rightMiddleFingerPitch1Link"/>
    <child link="rightMiddleFingerPitch2Link"/>
  </joint>
  <joint name="rightMiddleFingerPitch3" type="fixed">
    <origin rpy="0.0 0.0 0.0" xyz="0.0 -0.0229 0.0"/>
    <axis xyz="0 0 1"/>
    <parent link="rightMiddleFingerPitch2Link"/>
    <child link="rightMiddleFingerPitch3Link"/>
  </joint>
  <link name="rightPinkyPitch1Link">
    <inertial>
      <mass value="0.02"/>
      <origin rpy="0 0 0" xyz="0 -0.02 0"/>
      <inertia ixx="5.148e-06" ixy="-4.2e-08" ixz="-1.1e-08" iyy="1.322e-06" iyz="-4e-09" izz="4.592e-06"/>
    </inertial>
    <visual>
      <geometry>
        <mesh filename="package://valkyrie_description/model/meshes/fingers/pinkyj1_right.dae"/>
      </geometry>
      <origin rpy="0.0 0.0 0.0" xyz="0.0 0.0 0.0"/>
    </visual>
  </link>
  <link name="rightPinkyPitch2Link">
    <inertial>
      <mass value="0.011"/>
      <origin rpy="0 0 0" xyz="0 -0.013 0"/>
      <inertia ixx="1.97e-06" ixy="3.4e-08" ixz="-1.1e-08" iyy="5.54e-07" iyz="-7.8e-08" izz="2.272e-06"/>
    </inertial>
    <visual>
      <geometry>
        <mesh filename="package://valkyrie_description/model/meshes/fingers/pinkyj2_right.dae"/>
      </geometry>
      <origin rpy="0.0 0.0 0.0" xyz="0.0 0.0 0.0"/>
    </visual>
  </link>
  <link name="rightPinkyPitch3Link">
    <inertial>
      <mass value="0.006"/>
      <origin rpy="0 0 0" xyz="0 -0.01 0"/>
      <inertia ixx="3.96e-07" ixy="-9e-09" ixz="-1e-09" iyy="1.6e-07" iyz="1.6e-08" izz="3.03e-07"/>
    </inertial>
    <visual>
      <geometry>
        <mesh filename="package://valkyrie_description/model/meshes/fingers/pinkyj3_right.dae"/>
      </geometry>
      <origin rpy="0.0 0.0 0.0" xyz="0.0 0.0 0.0"/>
    </visual>

  </link>
  <joint name="rightPinkyPitch1" type="fixed">
    <origin rpy="0.1222 0.0 0.0" xyz="0.0022 -0.0838 -0.041"/>
    <axis xyz="0 0 1"/>
    <parent link="rightPalm"/>
    <child link="rightPinkyPitch1Link"/>
  </joint>

  <joint name="rightPinkyPitch2" type="fixed">
    <origin rpy="0.0 0.0 0.0" xyz="0.0 -0.0381 0.0"/>
    <axis xyz="0 0 1"/>
    <parent link="rightPinkyPitch1Link"/>
    <child link="rightPinkyPitch2Link"/>
  </joint>
  <gazebo reference="rightPinkyPitch2">
    <implicitSpringDamper>1</implicitSpringDamper>
  </gazebo>
  <joint name="rightPinkyPitch3" type="fixed">
    <origin rpy="0.0 0.0 0.0" xyz="0.0 -0.0229 0.0"/>
    <axis xyz="0 0 1"/>
    <parent link="rightPinkyPitch2Link"/>
    <child link="rightPinkyPitch3Link"/>
  </joint>
  <gazebo reference="rightPinkyPitch3">
    <implicitSpringDamper>1</implicitSpringDamper>
  </gazebo>
  <link name="leftShoulderPitchLink">
    <inertial>
      <mass value="2.65"/>
      <origin rpy="0 0 0" xyz="-0.012000 0.251 0.000000"/>
      <inertia ixx="0.013718167" ixy="0.0" ixz="0.0" iyy="0.010502833" iyz="0.0" izz="0.014806433"/>
    </inertial>
    <visual>
      <geometry>
        <mesh filename="package://valkyrie_description/model/meshes/arms/aj1_left.dae"/>
      </geometry>
      <origin rpy="0.0 0.0 0.0" xyz="0.0 0.0 0.0"/>
    </visual>
  </link>
  <link name="leftShoulderRollLink">
    <inertial>
      <mass value="3.97"/>
      <origin rpy="0 0 0" xyz="-0.008513 0.02068 0.001088"/>
      <inertia ixx="0.009494119" ixy="6.7294e-05" ixz="-3.7177e-05" iyy="0.007680534" iyz="8.874e-06" izz="0.011454772"/>
    </inertial>
    <visual>
      <geometry>
        <mesh filename="package://valkyrie_description/model/meshes/arms/aj2_left.dae"/>
      </geometry>
      <origin rpy="0.0 0.0 0.0" xyz="0.0 0.0 0.0"/>
    </visual>

  </link>
  <link name="leftShoulderYawLink">
    <inertial>
      <mass value="3.085"/>
      <origin rpy="0 0 0" xyz="-0.004304 0.209832 -0.007295"/>
      <inertia ixx="0.039355177" ixy="0.007827077" ixz="-0.000753947" iyy="0.004905765" iyz="-0.002723873" izz="0.041879481"/>
    </inertial>
    <visual>
      <geometry>
        <mesh filename="package://valkyrie_description/model/meshes/arms/aj3_left.dae"/>
      </geometry>
      <origin rpy="0.0 0.0 0.0" xyz="0.0 0.0 0.0"/>
    </visual>

  </link>
  <link name="leftElbowPitchLink">
    <inertial>
      <mass value="1.83"/>
      <origin rpy="0 0 0" xyz="-0.020344 0.014722 -0.022300"/>
      <inertia ixx="0.004285137" ixy="-0.000408334" ixz="0.003326627" iyy="0.008440601" iyz="0.000140731" izz="0.007469454"/>
    </inertial>
    <visual>
      <geometry>
        <mesh filename="package://valkyrie_description/model/meshes/arms/aj4_left.dae"/>
      </geometry>
      <origin rpy="0.0 0.0 0.0" xyz="0.0 0.0 0.0"/>
    </visual>

  </link>
  <joint name="leftShoulderPitch" type="revolute">
    <origin rpy="0.0 0.0 0.0" xyz="-0.0316 0.0 0.2984"/>
    <axis xyz="0 1 0"/>
    <parent link="torso"/>
    <child link="leftShoulderPitchLink"/>
    <limit effort="190" lower="-2.85" upper="2.0" velocity="5.89"/>
    <controller_gains Kd="400" Kp="20000"/>
    <dynamics damping="0.1" friction="0.0"/>
  </joint>
  <gazebo reference="leftShoulderPitch">
    <provideFeedback>1</provideFeedback>
    <implicitSpringDamper>1</implicitSpringDamper>
  </gazebo>
  <joint name="leftShoulderRoll" type="revolute">
    <origin rpy="0.0 0.0 0.0" xyz="0.0 0.2499 0.0"/>
    <axis xyz="1 0 0"/>
    <parent link="leftShoulderPitchLink"/>
    <child link="leftShoulderRollLink"/>
    <limit effort="190" lower="-1.519" upper="1.266" velocity="5.89"/>
    <controller_gains Kd="400" Kp="20000"/>
    <dynamics damping="0.1" friction="0.0"/>
  </joint>
  <gazebo reference="leftShoulderRoll">
    <provideFeedback>1</provideFeedback>
    <implicitSpringDamper>1</implicitSpringDamper>
  </gazebo>
  <joint name="leftShoulderYaw" type="revolute">
    <origin rpy="0.0 0.0 0.0" xyz="0.0 0.0 0.0"/>
    <axis xyz="0 1 0"/>
    <parent link="leftShoulderRollLink"/>
    <child link="leftShoulderYawLink"/>
    <limit effort="65" lower="-3.1" upper="2.18" velocity="11.5"/>
    <controller_gains Kd="400" Kp="20000"/>
    <dynamics damping="0.1" friction="0.0"/>
  </joint>
  <gazebo reference="leftShoulderYaw">
    <provideFeedback>1</provideFeedback>
    <implicitSpringDamper>1</implicitSpringDamper>
  </gazebo>
  <joint name="leftElbowPitch" type="revolute">
    <origin rpy="0.0 0.0 0.0" xyz="0.0254 0.33 0.0"/>
    <axis xyz="0 0 1"/>
    <parent link="leftShoulderYawLink"/>
    <child link="leftElbowPitchLink"/>
    <limit effort="65" lower="-2.174" upper="0.12" velocity="11.5"/>
    <controller_gains Kd="400" Kp="20000"/>
    <dynamics damping="0.1" friction="0.0"/>
  </joint>
  <gazebo reference="leftElbowPitch">
    <provideFeedback>1</provideFeedback>
    <implicitSpringDamper>1</implicitSpringDamper>
  </gazebo>
  <link name="leftForearmLink">
    <inertial>
      <mass value="2.476"/>
      <origin rpy="0 0 0" xyz="0.015000 0.13 0.019564"/>
      <inertia ixx="0.015011" ixy="0.001300853" ixz="0.000727141" iyy="0.005071567" iyz="-0.001695416" izz="0.011365657"/>
    </inertial>
    <visual>
      <geometry>
        <mesh filename="package://valkyrie_description/model/meshes/arms/aj5_left.dae"/>
      </geometry>
      <origin rpy="0.0 0.0 0.0" xyz="0.0 0.0 0.0"/>
    </visual>

  </link>
  <link name="leftWristRollLink">
    <inertial>
      <mass value="0.14"/>
      <origin rpy="0 0 0" xyz="0 0.0 0"/>
      <inertia ixx="3.0251e-05" ixy="1.25e-07" ixz="3.6e-08" iyy="3.772e-05" iyz="0.0" izz="9.395e-06"/>
    </inertial>
    <visual>
      <geometry>
        <mesh filename="package://valkyrie_description/model/meshes/arms/aj6_left.dae"/>
      </geometry>
      <origin rpy="0.0 0.0 0.0" xyz="0.0 0.0 0.0"/>
    </visual>

  </link>
  <link name="leftPalm">
    <inertial>
      <mass value="0.712"/>
      <origin rpy="0 0 0" xyz="0.002954 0.052034 -0.000236"/>
      <inertia ixx="0.000943493" ixy="3.4393e-05" ixz="3.8828e-05" iyy="0.000711024" iyz="-2.3429e-05" izz="0.000610199"/>
    </inertial>
    <visual>
      <geometry>
        <mesh filename="package://valkyrie_description/model/meshes/arms/palm_left.dae"/>
      </geometry>
      <origin rpy="0.0 0.0 0.0" xyz="0.0 0.0 0.0"/>
    </visual>

  </link>
  <joint name="leftForearmYaw" type="revolute">
    <origin rpy="0.0 0.0 0.0" xyz="-0.0254 0 0"/>
    <axis xyz="0 1 0"/>
    <parent link="leftElbowPitchLink"/>
    <child link="leftForearmLink"/>
    <limit effort="26" lower="-2.019" upper="3.14" velocity="5"/>
    <controller_gains Kd="0" Kp="20000"/>
    <dynamics damping="0.1" friction="0.0"/>
  </joint>

  <joint name="leftWristRoll" type="revolute">
    <origin rpy="0.0 0.0 0.0" xyz="0.0 0.2871 0.0"/>
    <axis xyz="1 0 0"/>
    <parent link="leftForearmLink"/>
    <child link="leftWristRollLink"/>
    <limit effort="14" lower="-0.62" upper="0.625" velocity="1"/>
    <controller_gains Kd="400" Kp="20000"/>
    <dynamics damping="0.1" friction="0.0"/>
  </joint>
  <gazebo reference="leftWristRoll">
    <provideFeedback>1</provideFeedback>
    <implicitSpringDamper>1</implicitSpringDamper>
  </gazebo>
  <joint name="leftWristPitch" type="revolute">
    <origin rpy="0.0 0.0 0.0" xyz="0.0 0.0 0.0"/>
    <axis xyz="0 0 1"/>
    <parent link="leftWristRollLink"/>
    <child link="leftPalm"/>
    <limit effort="14" lower="-0.36" upper="0.49" velocity="1"/>
    <controller_gains Kd="400" Kp="20000"/>
    <dynamics damping="0.1" friction="0.0"/>
  </joint>
  <gazebo reference="leftWristPitch">
    <provideFeedback>1</provideFeedback>
    <implicitSpringDamper>1</implicitSpringDamper>
  </gazebo>
  <link name="leftThumbRollLink">
    <inertial>
      <mass value="0.017"/>
      <origin rpy="0 0 0" xyz="0 0.0 0.01"/>
      <inertia ixx="2.7778767e-06" ixy="5.6718533e-09" ixz="9.5523207e-08" iyy="3.5462642e-06" iyz="-3.663718e-08" izz="1.3553297e-06"/>
    </inertial>
    <visual>
      <geometry>
        <mesh filename="package://valkyrie_description/model/meshes/fingers/thumbj1_left.dae"/>
      </geometry>
      <origin rpy="0.0 0.0 0.0" xyz="0.0 0.0 0.0"/>
    </visual>

  </link>
  <link name="leftThumbPitch1Link">
    <inertial>
      <mass value="0.02"/>
      <origin rpy="0 0 0" xyz="0.0 0.005 0.02"/>
      <inertia ixx="4.239e-06" ixy="0.0" ixz="0.0" iyy="4.582e-06" iyz="-0.0" izz="1.47e-06"/>
    </inertial>
    <visual>
      <geometry>
        <mesh filename="package://valkyrie_description/model/meshes/fingers/thumbj2_left.dae"/>
      </geometry>
      <origin rpy="0.0 0.0 0.0" xyz="0.0 0.0 0.0"/>
    </visual>

  </link>
  <link name="leftThumbPitch2Link">
    <inertial>
      <mass value="0.013"/>
      <origin rpy="0 0 0" xyz="0 0.004 0.017"/>
      <inertia ixx="1.266e-06" ixy="0.0" ixz="0.0" iyy="1.503e-06" iyz="0.0" izz="6.99e-07"/>
    </inertial>
    <visual>
      <geometry>
        <mesh filename="package://valkyrie_description/model/meshes/fingers/thumbj3_left.dae"/>
      </geometry>
      <origin rpy="0.0 0.0 0.0" xyz="0.0 0.0 0.0"/>
    </visual>

  </link>
  <link name="leftThumbPitch3Link">
    <inertial>
      <mass value="0.006"/>
      <origin rpy="0 0 0" xyz="0 0.004 0.01"/>
      <inertia ixx="3.22e-07" ixy="0.0" ixz="0.0" iyy="4.06e-07" iyz="0.0" izz="2.1e-07"/>
    </inertial>
    <visual>
      <geometry>
        <mesh filename="package://valkyrie_description/model/meshes/fingers/thumbj4_left.dae"/>
      </geometry>
      <origin rpy="0.0 0.0 0.0" xyz="0.0 0.0 0.0"/>
    </visual>

  </link>
  <joint name="leftThumbRoll" type="fixed">
    <origin rpy="-0.3491 0.0 0.0" xyz="0.0049 0.0351 0.0228"/>
    <axis xyz="0 0 1"/>
    <parent link="leftPalm"/>
    <child link="leftThumbRollLink"/>
  </joint>
  <gazebo reference="leftThumbRoll">
    <implicitSpringDamper>1</implicitSpringDamper>
  </gazebo>
  <joint name="leftThumbPitch1" type="fixed">
    <origin rpy="0.3491 0.0 0.0" xyz="0.0 0.0 0.0229"/>
    <axis xyz="0 0 1"/>
    <parent link="leftThumbRollLink"/>
    <child link="leftThumbPitch1Link"/>
  </joint>
  <gazebo reference="leftThumbPitch1">
    <implicitSpringDamper>1</implicitSpringDamper>
  </gazebo>
  <joint name="leftThumbPitch2" type="fixed">
    <origin rpy="0.0 0.0 0.0" xyz="0.0 0.0066 0.0375"/>
    <axis xyz="0 0 1"/>
    <parent link="leftThumbPitch1Link"/>
    <child link="leftThumbPitch2Link"/>
  </joint>
  <gazebo reference="leftThumbPitch2">
    <implicitSpringDamper>1</implicitSpringDamper>
  </gazebo>
  <joint name="leftThumbPitch3" type="fixed">
    <origin rpy="0.0 0.0 0.0" xyz="0.0 0.0049 0.0275"/>
    <axis xyz="0 0 1"/>
    <parent link="leftThumbPitch2Link"/>
    <child link="leftThumbPitch3Link"/>
  </joint>
  <gazebo reference="leftThumbPitch3">
    <implicitSpringDamper>1</implicitSpringDamper>
  </gazebo>
  <link name="leftIndexFingerPitch1Link">
    <inertial>
      <mass value="0.02"/>
      <origin rpy="0 0 0" xyz="0 0.02 0"/>
      <inertia ixx="4.232e-06" ixy="6e-08" ixz="8e-09" iyy="1.215e-06" iyz="-7e-09" izz="3.892e-06"/>
    </inertial>
    <visual>
      <geometry>
        <mesh filename="package://valkyrie_description/model/meshes/fingers/indexj1_left.dae"/>
      </geometry>
      <origin rpy="0.0 0.0 0.0" xyz="0.0 0.0 0.0"/>
    </visual>

  </link>
  <link name="leftIndexFingerPitch2Link">
    <inertial>
      <mass value="0.018"/>
      <origin rpy="0 0 0" xyz="0 0.013 0"/>
      <inertia ixx="1.562e-06" ixy="1.7e-08" ixz="1.3e-08" iyy="7.22e-07" iyz="3.1e-08" izz="1.255e-06"/>
    </inertial>
    <visual>
      <geometry>
        <mesh filename="package://valkyrie_description/model/meshes/fingers/indexj2_left.dae"/>
      </geometry>
      <origin rpy="0.0 0.0 0.0" xyz="0.0 0.0 0.0"/>
    </visual>

  </link>
  <link name="leftIndexFingerPitch3Link">
    <inertial>
      <mass value="0.01"/>
      <origin rpy="0 0 0" xyz="0 0.01 0"/>
      <inertia ixx="6.02e-07" ixy="2.4e-08" ixz="-0.0" iyy="2.09e-07" iyz="1.7e-08" izz="5.02e-07"/>
    </inertial>
    <visual>
      <geometry>
        <mesh filename="package://valkyrie_description/model/meshes/fingers/indexj3_left.dae"/>
      </geometry>
      <origin rpy="0.0 0.0 0.0" xyz="0.0 0.0 0.0"/>
    </visual>

  </link>
  <joint name="leftIndexFingerPitch1" type="fixed">
    <origin rpy="0.1745 0.0 0.0" xyz="0.0022 0.0976 0.0235"/>
    <axis xyz="0 0 1"/>
    <parent link="leftPalm"/>
    <child link="leftIndexFingerPitch1Link"/>
  </joint>
  <gazebo reference="leftIndexFingerPitch1">
    <implicitSpringDamper>1</implicitSpringDamper>
  </gazebo>
  <joint name="leftIndexFingerPitch2" type="fixed">
    <origin rpy="0.0 0.0 0.0" xyz="0.0 0.0381 0.0"/>
    <axis xyz="0 0 1"/>
    <parent link="leftIndexFingerPitch1Link"/>
    <child link="leftIndexFingerPitch2Link"/>
  </joint>
  <gazebo reference="leftIndexFingerPitch2">
    <implicitSpringDamper>1</implicitSpringDamper>
  </gazebo>
  <joint name="leftIndexFingerPitch3" type="fixed">
    <origin rpy="0.0 0.0 0.0" xyz="0.0 0.0229 0"/>
    <axis xyz="0 0 1"/>
    <parent link="leftIndexFingerPitch2Link"/>
    <child link="leftIndexFingerPitch3Link"/>
  </joint>
  <gazebo reference="leftIndexFingerPitch3">
    <implicitSpringDamper>1</implicitSpringDamper>
  </gazebo>
  <link name="leftMiddleFingerPitch1Link">
    <inertial>
      <mass value="0.02"/>
      <origin rpy="0 0 0" xyz="0 0.02 0"/>
      <inertia ixx="5.148e-06" ixy="4.2e-08" ixz="1.1e-08" iyy="1.322e-06" iyz="-4e-09" izz="4.592e-06"/>
    </inertial>
    <visual>
      <geometry>
        <mesh filename="package://valkyrie_description/model/meshes/fingers/middlej1_left.dae"/>
      </geometry>
      <origin rpy="0.0 0.0 0.0" xyz="0.0 0.0 0.0"/>
    </visual>

  </link>
  <link name="leftMiddleFingerPitch2Link">
    <inertial>
      <mass value="0.011"/>
      <origin rpy="0 0 0" xyz="0 0.013 0"/>
      <inertia ixx="1.97e-06" ixy="-3.4e-08" ixz="1.1e-08" iyy="5.54e-07" iyz="-7.8e-08" izz="2.272e-06"/>
    </inertial>
    <visual>
      <geometry>
        <mesh filename="package://valkyrie_description/model/meshes/fingers/middlej2_left.dae"/>
      </geometry>
      <origin rpy="0.0 0.0 0.0" xyz="0.0 0.0 0.0"/>
    </visual>
  </link>
  <link name="leftMiddleFingerPitch3Link">
    <inertial>
      <mass value="0.006"/>
      <origin rpy="0 0 0" xyz="0 0.01 0"/>
      <inertia ixx="3.96e-07" ixy="9e-09" ixz="1e-09" iyy="1.6e-07" iyz="1.6e-08" izz="3.03e-07"/>
    </inertial>
    <visual>
      <geometry>
        <mesh filename="package://valkyrie_description/model/meshes/fingers/middlej3_left.dae"/>
      </geometry>
      <origin rpy="0.0 0.0 0.0" xyz="0.0 0.0 0.0"/>
    </visual>
  </link>
  <joint name="leftMiddleFingerPitch1" type="fixed">
    <origin rpy="-0.1222 0.0 0.0" xyz="0.0022 0.097 -0.0119"/>
    <axis xyz="0 0 1"/>
    <parent link="leftPalm"/>
    <child link="leftMiddleFingerPitch1Link"/>
  </joint>
  <gazebo reference="leftMiddleFingerPitch1">
    <implicitSpringDamper>1</implicitSpringDamper>
  </gazebo>
  <joint name="leftMiddleFingerPitch2" type="fixed">
    <origin rpy="0.0 0.0 0.0" xyz="0.0 0.0381 0.0"/>
    <axis xyz="0 0 1"/>
    <parent link="leftMiddleFingerPitch1Link"/>
    <child link="leftMiddleFingerPitch2Link"/>
  </joint>
  <gazebo reference="leftMiddleFingerPitch2">
    <implicitSpringDamper>1</implicitSpringDamper>
  </gazebo>
  <joint name="leftMiddleFingerPitch3" type="fixed">
    <origin rpy="0.0 0.0 0.0" xyz="0.0 0.0229 0.0"/>
    <axis xyz="0 0 1"/>
    <parent link="leftMiddleFingerPitch2Link"/>
    <child link="leftMiddleFingerPitch3Link"/>
  </joint>
  <gazebo reference="leftMiddleFingerPitch3">
    <implicitSpringDamper>1</implicitSpringDamper>
  </gazebo>
  <link name="leftPinkyPitch1Link">
    <inertial>
      <mass value="0.02"/>
      <origin rpy="0 0 0" xyz="0 0.02 0"/>
      <inertia ixx="5.148e-06" ixy="4.2e-08" ixz="1.1e-08" iyy="1.322e-06" iyz="-4e-09" izz="4.592e-06"/>
    </inertial>
    <visual>
      <geometry>
        <mesh filename="package://valkyrie_description/model/meshes/fingers/pinkyj1_left.dae"/>
      </geometry>
      <origin rpy="0.0 0.0 0.0" xyz="0.0 0.0 0.0"/>
    </visual>
  </link>
  <link name="leftPinkyPitch2Link">
    <inertial>
      <mass value="0.011"/>
      <origin rpy="0 0 0" xyz="0 0.013 0"/>
      <inertia ixx="1.97e-06" ixy="-3.4e-08" ixz="1.1e-08" iyy="5.54e-07" iyz="-7.8e-08" izz="2.272e-06"/>
    </inertial>
    <visual>
      <geometry>
        <mesh filename="package://valkyrie_description/model/meshes/fingers/pinkyj2_left.dae"/>
      </geometry>
      <origin rpy="0.0 0.0 0.0" xyz="0.0 0.0 0.0"/>
    </visual>
  </link>
  <link name="leftPinkyPitch3Link">
    <inertial>
      <mass value="0.006"/>
      <origin rpy="0 0 0" xyz="0 0.01 0"/>
      <inertia ixx="3.96e-07" ixy="9e-09" ixz="1e-09" iyy="1.6e-07" iyz="1.6e-08" izz="3.03e-07"/>
    </inertial>
    <visual>
      <geometry>
        <mesh filename="package://valkyrie_description/model/meshes/fingers/pinkyj3_left.dae"/>
      </geometry>
      <origin rpy="0.0 0.0 0.0" xyz="0.0 0.0 0.0"/>
    </visual>
  </link>
  <joint name="leftPinkyPitch1" type="fixed">
    <origin rpy="-0.1222 0.0 0.0" xyz="0.0022 0.0838 -0.041"/>
    <axis xyz="0 0 1"/>
    <parent link="leftPalm"/>
    <child link="leftPinkyPitch1Link"/>
  </joint>
  <gazebo reference="leftPinkyPitch1">
    <implicitSpringDamper>1</implicitSpringDamper>
  </gazebo>
  <joint name="leftPinkyPitch2" type="fixed">
    <origin rpy="0.0 0.0 0.0" xyz="0.0 0.0381 0.0"/>
    <axis xyz="0 0 1"/>
    <parent link="leftPinkyPitch1Link"/>
    <child link="leftPinkyPitch2Link"/>
  </joint>
  <gazebo reference="leftPinkyPitch2">
    <implicitSpringDamper>1</implicitSpringDamper>
  </gazebo>
  <joint name="leftPinkyPitch3" type="fixed">
    <origin rpy="0.0 0.0 0.0" xyz="0.0 0.0229 0.0"/>
    <axis xyz="0 0 1"/>
    <parent link="leftPinkyPitch2Link"/>
    <child link="leftPinkyPitch3Link"/>
  </joint>
  <gazebo reference="leftPinkyPitch3">
    <implicitSpringDamper>1</implicitSpringDamper>
  </gazebo>
  <link name="rightHipYawLink">
    <inertial>
      <mass value="2.39"/>
      <origin rpy="0 0 0" xyz="0.02176 0.00131 0.03867"/>
      <inertia ixx="0.017260978" ixy="0.0" ixz="0.0" iyy="0.014866198" iyz="0.0" izz="0.011238178"/>
    </inertial>
    <visual>
      <geometry>
        <mesh filename="package://valkyrie_description/model/meshes/legs/lj1_right.dae"/>
      </geometry>
      <origin rpy="0.0 0.0 0.0" xyz="0.0 0.0 0.0"/>
    </visual>
  </link>
  <link name="rightHipRollLink">
    <inertial>
      <mass value="3.665"/>
      <origin rpy="0 0 0" xyz="0.012959 -0.00755 -0.015950"/>
      <inertia ixx="0.005978962" ixy="0.000234823" ixz="0.000553962" iyy="0.009372646" iyz="-0.000778956" izz="0.008193117"/>
    </inertial>
    <visual>
      <geometry>
        <mesh filename="package://valkyrie_description/model/meshes/legs/lj2_right.dae"/>
      </geometry>
      <origin rpy="0.0 0.0 0.0" xyz="0.0 0.0 0.0"/>
    </visual>
  </link>
  <link name="rightHipPitchLink">
    <inertial>
      <mass value="10.2"/>
      <origin rpy="0 0 0" xyz="0.016691 -0.091397 -0.207875"/>
      <inertia ixx="0.24083413" ixy="-3.5915e-05" ixz="0.003699383" iyy="0.25689705" iyz="0.001333005" izz="0.023276352"/>
    </inertial>
    <visual>
      <geometry>
        <mesh filename="package://valkyrie_description/model/meshes/legs/lj3_right.dae"/>
      </geometry>
      <origin rpy="0.0 0.0 0.0" xyz="0.0 0.0 0.0"/>
    </visual>
  </link>
  <link name="rightKneePitchLink">
    <inertial>
      <mass value="6.6"/>
      <origin rpy="0 0 0" xyz="0.002425 -0.001543 -0.189511"/>
      <inertia ixx="0.096117529" ixy="0.000107885" ixz="0.006319047" iyy="0.097118447" iyz="-0.000494739" izz="0.013722874"/>
    </inertial>
    <visual>
      <geometry>
        <mesh filename="package://valkyrie_description/model/meshes/legs/lj4_right.dae"/>
      </geometry>
      <origin rpy="0.0 0.0 0.0" xyz="0.0 0.0 0.0"/>
    </visual>
  </link>
  <link name="rightAnklePitchLink">
    <inertial>
      <mass value="0.06"/>
      <origin rpy="0 0 0" xyz="0.0 0.0 0.0"/>
      <inertia ixx="1.1226e-05" ixy="0.0" ixz="2.735e-06" iyy="2.67e-05" iyz="0.0" izz="1.8792e-05"/>
    </inertial>
    <visual>
      <geometry>
        <mesh filename="package://valkyrie_description/model/meshes/legs/lj5.dae"/>
      </geometry>
      <origin rpy="0.0 0.0 0.0" xyz="0.0 0.0 0.0"/>
    </visual>
  </link>
  <link name="rightFoot">
    <inertial>
      <mass value="3.255"/>
      <origin rpy="0 0 0" xyz="0.037702 0.005161 -0.047634"/>
      <inertia ixx="0.008966273" ixy="-8.6029e-05" ixz="0.003944774" iyy="0.023943858" iyz="0.000105218" izz="0.028128777"/>
    </inertial>
    <visual>
      <geometry>
        <mesh filename="package://valkyrie_description/model/meshes/legs/foot.dae"/>
      </geometry>
      <origin rpy="0 0 0" xyz="0 0 0"/>
    </visual>
    <collision>
      <geometry>
        <box size="0.27 0.16 0.064"/>
      </geometry>
      <origin rpy="0.0 0.0 0.0" xyz="0.066 0.0 -0.056"/>
    </collision>
    <collision group="midfoot_rear">
      <origin rpy="0 0 0" xyz="0.032 0.055 -0.09"/>
      <geometry>
        <sphere radius="0.0"/>
      </geometry>
    </collision>
    <visual group="midfoot_rear">
      <origin rpy="0 0 0" xyz="0.032 0.055 -0.09"/>
      <geometry>
        <sphere radius="0.01"/>
      </geometry>
    </visual>
    <collision group="midfoot_rear">
      <origin rpy="0 0 0" xyz="0.032 -0.055 -0.09"/>
      <geometry>
        <sphere radius="0.0"/>
      </geometry>
    </collision>
    <visual group="midfoot_rear">
      <origin rpy="0 0 0" xyz="0.032 -0.055 -0.09"/>
      <geometry>
        <sphere radius="0.01"/>
      </geometry>
    </visual>
    <collision group="midfoot_front">
      <origin rpy="0 0 0" xyz="0.102 0.055 -0.09"/>
      <geometry>
        <sphere radius="0.0"/>
      </geometry>
    </collision>
    <visual group="midfoot_front">
      <origin rpy="0 0 0" xyz="0.102 0.055 -0.09"/>
      <geometry>
        <sphere radius="0.01"/>
      </geometry>
    </visual>
    <collision group="midfoot_front">
      <origin rpy="0 0 0" xyz="0.102 -0.055 -0.09"/>
      <geometry>
        <sphere radius="0.0"/>
      </geometry>
    </collision>
    <visual group="midfoot_front">
      <origin rpy="0 0 0" xyz="0.102 -0.055 -0.09"/>
      <geometry>
        <sphere radius="0.01"/>
      </geometry>
    </visual>    
    <collision group="heel">
      <origin rpy="0 0 0" xyz="-0.038 0.055 -0.09"/>
      <geometry>
        <sphere radius="0.0"/>
      </geometry>
    </collision>
    <visual group="heel">
      <origin rpy="0 0 0" xyz="-0.038 0.055 -0.09"/>
      <geometry>
        <sphere radius="0.01"/>
      </geometry>
    </visual>
    <collision group="heel">
      <origin rpy="0 0 0" xyz="-0.038 -0.055 -0.09"/>
      <geometry>
        <sphere radius="0.0"/>
      </geometry>
    </collision>
    <visual group="heel">
      <origin rpy="0 0 0" xyz="-0.038 -0.055 -0.09"/>
      <geometry>
        <sphere radius="0.01"/>
      </geometry>
    </visual>
    <collision group="toe">
      <origin rpy="0 0 0" xyz="0.172 0.055 -0.09"/>
      <geometry>
        <sphere radius="0.0"/>
      </geometry>
    </collision>
    <visual group="toe">
      <origin rpy="0 0 0" xyz="0.172 0.055 -0.09"/>
      <geometry>
        <sphere radius="0.01"/>
      </geometry>
    </visual>
    <collision group="toe">
      <origin rpy="0 0 0" xyz="0.172 -0.055 -0.09"/>
      <geometry>
        <sphere radius="0.0"/>
      </geometry>
    </collision>
    <visual group="toe">
      <origin rpy="0 0 0" xyz="0.172 -0.055 -0.09"/>
      <geometry>
        <sphere radius="0.01"/>
      </geometry>
    </visual>
  </link>
  <joint name="rightHipYaw" type="revolute">
    <origin rpy="0.0 0.0 0.0" xyz="0.0 -0.1016 -0.1853"/>
    <axis xyz="0 0 1"/>
    <parent link="base_link"/>
    <child link="rightHipYawLink"/>
    <limit effort="190" lower="-1.1" upper="0.4141" velocity="5.89"/>
    <controller_gains Kd="500" Kp="15000"/>
    <dynamics damping="0.1" friction="0.0"/>
  </joint>
  <gazebo reference="rightHipYaw">
    <provideFeedback>1</provideFeedback>
    <implicitSpringDamper>1</implicitSpringDamper>
  </gazebo>
  <joint name="rightHipRoll" type="revolute">
    <origin rpy="0.0 0.0 0.0" xyz="0.0 0.0 0.0"/>
    <axis xyz="1 0 0"/>
    <parent link="rightHipYawLink"/>
    <child link="rightHipRollLink"/>
    <limit effort="350" lower="-0.5515" upper="0.467" velocity="7"/>
    <controller_gains Kd="500" Kp="15000"/>
    <dynamics damping="0.1" friction="0.0"/>
  </joint>
  <gazebo reference="rightHipRoll">
    <provideFeedback>1</provideFeedback>
    <implicitSpringDamper>1</implicitSpringDamper>
  </gazebo>
  <joint name="rightHipPitch" type="revolute">
    <origin rpy="0.0 0.0 0.0" xyz="0.0 0.0 -0.0609"/>
    <axis xyz="0 1 0"/>
    <parent link="rightHipRollLink"/>
    <child link="rightHipPitchLink"/>
    <limit effort="350" lower="-2.42" upper="1.619" velocity="6.11"/>
    <controller_gains Kd="500" Kp="15000"/>
    <dynamics damping="0.1" friction="0.0"/>
  </joint>
  <gazebo reference="rightHipPitch">
    <provideFeedback>1</provideFeedback>
    <implicitSpringDamper>1</implicitSpringDamper>
  </gazebo>
  <joint name="rightKneePitch" type="revolute">
    <origin rpy="0.0 0.0 0.0" xyz="0.000112225 -0.0361046 -0.430959"/>
    <axis xyz="0 1 0"/>
    <parent link="rightHipPitchLink"/>
    <child link="rightKneePitchLink"/>
    <limit effort="350" lower="-0.083" upper="2.057" velocity="6.11"/>
    <controller_gains Kd="500" Kp="15000"/>
    <dynamics damping="0.1" friction="0.0"/>
  </joint>
  <gazebo reference="rightKneePitch">
    <provideFeedback>1</provideFeedback>
    <implicitSpringDamper>1</implicitSpringDamper>
  </gazebo>
  <joint name="rightAnklePitch" type="revolute">
    <origin rpy="0.0 0.0 0.0" xyz="-0.0102381 0.0 -0.40627"/>
    <axis xyz="0 1 0"/>
    <parent link="rightKneePitchLink"/>
    <child link="rightAnklePitchLink"/>
    <limit effort="205" lower="-1.8644" upper="1.875" velocity="11"/>
    <controller_gains Kd="400" Kp="15000"/>
    <dynamics damping="0.1" friction="0.0"/>
  </joint>
  <gazebo reference="rightAnklePitch">
    <provideFeedback>1</provideFeedback>
    <implicitSpringDamper>1</implicitSpringDamper>
  </gazebo>
  <joint name="rightAnkleRoll" type="revolute">
    <origin rpy="0.0 0.0 0.0" xyz="0.0 0.0 0.0"/>
    <axis xyz="1 0 0"/>
    <parent link="rightAnklePitchLink"/>
    <child link="rightFoot"/>
    <limit effort="205" lower="-1.349" upper="1.348" velocity="11"/>
    <controller_gains Kd="400" Kp="15000"/>
    <dynamics damping="0.3" friction="0.0"/>
  </joint>
  <gazebo reference="rightAnkleRoll">
    <provideFeedback>1</provideFeedback>
    <implicitSpringDamper>1</implicitSpringDamper>
  </gazebo>
  <link name="leftHipYawLink">
    <inertial>
      <mass value="2.39"/>
      <origin rpy="0 0 0" xyz="0.02176 -0.00131 0.03867"/>
      <inertia ixx="0.017260978" ixy="0.0" ixz="0.0" iyy="0.014866198" iyz="0.0" izz="0.011238178"/>
    </inertial>
    <visual>
      <geometry>
        <mesh filename="package://valkyrie_description/model/meshes/legs/lj1_left.dae"/>
      </geometry>
      <origin rpy="0.0 0.0 0.0" xyz="0.0 0.0 0.0"/>
    </visual>
  </link>
  <link name="leftHipRollLink">
    <inertial>
      <mass value="3.665"/>
      <origin rpy="0 0 0" xyz="0.012959 0.00755 -0.015950"/>
      <inertia ixx="0.005978962" ixy="-0.000234823" ixz="0.000553962" iyy="0.009372646" iyz="0.000778956" izz="0.008193117"/>
    </inertial>
    <visual>
      <geometry>
        <mesh filename="package://valkyrie_description/model/meshes/legs/lj2_left.dae"/>
      </geometry>
      <origin rpy="0.0 0.0 0.0" xyz="0.0 0.0 0.0"/>
    </visual>
  </link>
  <link name="leftHipPitchLink">
    <inertial>
      <mass value="10.2"/>
      <origin rpy="0 0 0" xyz="0.016691 0.091397 -0.207875"/>
      <inertia ixx="0.24083413" ixy="3.5915e-05" ixz="0.003699383" iyy="0.25689705" iyz="-0.001333005" izz="0.023276352"/>
    </inertial>
    <visual>
      <geometry>
        <mesh filename="package://valkyrie_description/model/meshes/legs/lj3_left.dae"/>
      </geometry>
      <origin rpy="0.0 0.0 0.0" xyz="0.0 0.0 0.0"/>
    </visual>

  </link>
  <link name="leftKneePitchLink">
    <inertial>
      <mass value="6.6"/>
      <origin rpy="0 0 0" xyz="0.002425 -0.001543 -0.189511"/>
      <inertia ixx="0.096117529" ixy="0.000107885" ixz="0.006319047" iyy="0.097118447" iyz="-0.000494739" izz="0.013722874"/>
    </inertial>
    <visual>
      <geometry>
        <mesh filename="package://valkyrie_description/model/meshes/legs/lj4_left.dae"/>
      </geometry>
      <origin rpy="0.0 0.0 0.0" xyz="0.0 0.0 0.0"/>
    </visual>

  </link>
  <link name="leftAnklePitchLink">
    <inertial>
      <mass value="0.06"/>
      <origin rpy="0 0 0" xyz="0.0 0.0 0.0"/>
      <inertia ixx="1.1226e-05" ixy="0.0" ixz="2.735e-06" iyy="2.67e-05" iyz="0.0" izz="1.8792e-05"/>
    </inertial>
    <visual>
      <geometry>
        <mesh filename="package://valkyrie_description/model/meshes/legs/lj5.dae"/>
      </geometry>
      <origin rpy="0.0 0.0 0.0" xyz="0.0 0.0 0.0"/>
    </visual>

  </link>
  <link name="leftFoot">
    <inertial>
      <mass value="3.255"/>
      <origin rpy="0 0 0" xyz="0.037702 0.005161 -0.047634"/>
      <inertia ixx="0.008966273" ixy="-8.6029e-05" ixz="0.003944774" iyy="0.023943858" iyz="0.000105218" izz="0.028128777"/>
    </inertial>
    <visual>
      <geometry>
        <mesh filename="package://valkyrie_description/model/meshes/legs/foot.dae"/>
      </geometry>
      <origin rpy="0 0 0" xyz="0 0 0"/>
    </visual>
    <collision>
      <geometry>
        <box size="0.27 0.16 0.064"/>
      </geometry>
      <origin rpy="0.0 0.0 0.0" xyz="0.066 0.0 -0.056"/>
    </collision>
    <collision group="midfoot_rear">
      <origin rpy="0 0 0" xyz="0.032 0.055 -0.09"/>
      <geometry>
        <sphere radius="0.0"/>
      </geometry>
    </collision>
    <visual group="midfoot_rear">
      <origin rpy="0 0 0" xyz="0.032 0.055 -0.09"/>
      <geometry>
        <sphere radius="0.01"/>
      </geometry>
    </visual>
    <collision group="midfoot_rear">
      <origin rpy="0 0 0" xyz="0.032 -0.055 -0.09"/>
      <geometry>
        <sphere radius="0.0"/>
      </geometry>
    </collision>
    <visual group="midfoot_rear">
      <origin rpy="0 0 0" xyz="0.032 -0.055 -0.09"/>
      <geometry>
        <sphere radius="0.01"/>
      </geometry>
    </visual>
    <collision group="midfoot_front">
      <origin rpy="0 0 0" xyz="0.102 0.055 -0.09"/>
      <geometry>
        <sphere radius="0.0"/>
      </geometry>
    </collision>
    <visual group="midfoot_front">
      <origin rpy="0 0 0" xyz="0.102 0.055 -0.09"/>
      <geometry>
        <sphere radius="0.01"/>
      </geometry>
    </visual>
    <collision group="midfoot_front">
      <origin rpy="0 0 0" xyz="0.102 -0.055 -0.09"/>
      <geometry>
        <sphere radius="0.0"/>
      </geometry>
    </collision>
    <visual group="midfoot_front">
      <origin rpy="0 0 0" xyz="0.102 -0.055 -0.09"/>
      <geometry>
        <sphere radius="0.01"/>
      </geometry>
    </visual>    
    <collision group="heel">
      <origin rpy="0 0 0" xyz="-0.038 0.055 -0.09"/>
      <geometry>
        <sphere radius="0.0"/>
      </geometry>
    </collision>
    <visual group="heel">
      <origin rpy="0 0 0" xyz="-0.038 0.055 -0.09"/>
      <geometry>
        <sphere radius="0.01"/>
      </geometry>
    </visual>
    <collision group="heel">
      <origin rpy="0 0 0" xyz="-0.038 -0.055 -0.09"/>
      <geometry>
        <sphere radius="0.0"/>
      </geometry>
    </collision>
    <visual group="heel">
      <origin rpy="0 0 0" xyz="-0.038 -0.055 -0.09"/>
      <geometry>
        <sphere radius="0.01"/>
      </geometry>
    </visual>
    <collision group="toe">
      <origin rpy="0 0 0" xyz="0.172 0.055 -0.09"/>
      <geometry>
        <sphere radius="0.0"/>
      </geometry>
    </collision>
    <visual group="toe">
      <origin rpy="0 0 0" xyz="0.172 0.055 -0.09"/>
      <geometry>
        <sphere radius="0.01"/>
      </geometry>
    </visual>
    <collision group="toe">
      <origin rpy="0 0 0" xyz="0.172 -0.055 -0.09"/>
      <geometry>
        <sphere radius="0.0"/>
      </geometry>
    </collision>
    <visual group="toe">
      <origin rpy="0 0 0" xyz="0.172 -0.055 -0.09"/>
      <geometry>
        <sphere radius="0.01"/>
      </geometry>
    </visual>
  </link>
  <joint name="leftHipYaw" type="revolute">
    <origin rpy="0.0 0.0 0.0" xyz="0.0 0.1016 -0.1853"/>
    <axis xyz="0 0 1"/>
    <parent link="base_link"/>
    <child link="leftHipYawLink"/>
    <limit effort="190" lower="-0.4141" upper="1.1" velocity="5.89"/>
    <controller_gains Kd="500" Kp="15000"/>
    <dynamics damping="0.1" friction="0.0"/>
  </joint>
  <gazebo reference="leftHipYaw">
    <provideFeedback>1</provideFeedback>
    <implicitSpringDamper>1</implicitSpringDamper>
  </gazebo>
  <joint name="leftHipRoll" type="revolute">
    <origin rpy="0.0 0.0 0.0" xyz="0.0 0.0 0.0"/>
    <axis xyz="1 0 0"/>
    <parent link="leftHipYawLink"/>
    <child link="leftHipRollLink"/>
    <limit effort="350" lower="-0.467" upper="0.5515" velocity="7"/>
    <controller_gains Kd="500" Kp="15000"/>
    <dynamics damping="0.1" friction="0.0"/>
  </joint>
  <gazebo reference="leftHipRoll">
    <provideFeedback>1</provideFeedback>
    <implicitSpringDamper>1</implicitSpringDamper>
  </gazebo>
  <joint name="leftHipPitch" type="revolute">
    <origin rpy="0.0 0.0 0.0" xyz="0.0 0.0 -0.0609"/>
    <axis xyz="0 1 0"/>
    <parent link="leftHipRollLink"/>
    <child link="leftHipPitchLink"/>
    <limit effort="350" lower="-2.42" upper="1.619" velocity="6.11"/>
    <controller_gains Kd="500" Kp="15000"/>
    <dynamics damping="0.1" friction="0.0"/>
  </joint>
  <gazebo reference="leftHipPitch">
    <provideFeedback>1</provideFeedback>
    <implicitSpringDamper>1</implicitSpringDamper>
  </gazebo>
  <joint name="leftKneePitch" type="revolute">
    <origin rpy="0.0 0.0 0.0" xyz="0.000112225 0.0361046 -0.430959"/>
    <axis xyz="0 1 0"/>
    <parent link="leftHipPitchLink"/>
    <child link="leftKneePitchLink"/>
    <limit effort="350" lower="-0.083" upper="2.057" velocity="6.11"/>
    <controller_gains Kd="500" Kp="15000"/>
    <dynamics damping="0.1" friction="0.0"/>
  </joint>
  <gazebo reference="leftKneePitch">
    <provideFeedback>1</provideFeedback>
    <implicitSpringDamper>1</implicitSpringDamper>
  </gazebo>
  <joint name="leftAnklePitch" type="revolute">
    <origin rpy="0.0 0.0 0.0" xyz="-0.0102381 0.0 -0.40627"/>
    <axis xyz="0 1 0"/>
    <parent link="leftKneePitchLink"/>
    <child link="leftAnklePitchLink"/>
    <limit effort="205" lower="-1.8644" upper="1.875" velocity="11"/>
    <controller_gains Kd="400" Kp="15000"/>
    <dynamics damping="0.1" friction="0.0"/>
  </joint>
  <gazebo reference="leftAnklePitch">
    <provideFeedback>1</provideFeedback>
    <implicitSpringDamper>1</implicitSpringDamper>
  </gazebo>
  <joint name="leftAnkleRoll" type="revolute">
    <origin rpy="0.0 0.0 0.0" xyz="0.0 0.0 0.0"/>
    <axis xyz="1 0 0"/>
    <parent link="leftAnklePitchLink"/>
    <child link="leftFoot"/>
    <limit effort="205" lower="-1.349" upper="1.348" velocity="11"/>
    <controller_gains Kd="400" Kp="15000"/>
    <dynamics damping="0.3" friction="0.0"/>
  </joint>
  <gazebo reference="leftAnkleRoll">
    <provideFeedback>1</provideFeedback>
    <implicitSpringDamper>1</implicitSpringDamper>
  </gazebo>
  <link name="rightPelvisIMU_Frame">
    <!-- Virtual Link -->
    <inertial>
      <mass value="1e-07"/>
      <origin rpy="0 0 0" xyz="0 0 0"/>
      <inertia ixx="3.33333333333e-22" ixy="0.0" ixz="0.0" iyy="3.33333333333e-22" iyz="0.0" izz="5e-22"/>
    </inertial>
  </link>
  <joint name="rightPelvisIMU_Offset" type="fixed">
    <origin rpy="-1.57 0.0 1.274" xyz="0.0515 -0.115 -0.042"/>
    <axis xyz="0 0 1"/>
    <parent link="base_link"/>
    <child link="rightPelvisIMU_Frame"/>
  </joint>
  <link name="leftPelvisIMU_Frame">
    <!-- Virtual Link -->
    <inertial>
      <mass value="1e-07"/>
      <origin rpy="0 0 0" xyz="0 0 0"/>
      <inertia ixx="3.33333333333e-22" ixy="0.0" ixz="0.0" iyy="3.33333333333e-22" iyz="0.0" izz="5e-22"/>
    </inertial>
  </link>
  <joint name="leftPelvisIMU_Offset" type="fixed">
    <origin rpy="1.57 0 -1.274" xyz="0.0515 0.115 -0.042"/>
    <axis xyz="0 0 1"/>
    <parent link="base_link"/>
    <child link="leftPelvisIMU_Frame"/>
  </joint>
  <link name="leftCOP_Frame">
    <inertial>
      <mass value="0.1"/>
      <origin rpy="0 0 0" xyz="0 0 0"/>
      <inertia ixx="8.33333333333e-05" ixy="0.0" ixz="0.0" iyy="8.33333333333e-05" iyz="0.0" izz="0.000125"/>
    </inertial>
  </link>
  <joint name="leftCOP_Offset" type="fixed">
    <origin rpy="0.0 0.13 0.0" xyz="0.0189 0.0 -0.0783"/>
    <axis xyz="0 0 1"/>
    <parent link="leftFoot"/>
    <child link="leftCOP_Frame"/>
  </joint>
  <gazebo reference="leftCOP_Offset">
    <implicitSpringDamper>1</implicitSpringDamper>
  </gazebo>
  <link name="leftLegSixAxis_Frame">
    <!-- Virtual Link -->
    <inertial>
      <mass value="1e-07"/>
      <origin rpy="0 0 0" xyz="0 0 0"/>
      <inertia ixx="3.33333333333e-22" ixy="0.0" ixz="0.0" iyy="3.33333333333e-22" iyz="0.0" izz="5e-22"/>
    </inertial>
  </link>
  <joint name="leftLegSixAxis_Offset" type="fixed">
    <origin rpy="3.14 0.0 -1.047" xyz="0.0215646 0.0 -0.051054"/>
    <axis xyz="0 0 1"/>
    <parent link="leftFoot"/>
    <child link="leftLegSixAxis_Frame"/>
  </joint>
  <gazebo reference="leftLegSixAxis_Offset">
    <implicitSpringDamper>1</implicitSpringDamper>
  </gazebo>
  <gazebo reference="leftLegSixAxis_Offset">
    <sensor name="leftLegSixAxis" type="force_torque">
    </sensor>
  </gazebo>
  <link name="rightCOP_Frame">
    <inertial>
      <mass value="0.1"/>
      <origin rpy="0 0 0" xyz="0 0 0"/>
      <inertia ixx="8.33333333333e-05" ixy="0.0" ixz="0.0" iyy="8.33333333333e-05" iyz="0.0" izz="0.000125"/>
    </inertial>
  </link>
  <joint name="rightCOP_Offset" type="fixed">
    <origin rpy="0.0 0.13 0.0" xyz="0.0189 0.0 -0.0783"/>
    <axis xyz="0 0 1"/>
    <parent link="rightFoot"/>
    <child link="rightCOP_Frame"/>
  </joint>
  <gazebo reference="rightCOP_Offset">
    <implicitSpringDamper>1</implicitSpringDamper>
  </gazebo>
  <link name="rightLegSixAxis_Frame">
    <!-- Virtual Link -->
    <inertial>
      <mass value="1e-07"/>
      <origin rpy="0 0 0" xyz="0 0 0"/>
      <inertia ixx="3.33333333333e-22" ixy="0.0" ixz="0.0" iyy="3.33333333333e-22" iyz="0.0" izz="5e-22"/>
    </inertial>
  </link>
  <joint name="rightLegSixAxis_Offset" type="fixed">
    <origin rpy="3.14 0.0 -1.047" xyz="0.0215646 0.0 -0.051054"/>
    <axis xyz="0 0 1"/>
    <parent link="rightFoot"/>
    <child link="rightLegSixAxis_Frame"/>
  </joint>
  <gazebo reference="rightLegSixAxis_Offset">
    <implicitSpringDamper>1</implicitSpringDamper>
  </gazebo>
  <gazebo reference="rightLegSixAxis_Offset">
    <sensor name="rightLegSixAxis" type="force_torque">
    </sensor>
  </gazebo>
  <joint name="multisense_head_root_joint" type="fixed">
    <origin rpy="-3.14159 0.130899694 0.0" xyz="0.183585961 0.0 0.075353826"/>
    <axis xyz="0 0 1"/>
    <parent link="upperNeckPitchLink"/>
    <child link="head"/>
  </joint>
  <gazebo reference="multisense_head_root_joint">
    <implicitSpringDamper>1</implicitSpringDamper>
  </gazebo>
  <link name="rightTorsoIMU_Frame">
    <!-- Virtual Link -->
    <inertial>
      <mass value="1e-07"/>
      <origin rpy="0 0 0" xyz="0 0 0"/>
      <inertia ixx="3.33333333333e-22" ixy="0.0" ixz="0.0" iyy="3.33333333333e-22" iyz="0.0" izz="5e-22"/>
    </inertial>
  </link>
  <joint name="rightTorsoIMU_Offset" type="fixed">
    <origin rpy="-1.57 0.0 3.14" xyz="-0.047 -0.134 0.363"/>
    <axis xyz="0 0 1"/>
    <parent link="torso"/>
    <child link="rightTorsoIMU_Frame"/>
  </joint>
  <link name="leftTorsoIMU_Frame">
    <!-- Virtual Link -->
    <inertial>
      <mass value="1e-07"/>
      <origin rpy="0 0 0" xyz="0 0 0"/>
      <inertia ixx="3.33333333333e-22" ixy="0.0" ixz="0.0" iyy="3.33333333333e-22" iyz="0.0" izz="5e-22"/>
    </inertial>
  </link>
  <joint name="leftTorsoIMU_Offset" type="fixed">
    <origin rpy="1.57 0.0 3.14" xyz="-0.047 0.134 0.363"/>
    <axis xyz="0 0 1"/>
    <parent link="torso"/>
    <child link="leftTorsoIMU_Frame"/>
  </joint>
  <link name="rightHazardCamera_Frame">
    <!-- Virtual Link -->
    <inertial>
      <mass value="1e-07"/>
      <origin rpy="0 0 0" xyz="0 0 0"/>
      <inertia ixx="3.33333333333e-22" ixy="0.0" ixz="0.0" iyy="3.33333333333e-22" iyz="0.0" izz="5e-22"/>
    </inertial>
  </link>
  <joint name="rightHazardCamera_Offset" type="fixed">
    <origin rpy="1.57 0.0 1.57" xyz="0.0345 -0.0406 0.1135"/>
    <axis xyz="0 0 1"/>
    <parent link="torso"/>
    <child link="rightHazardCamera_Frame"/>
  </joint>
  <link name="leftHazardCamera_Frame">
    <!-- Virtual Link -->
    <inertial>
      <mass value="1e-07"/>
      <origin rpy="0 0 0" xyz="0 0 0"/>
      <inertia ixx="3.33333333333e-22" ixy="0.0" ixz="0.0" iyy="3.33333333333e-22" iyz="0.0" izz="5e-22"/>
    </inertial>
  </link>
  <joint name="leftHazardCamera_Offset" type="fixed">
    <origin rpy="1.57 0.0 1.57" xyz="0.0345 0.0406 0.1135"/>
    <axis xyz="0 0 1"/>
    <parent link="torso"/>
    <child link="leftHazardCamera_Frame"/>
  </joint>

  <!-- Head Link Simple Collision Meshes -->
  <link name="head">
    <inertial>
      <origin rpy="0 0 0" xyz="-0.075493 3.3383E-05 0.02774"/>
      <mass value="1.41984"/>
      <inertia ixx="0.0039688" ixy="-1.5797E-06" ixz="-0.00089293" iyy="0.0041178" iyz="-6.8415E-07" izz="0.0035243"/>
    </inertial>
  </link>
  <link name="hokuyo_link">
    <inertial>
      <origin rpy="0 0 0" xyz="0.032428 0.0004084 -0.0041835"/>
      <mass value="0.057654"/>
      <inertia ixx="3.7174E-05" ixy="4.9927E-08" ixz="1.1015E-05" iyy="4.2412E-05" iyz="-9.8165E-09" izz="4.167E-05"/>
    </inertial>
    <visual>
      <!--origin xyz="0.065774 -0.001163 -0.08809" rpy="0 0 0" /-->
      <!--origin xyz="0.045 -0.001163 -0.08809" rpy="-0.314 0 0" /-->
      <origin rpy="-0.314 0 0" xyz="0.045 -0.0261018277 -0.08342369"/>
      <geometry>
        <mesh filename="package://valkyrie_description/model/meshes/multisense/head_camera.dae"/>
      </geometry>
      <material name="">
        <color rgba="0.72941 0.35686 0.023529 1"/>
      </material>
    </visual>
    <collision>
      <origin rpy="0 0 0" xyz="0.01885 0 -0.02119"/>
      <geometry>
        <box size="0.08 0.06 0.04238"/>
      </geometry>
    </collision>
    <collision>
      <origin rpy="0 0 0" xyz="0.03 0 0.0235"/>
      <geometry>
        <cylinder length="0.047" radius="0.024425"/>
      </geometry>
    </collision>
  </link>
  <gazebo reference="head">
    <mu1>0.9</mu1>
    <mu2>0.9</mu2>
  </gazebo>
  <gazebo reference="hokuyo_link">
    <mu1>0.9</mu1>
    <mu2>0.9</mu2>
  </gazebo>
  <joint name="hokuyo_joint" type="fixed">
    <origin rpy="0 0 0" xyz="-0.0446 0 0.0880"/>
    <parent link="head"/>
    <child link="hokuyo_link"/>
    <axis xyz="1 0 0"/>
    <dynamics damping="0.01" friction="0"/>
  </joint>
  <gazebo reference="hokuyo_joint">
    <implicitSpringDamper>1</implicitSpringDamper>
  </gazebo>
  <!-- Hokuyo Laser -->
  <joint name="head_hokuyo_joint" type="fixed">
    <axis xyz="0 1 0"/>
    <origin rpy="0 0 0" xyz="0.03 0 0.015"/>
    <parent link="hokuyo_link"/>
    <child link="head_hokuyo_frame"/>
  </joint>
  <link name="head_hokuyo_frame">
    <inertial>
      <mass value="1e-5"/>
      <!-- collocate with parent link and remove mass from it -->
      <origin rpy="0 0 0" xyz="0.042428 0.0004084 0.0108165"/>
      <inertia ixx="1e-6" ixy="0" ixz="0" iyy="1e-6" iyz="0" izz="1e-6"/>
    </inertial>
  </link>
 
  </robot>
