<?xml version="1.0" encoding="utf-8"?>
<COLLADA xmlns="http://www.collada.org/2005/11/COLLADASchema" version="1.4.1">
  <asset>
    <contributor>
      <author>Blender User</author>
      <authoring_tool>Blender 2.69.0 r60991</authoring_tool>
    </contributor>
    <created>2014-02-11T13:49:41</created>
    <modified>2014-02-11T13:49:41</modified>
    <unit name="meter" meter="1"/>
    <up_axis>Z_UP</up_axis>
  </asset>
  <library_images/>
  <library_effects>
    <effect id="Material_003-effect">
      <profile_COMMON>
        <technique sid="common">
          <phong>
            <emission>
              <color sid="emission">0 0 0 1</color>
            </emission>
            <ambient>
              <color sid="ambient">0 0 0 1</color>
            </ambient>
            <diffuse>
              <color sid="diffuse">0.9698 0.9698 0.9698 1</color>
            </diffuse>
            <specular>
              <color sid="specular">0.5 0.5 0.5 1</color>
            </specular>
            <shininess>
              <float sid="shininess">50</float>
            </shininess>
            <index_of_refraction>
              <float sid="index_of_refraction">1</float>
            </index_of_refraction>
          </phong>
        </technique>
        <extra>
          <technique profile="GOOGLEEARTH">
            <double_sided>1</double_sided>
          </technique>
        </extra>
      </profile_COMMON>
      <extra><technique profile="MAX3D"><double_sided>1</double_sided></technique></extra>
    </effect>
  </library_effects>
  <library_materials>
    <material id="Material_003-material" name="Material_003">
      <instance_effect url="#Material_003-effect"/>
    </material>
  </library_materials>
  <library_geometries>
    <geometry id="shape0_012-mesh" name="shape0.012">
      <mesh>
        <source id="shape0_012-mesh-positions">
          <float_array id="shape0_012-mesh-positions-array" count="780">0.08008176 0.03000003 0.0209999 0.06009352 0.03000003 -0.006436347 0.1001085 0.0355001 0.006494939 0.1001121 0.0355001 -0.006483733 0.06774514 0.03550004 0.01698589 0.0601089 0.03550004 0.006483674 0.06011247 0.03550004 -0.006494939 0.0601089 0.03000003 0.006483674 0.06773734 0.03000003 -0.01698011 0.06775468 0.03550004 -0.0169928 0.08011645 0.03550004 -0.02100002 0.08013921 0.03000009 -0.0209999 0.09252667 0.03000009 -0.01694881 0.09247589 0.0355001 -0.01698589 0.09246629 0.03550004 0.0169928 0.1001121 0.03000009 -0.006483733 0.1001275 0.03000009 0.006436347 0.08010452 0.03550004 0.02099996 0.09248363 0.03000009 0.01698011 0.06769436 0.03000003 0.01694881 0.09248477 -0.02999985 0.01697933 0.06769537 -0.02999991 0.01694953 0.06009322 -0.02999991 -0.006435215 0.09252572 -0.02999985 -0.01694959 0.06773638 -0.02999991 -0.01697939 0.09247595 -0.03549987 -0.01698589 0.1001279 -0.02999985 0.006435155 0.1001122 -0.03549987 -0.006483733 0.08011651 -0.03549987 -0.02100002 0.1001121 -0.02999985 -0.006483733 0.08013802 -0.02999985 -0.02099996 0.06775474 -0.03549987 -0.01699286 0.06011259 -0.03549993 -0.006494998 0.06010895 -0.02999991 0.006483674 0.06010895 -0.03549993 0.006483674 0.08010458 -0.03549987 0.02099996 0.0677452 -0.03549993 0.01698583 0.09246635 -0.03549987 0.01699274 0.08008313 -0.02999991 0.0209999 0.1001086 -0.03549987 0.006494939 -0.0219506 0.02192026 0.023 -0.02998512 0.008022189 0.023 -0.02195054 -0.02192032 0.023 -0.02998507 -0.008022248 0.023 -0.008022129 -0.02997189 0.023 0.008022189 -0.02997183 0.023 0.0219506 -0.02192026 0.02299994 -0.008022189 0.02997183 0.023 0.02998518 -0.008022189 0.02299994 0.02195054 0.02192032 0.02299994 0.02998507 0.008022248 0.02299994 0.008022129 0.02997189 0.023 0.008033275 0.02994376 0.02899998 0.02998507 0.008022248 0.02899998 0.02195054 0.02192032 0.02899998 0.02998518 -0.008022189 0.02899998 -0.008033335 0.0299437 0.02899998 0.0219506 -0.02192026 0.02899998 0.008033335 -0.0299437 0.02899998 -0.008033275 -0.02994376 0.02899998 -0.02998507 -0.008022248 0.02899998 -0.02195054 -0.02192032 0.02899998 -0.02998512 0.008022189 0.02899998 -0.0219506 0.02192026 0.02899998 -0.02503448 -0.02200001 -0.02299994 -0.02203041 0.02999997 -0.02299994 0.08011049 0.03000009 0.02299994 0.0936492 0.03000009 0.01860648 0.1020147 0.03000009 0.007106602 0.1020147 0.03000009 -0.007106661 0.08011049 0.03000009 -0.023 -0.02203041 0.02999997 0.023 0.09364914 0.03000009 -0.01860648 0.08011049 0.02200007 -0.023 0.1020147 0.02200007 0.007106602 -0.02503454 0.02199995 -0.02299994 -0.02503454 0.02699995 -0.02299994 -0.02503454 0.02199995 0.023 -0.02503454 0.02699995 0.023 0.08011049 0.02200007 0.02299994 0.0936492 0.02200007 -0.01860648 0.0936492 0.02200007 0.01860648 0.1020147 0.02200007 -0.007106661 -0.02203035 -0.02999997 0.023 0.08011054 -0.02999991 0.02299994 -0.02203035 -0.02999997 -0.02299994 -0.02503448 -0.02700001 0.023 -0.02503448 -0.02200001 0.023 0.1020148 -0.02999985 0.007106602 0.09364926 -0.02999985 0.01860648 0.09364926 -0.02199989 0.01860648 0.1020148 -0.02999985 -0.007106661 0.1020148 -0.02199983 -0.007106661 0.09364926 -0.02999985 -0.01860648 0.08011054 -0.02999991 -0.023 0.0936492 -0.02199989 -0.01860648 0.08011054 -0.02199989 0.02299994 0.1020148 -0.02199983 0.007106602 -0.02503448 -0.02700001 -0.02299994 0.08011054 -0.02199989 -0.023 0.0350483 0.03000003 -0.023 0.0350483 0.03000003 0.02299994 0.0350483 0.02200001 -0.023 0.0350483 0.02200001 0.02299994 0.03504836 -0.02999991 -0.023 0.03504836 -0.02999991 0.02299994 0.03504836 -0.02199995 -0.023 0.03504836 -0.02199995 0.02299994 0.06008285 0.03000003 0.02299994 0.06008285 0.03000003 -0.023 0.06008285 0.02200007 -0.023 0.06008285 0.02200007 0.02299994 0.06008291 -0.02999991 -0.023 0.06008291 -0.02999991 0.02299994 0.06008291 -0.02199989 0.02299994 0.06008291 -0.02199989 -0.023 0.08010876 -0.03549987 0.006489276 0.08011239 -0.03549987 -0.006489336 0.08011227 0.03550004 -0.006489336 0.0801087 0.03550004 0.006489336 -0.008011043 0.02999997 -0.023 -0.008010983 -0.02999997 -0.023 -0.008011043 0.02199995 -0.023 -0.008010983 -0.02200001 -0.023 0.008011043 -0.02999997 -0.023 0.008010983 0.02999997 -0.023 0.008011043 -0.02199995 -0.023 0.008010983 0.02200001 -0.023 -0.02503448 -0.01699948 0.023 -0.02503454 0.0169714 0.023 -0.02503454 0.0169714 0.02899998 -0.02503448 -0.01699948 0.02899998 0 -0.01499998 0.02899998 0.008753538 -0.01218956 0.02899998 -0.008753538 0.01218956 0.02899998 0 0.01499998 0.02899998 -0.01427316 0.004673063 0.02899998 -0.008762717 -0.01218301 0.02900004 0 0.01499998 0.305 0.008726179 -0.01220917 0.305 0.01427233 -0.004675745 0.305 0 -0.01499998 0.305 -0.00872606 0.01220917 0.305 -0.008723616 -0.0122109 0.305 -0.01427131 -0.004678428 0.305 -0.01427221 0.004675745 0.305 -0.01427656 -0.004662752 0.02899998 0.008723735 0.0122109 0.305 0.008762717 0.01218301 0.02899998 0.01427656 0.004662752 0.02899998 0.01427316 -0.004673063 0.02899998 0.01427143 0.004678428 0.305 0 -0.00999999 0.35075 -0.01001369 -2.417e-7 0.35075 0 0.00999999 0.35075 0.007050693 0.007101058 0.35075 0.01001387 2.417e-7 0.35075 0.007050991 -0.00710076 0.35075 0 -0.02599996 0.34 -0.007050573 -0.007101058 0.35075 -0.007050871 0.00710076 0.35075 0 0.02599996 0.34 0.0153039 0.02103412 0.34 0 0.02599996 0.335 0.02476167 0.008034169 0.34 0.02476173 -0.00803411 0.34 0.01530396 -0.02103406 0.34 0.02476173 -0.00803411 0.335 0.01530396 -0.02103406 0.335 -0.01530379 -0.02103412 0.34 -0.01530385 0.02103406 0.34 -0.02476161 0.00803411 0.34 -0.02476155 -0.008034169 0.335 -0.02476155 -0.008034169 0.34 -0.02476161 0.00803411 0.335 0 -0.02599996 0.335 -0.01530379 -0.02103412 0.335 -0.01530385 0.02103406 0.335 0.02476167 0.008034169 0.335 0.0153039 0.02103412 0.335 0 0.02999997 0.335 0 0.02999997 0.305 0 -0.02999997 0.335 -0.02503448 0.00803411 0.305 0 -0.02999997 0.305 -0.02503442 -0.008034169 0.335 -0.02503442 -0.008034169 0.305 -0.02503448 0.00803411 0.335 0 -0.00999999 0.34 -0.01001369 -2.417e-7 0.34 0 0.00999999 0.34 0.007050693 0.007101058 0.34 0.01001387 2.417e-7 0.34 0.007050991 -0.00710076 0.34 -0.007050573 -0.007101058 0.34 -0.007050871 0.00710076 0.34 -0.02503442 -0.02200001 0.335 -0.02503448 0.02199995 0.305 -0.02503442 -0.02200001 0.305 -0.02503448 0.02199995 0.335 0.02775549 0.02200001 0.335 0.04506218 0.02200001 0.31575 0.04874455 0.02200001 0.317869 0.04774707 0.02200001 0.310366 0.05415064 0.02200001 0.315802 0.04874616 0.02200001 0.322128 0.0413798 0.02200001 0.322131 0.04774713 0.02200001 0.329634 0.04506218 0.02200001 0.32425 0.02909797 0.02200001 0.334817 0.0413782 0.02200001 0.317872 0.02775549 0.02200001 0.305 -0.02503448 0.02699995 0.305 0.02843296 0.02200001 0.334954 -0.02203035 0.02999997 0.335 0.02909797 0.02200001 0.305183 0.02909797 0.03000003 0.334817 0.02843296 0.03000003 0.334954 0.05415064 0.02200001 0.324198 0.04774707 0.03000003 0.329634 0.05415064 0.03000003 0.315802 0.02843296 0.03000003 0.305046 0.02843296 0.02200001 0.305046 0.04774707 0.03000003 0.310366 0.02909797 0.03000003 0.305183 0.05415064 0.03000003 0.324198 0.02775549 0.03000003 0.335 -0.02203035 0.02999997 0.305 0.02775549 0.03000003 0.305 -0.02503448 0.02699995 0.335 0.02775555 -0.02199995 0.335 0.04874461 -0.02199989 0.322131 0.04506224 -0.02199989 0.32425 0.04774713 -0.02199989 0.329634 0.04506224 -0.02199989 0.31575 0.04874622 -0.02199989 0.317872 0.0541507 -0.02199989 0.324198 0.04137986 -0.02199995 0.317869 0.04137825 -0.02199995 0.322128 0.02909803 -0.02199995 0.305183 0.02775555 -0.02999997 0.335 0.02775555 -0.02199995 0.305 0.02843302 -0.02999997 0.334954 -0.02503442 -0.02700001 0.335 -0.02503442 -0.02700001 0.305 -0.02203029 -0.02999997 0.305 0.02909803 -0.02199995 0.334817 0.02843302 -0.02199995 0.305046 0.02909803 -0.02999997 0.305183 0.04774713 -0.02199989 0.310366 0.0541507 -0.02199989 0.315802 0.04774713 -0.02999991 0.310366 0.04774713 -0.02999991 0.329634 0.0541507 -0.02999991 0.324198 0.02843302 -0.02199995 0.334954 0.02909803 -0.02999997 0.334817 0.0541507 -0.02999991 0.315802 -0.02203029 -0.02999997 0.335 0.02775555 -0.02999997 0.305 0.02843302 -0.02999997 0.305046</float_array>
          <technique_common>
            <accessor source="#shape0_012-mesh-positions-array" count="260" stride="3">
              <param name="X" type="float"/>
              <param name="Y" type="float"/>
              <param name="Z" type="float"/>
            </accessor>
          </technique_common>
        </source>
        <source id="shape0_012-mesh-normals">
          <float_array id="shape0_012-mesh-normals-array" count="1560">-0.9999999 -2.0319e-6 -2.78707e-4 -0.8087934 0.003505885 0.5880825 -0.8096753 -1.84232e-6 0.5868782 -0.8084645 0.001195847 -0.5885437 -0.9999934 0.003458857 0.00118792 -0.8096222 -0.003464102 -0.5869412 -0.3083633 -0.001218318 -0.9512678 0.3088985 0.001265108 -0.9510942 -0.3083338 -0.001291751 -0.9512773 0.8087934 0.003508269 -0.5880824 0.3108305 -0.003532052 -0.9504588 0.9999999 0 2.7842e-4 0.8096754 2.48442e-7 -0.5868781 0.8084644 0.001196622 0.5885438 0.9999934 0.003458857 -0.001187324 0.8096224 -0.003464341 0.586941 0.3083633 -0.001218199 0.9512678 -0.3088988 0.001263439 0.9510941 0.3083344 -0.001290082 0.9512772 -0.3108305 -0.003533244 0.9504587 0.8087984 2.44023e-6 -0.588086 0.9999938 -0.003506839 2.78991e-4 0.9999993 2.7096e-6 -0.0012151 0.3088986 -0.001194 -0.9510942 0.8096537 -0.003454327 -0.5868977 0.310774 0.003463029 -0.9504776 -0.3083633 0.001218318 -0.9512678 -0.8084648 -0.001265108 -0.5885431 -0.3083927 0.001291453 -0.9512583 -0.9999938 -0.003512203 -2.7928e-4 -0.8096569 0.003532588 -0.586893 -0.808798 -1.34459e-6 0.5880866 -0.9999992 -1.35516e-6 0.001215398 -0.3088989 -0.001195847 0.9510942 -0.8096538 -0.003460347 0.5868974 -0.3107737 0.00345999 0.9504777 0.3083633 0.001218199 0.9512678 0.8084646 -0.001263499 0.5885435 0.3083927 0.001291275 0.9512583 0.809657 0.003536403 0.5868926 0.8657431 0.5004885 -2.68762e-7 0.8657423 -0.5004901 -2.68762e-7 -0.499452 -0.8663359 0.003130257 3.4833e-6 -0.999989 0.004683852 0.5004657 -0.8657564 0 -3.48221e-6 0.999989 0.004683852 0 0 1 -0.5004657 0.8657564 1.55365e-7 0 0 1 -1 -5.80462e-6 6.20882e-7 0.4994519 0.8663359 0.003130018 0.3086687 2.8747e-7 0.9511697 0 0 -1 -1.86007e-7 0 -1 0.3086682 2.8747e-7 -0.9511698 0.8086683 7.53131e-7 -0.5882651 0.8086686 1.50626e-6 0.5882646 1.42525e-7 0 1 -2.75567e-7 0 -1 0 0 -1 -1 -1.11759e-6 2.02461e-7 2.23209e-7 0 1 -0.7066194 0.7075939 1.3971e-7 0 0 1 0.8086687 7.53132e-7 0.5882642 1.10227e-6 -1 0 0.8086684 1.50626e-6 -0.5882647 0.3086687 2.8747e-7 0.9511696 0.3086681 2.8747e-7 -0.9511697 -1.86007e-7 0 -1 0 0 1 -0.706617 -0.7075963 1.44367e-7 0 0 1 -1 -1.11759e-6 2.02461e-7 1 1.86265e-6 0 1 1.86265e-6 0 2.06869e-7 0 1 -2.75567e-7 0 -1 -1.10227e-6 1 0 1.10064e-6 -1 0 1.11604e-6 -1 0 1.11328e-6 -1 0 -1.11604e-6 1 0 -1.10064e-6 1 0 -1.11328e-6 1 0 -3.21072e-7 -1 4.66094e-6 -5.76537e-7 -1 1.22926e-6 -9.78991e-7 -1 0 1.79722e-6 -1 4.97532e-7 2.27233e-6 -1 2.76268e-6 -2.60316e-6 1 -3.86096e-6 -4.58502e-6 1 -2.44065e-6 -1.95799e-6 1 0 -1.7955e-6 1 4.9628e-7 0 1 -2.79403e-6 -1.48806e-7 0 -1 2.23209e-7 0 1 1.19045e-6 -1 0 0 0 1 -1.19045e-6 1 0 -1.48806e-7 0 -1 -1.19045e-6 1 -3.40205e-7 -6.75349e-7 1 -2.33859e-7 -9.66234e-7 1 0 -7.59355e-7 1 -3.39526e-7 -1.11605e-6 1 -2.77783e-6 -1.94771e-6 1 0 -1.19045e-6 1 0 1.02304e-6 -1 4.64248e-6 2.16942e-6 -1 3.35986e-7 1.22495e-6 -1 0 1.02304e-6 -1 2.77983e-6 1.19045e-6 -1 3.36596e-7 1.18921e-6 -1 0 1.19045e-6 -1 0 9.31412e-7 -1 -2.86771e-7 1.1176e-6 -1 0 7.37694e-7 -1 -5.13244e-7 7.45212e-7 -1 -5.2209e-7 1.37229e-6 -1 -5.13063e-7 1.30403e-6 -1 -5.93459e-7 9.31422e-7 -1 -3.22532e-7 7.69517e-7 -1 -5.13235e-7 1.34046e-6 -1 -5.13072e-7 1.11767e-6 -1 -2.5095e-7 -9.31331e-7 1 0 -1.11768e-6 1 2.8672e-7 -1.11763e-6 1 0 -7.69516e-7 1 5.13235e-7 -1.34046e-6 1 5.13071e-7 -9.3134e-7 1 0 -9.3154e-7 1 7.41308e-7 -7.37695e-7 1 5.13244e-7 -1.0709e-6 1 5.13149e-7 -1.11773e-6 1 4.57995e-7 -2.65725e-7 0 -1 2.06869e-7 0 1 -3.48265e-6 0.9999998 6.10867e-4 1.0463e-6 -0.9999998 6.11717e-4 -2.65725e-7 0 -1 1.42211e-7 0 1 0.002007007 -0.9999979 6.11351e-4 0 0 -1 1.42211e-7 0 1 0 0 -1 2.65942e-7 0 1 2.65942e-7 0 1 1.42525e-7 0 1 -1.1431e-6 -1.74173e-6 1 0.002007663 0.9999978 6.12201e-4 3.4779e-7 1.05947e-6 1 5.48572e-7 9.51538e-7 1 2.5256e-7 -2.20239e-7 1 0 0 1 -3.84051e-7 1.79577e-6 1 1 5.92071e-6 -3.10441e-7 0 0 1 -0.8473461 -0.5310411 2.61018e-7 1 1.10065e-6 -2.42954e-7 -3.76253e-7 0 -1 -2.75567e-7 0 -1 0 0 -1 -2.18832e-7 0 -1 -1 -1.11747e-6 2.02461e-7 -1 -1.15144e-6 1.98067e-7 -1 -1.11125e-6 2.02461e-7 -0.8750344 0.4840607 0 -0.8756763 -0.4828986 5.43691e-7 -0.8486993 0.5288757 2.59955e-7 -0.8051853 -0.5930233 -1.83035e-5 -0.3060476 -0.9520162 0 -1 -9.74707e-5 3.45968e-6 -0.8060197 0.5918886 3.81079e-5 -0.305691 0.9521307 0 0.3060475 0.9520162 0 1 9.74706e-5 3.07163e-6 0.8053007 -0.5928667 -3.36897e-6 0.8064541 0.5912967 5.41249e-5 0.3086422 0.9511782 0 -0.3086444 0.9511775 0 -0.3086444 0.9511775 0 0.8086391 0.5883052 0 0.3086422 0.9511781 0 1 1.27512e-6 0 0.8086391 0.5883052 0 0.8086403 -0.5883033 -3.01242e-7 1 1.1592e-6 -3.72529e-7 0.3086444 -0.9511774 0 0.8086403 -0.5883034 -3.01242e-7 -0.3086422 -0.9511782 0 0.3086444 -0.9511774 0 -0.8086391 -0.5883052 1.50621e-7 -0.3086422 -0.9511782 0 -1 -1.27512e-6 3.72529e-7 -0.8086389 -0.5883052 3.62072e-7 -0.8086403 0.5883034 0 -1 -1.1592e-6 0 -0.8086403 0.5883034 0 0 0 -1 0 0 -1 0 0 -1 0 0 -1 0 0 -1 0 0 -1 0 0 -1 0 0 -1 0 0 -1 0 0 -1 0 0 -1 0 0 -1 0 0 -1 0 0 -1 0 0 1 0 0 1 0.305691 -0.9521307 0 0 0 1 0 0 1 0 0 1 0 0 1 0 0 1 -1.14085e-6 1 0 0 0 1 1.01459e-6 -1 0 0 0 1 0 0 1 -0.3802666 -0.924877 0 0.9228698 0.3851123 -2.39858e-7 -0.9228698 -0.3851122 2.39858e-7 0.3802666 0.9248769 0 -0.9228882 0.3850681 1.99885e-7 0.3802897 -0.9248674 0 -0.3802897 0.9248674 0 0.9228881 -0.3850682 -1.19931e-7 0 0 1 0 0 1 0 0 1 0 0 1 0 0 1 0 0 1 0 0 1 0 0 1 0 0 1 0 0 1 1.4885e-6 -1 0 7.4609e-7 -1 1.49066e-7 1.48796e-6 -1 0 7.46299e-7 -1 -1.48818e-7 1.35438e-6 -1 2.83441e-7 1.22154e-6 -1 0 1.06161e-6 -1 0 1.35394e-6 -1 -2.82777e-7 -0.7066194 0.7075939 1.71377e-7 0 0 1 2.80089e-6 -1 0 0.2018151 2.81932e-7 -0.9794237 0 0 1 0 0 1 0 0 1 -1 -1.86265e-6 2.48353e-7 0.2017735 2.81874e-7 0.9794322 0 0 1 0 0 1 0.06776905 0 0.9977011 0 1 0 0.647166 9.04081e-7 0.7623492 6.89095e-7 -1 0 1 4.65661e-7 0 0.6471636 3.01359e-7 -0.762351 0.2677717 3.74073e-7 -0.9634824 -2.74956e-6 -1 0 0.06772536 0 -0.997704 0.2677717 3.74073e-7 0.9634824 0 1 0 -0.706617 -0.7075963 1.28533e-7 -9.40768e-7 1 1.23184e-7 -1.1371e-6 1 2.21089e-7 -1.40823e-6 1 -1.88526e-7 -1.07397e-6 1 0 -9.4037e-7 1 -1.22986e-7 -1.07423e-6 1 0 -1.40864e-6 1 1.89146e-7 -1.1371e-6 1 -2.21089e-7 1.45439e-6 -1 0 1.09866e-6 -1 0 -1.2139e-6 1 0 0 0 1 0 0 1 -1 -1.20034e-6 1.86264e-7 -1.09914e-6 1 0 1 1.05832e-6 -1.86265e-7 1.20796e-6 -1 0 0 0 1 0 1 0 0.2017735 2.81874e-7 0.9794322 0 0 1 0 0 1 -1 -1.04328e-6 1.24176e-7 -1 -7.45058e-7 1.86265e-7 -1 3.53313e-5 -3.76113e-4 0.2018156 3.28922e-7 -0.9794237 0 0 1 -1 -1.20034e-6 1.86265e-7 0.4991288 5.49368e-7 -0.8665278 0.2677717 3.74073e-7 -0.9634824 -0.4991292 -5.49369e-7 -0.8665276 0.6471642 1.20544e-6 -0.7623507 -1.03364e-6 1 0 1 4.65661e-7 0 1 -3.5416e-5 -3.76988e-4 0.2677718 2.49382e-7 0.9634824 0 1 0 0.4991236 5.49362e-7 0.8665308 0 -1 0 -0.499124 -5.49363e-7 0.8665306 0.06772536 0 -0.997704 0.6471662 3.0136e-7 0.762349 0 -1 0 1.22154e-6 -1 0 -1.45439e-6 1 0 -1.09866e-6 1 0 0.06776905 0 0.9977011 0 0 -1 0 0 -1 -2.03967e-7 2.38004e-6 1 -7.11297e-7 0 1 2.01946e-6 8.99414e-7 1 -3.84e-7 -6.66076e-7 1 3.47803e-7 -1.05947e-6 1 5.48572e-7 -9.51543e-7 1 9.54403e-7 -5.27967e-7 1 -1.15838e-6 -1.37962e-6 1 0.8657432 0.5004885 0 0.8657422 -0.5004902 0 -0.5004655 -0.8657565 1.50752e-7 5.91411e-6 -0.9999889 0.004690349 0.4994503 -0.866337 0.003136038 -5.91085e-6 0.9999891 0.004690349 -0.4994502 0.8663369 0.003136277 -1 -6.0368e-6 0 0.5004655 0.8657565 -1.50752e-7 0.3086686 2.8747e-7 0.9511696 -1.86008e-7 0 -1 0.3086681 2.8747e-7 -0.9511697 0.8086684 1.50626e-6 -0.5882647 0.8086687 7.53132e-7 0.5882643 -2.75567e-7 0 -1 -1 -1.11759e-6 2.02461e-7 2.23209e-7 0 1 -0.7066194 0.7075939 1.43063e-7 0 0 1 0.8086684 1.50626e-6 0.5882646 -0.001040041 -0.9999992 6.11969e-4 0.8086683 7.53131e-7 -0.5882651 0.3086687 2.8747e-7 0.9511696 0.3086682 2.8747e-7 -0.9511697 -1.86008e-7 0 -1 0 0 1 -0.7066172 -0.707596 0 0 0 1 -1 -1.11759e-6 2.02461e-7 1 1.86265e-6 0 1 1.86265e-6 0 -2.75567e-7 0 -1 -0.001040816 0.9999993 6.11119e-4 1.10064e-6 -1 0 1.11604e-6 -1 0 1.11328e-6 -1 0 -1.11604e-6 1 0 -1.10064e-6 1 0 -1.11328e-6 1 0 2.3062e-7 -1 3.52889e-6 -2.02331e-6 -1 2.00057e-6 2.12911e-6 -1 -4.35126e-7 3.11976e-6 -1 1.2015e-6 2.12278e-6 -1 1.91503e-6 -2.73656e-6 1 -4.6172e-6 -4.15017e-6 1 -2.20917e-6 -5.09051e-6 1 4.38544e-7 -3.80857e-7 1 -2.57901e-7 -1.01514e-6 1 -6.87413e-7 -1.48806e-7 0 -1 2.23209e-7 0 1 1.19045e-6 -1 0 0 0 1 -1.19045e-6 1 0 -1.48806e-7 0 -1 -1.11605e-6 1 -4.64047e-6 -1.47713e-6 1 4.34254e-7 -1.31266e-6 1 -8.06243e-7 1.34843e-6 -1 1.37964e-6 6.762e-7 -1 -6.88494e-7 1.70052e-6 -1 -4.34605e-7 7.45065e-7 -1 0 1.30394e-6 -1 -2.86667e-7 -1.11768e-6 1 2.86719e-7 -9.31331e-7 1 0 -2.18832e-7 0 -1 -1.04622e-6 0.9999998 6.11717e-4 3.48287e-6 -0.9999998 6.10867e-4 -2.18832e-7 0 -1 1.0629e-6 -1 0 0 0 -1 0 0 -1 -3.84001e-7 6.6608e-7 1 -1.0629e-6 1 0 3.48056e-6 -8.34842e-6 1 -3.87668e-6 1.61593e-6 1 1.06695e-6 0 1 1 5.80462e-6 0 0 0 1 -0.8473461 -0.5310412 2.63051e-7 1 1.18532e-6 -1.61969e-7 -3.76244e-7 0 -1 -2.75567e-7 0 -1 0 0 -1 -2.18832e-7 0 -1 -1 -1.14299e-6 2.05235e-7 -0.8750346 0.4840604 5.43293e-7 -0.8756762 -0.4828987 2.71846e-7 -0.8486994 0.5288755 5.26942e-7 -0.806454 -0.5912969 5.44378e-5 -0.3045279 -0.9525035 -5.31598e-5 -0.9999999 3.63516e-4 1.9079e-5 -0.8053005 0.5928667 -3.05728e-6 -0.3046215 0.9524736 -3.73511e-5 0.3045279 0.9525034 -5.3278e-5 0.9999999 -3.63416e-4 1.86876e-5 0.8060198 -0.5918886 3.77887e-5 0.8051854 0.5930233 -1.86187e-5 0 0 -1 0 0 -1 0 0 -1 0 0 -1 0 0 -1 0 0 -1 0 0 -1 0.3046214 -0.9524736 -3.74719e-5 0 0 1 0 0 1 0 0 1 -1.14085e-6 1 0 0 0 1 1.01459e-6 -1 0 -0.3802666 -0.924877 0 0.9228698 0.3851122 -1.59905e-7 -0.9228698 -0.3851123 1.19929e-7 0.3802666 0.924877 0 -0.9228882 0.3850681 2.39862e-7 0.3802897 -0.9248674 0 -0.3802897 0.9248674 0 0.9228882 -0.3850681 -2.39862e-7 0 0 1 0 0 1 0 0 1 0 0 1 0 0 1 0 0 1 0 0 1 0 0 1 1.06216e-6 -1 0 -0.7066193 0.7075941 1.31618e-7 0 0 1 2.80088e-6 -1 0 0.2018156 3.28922e-7 -0.9794237 -1 -1.49012e-6 1.86265e-7 0.2017735 2.81874e-7 0.9794322 0.06776905 0 0.9977011 0 1 0 0.6471664 3.0136e-7 0.7623488 6.894e-7 -1 0 1 4.65661e-7 0 0.6471642 9.04078e-7 -0.7623507 0.2677717 3.74073e-7 -0.9634824 -2.74956e-6 -1 0 0.06772536 0 -0.997704 0.2677717 3.74073e-7 0.9634823 0 1 0 -0.706617 -0.7075963 1.31618e-7 1.45439e-6 -1 0 1.09866e-6 -1 0 -1.21327e-6 1 0 0 0 1 -1 -1.20034e-6 1.86265e-7 -1.09914e-6 1 0 1 1.10065e-6 -2.48353e-7 1.20796e-6 -1 0 0 0 1 0 1 0 0.2017735 2.81874e-7 0.9794322 -1 -1.1592e-6 1.86265e-7 -1 -7.45058e-7 1.86265e-7 -0.9999999 -3.75329e-5 3.76116e-4 0.2018151 2.81932e-7 -0.9794237 0 0 1 -1 -1.06697e-6 1.24176e-7 0.498755 -4.11319e-5 -0.866743 0.2677718 4.98764e-7 -0.9634823 -0.498755 4.11741e-5 -0.866743 0.6471635 3.01359e-7 -0.7623513 -1.0341e-6 1 0 1 4.65661e-7 0 0.9999999 3.76176e-5 3.76991e-4 0.2677717 3.74073e-7 0.9634824 0 1 0 0.498755 4.16427e-5 0.866743 0 -1 0 -0.498755 -4.16849e-5 0.866743 0.06772536 0 -0.997704 0.6471659 6.0272e-7 0.7623491 0 -1 0 -1.45439e-6 1 0 -1.09866e-6 1 0 0.06776905 0 0.9977011 0 0 -1 2.3753e-7 1.30726e-7 1 7.39805e-7 -1.7959e-6 1 1.13174e-6 -3.62854e-6 1 -3.0363e-6 7.74672e-6 1 1.58782e-6 2.34487e-6 1 1.16105e-6 -3.47143e-7 1</float_array>
          <technique_common>
            <accessor source="#shape0_012-mesh-normals-array" count="520" stride="3">
              <param name="X" type="float"/>
              <param name="Y" type="float"/>
              <param name="Z" type="float"/>
            </accessor>
          </technique_common>
        </source>
        <vertices id="shape0_012-mesh-vertices">
          <input semantic="POSITION" source="#shape0_012-mesh-positions"/>
        </vertices>
        <polylist material="Material_003-material" count="520">
          <input semantic="VERTEX" source="#shape0_012-mesh-vertices" offset="0"/>
          <input semantic="NORMAL" source="#shape0_012-mesh-normals" offset="1"/>
          <vcount>3 3 3 3 3 3 3 3 3 3 3 3 3 3 3 3 3 3 3 3 3 3 3 3 3 3 3 3 3 3 3 3 3 3 3 3 3 3 3 3 3 3 3 3 3 3 3 3 3 3 3 3 3 3 3 3 3 3 3 3 3 3 3 3 3 3 3 3 3 3 3 3 3 3 3 3 3 3 3 3 3 3 3 3 3 3 3 3 3 3 3 3 3 3 3 3 3 3 3 3 3 3 3 3 3 3 3 3 3 3 3 3 3 3 3 3 3 3 3 3 3 3 3 3 3 3 3 3 3 3 3 3 3 3 3 3 3 3 3 3 3 3 3 3 3 3 3 3 3 3 3 3 3 3 3 3 3 3 3 3 3 3 3 3 3 3 3 3 3 3 3 3 3 3 3 3 3 3 3 3 3 3 3 3 3 3 3 3 3 3 3 3 3 3 3 3 3 3 3 3 3 3 3 3 3 3 3 3 3 3 3 3 3 3 3 3 3 3 3 3 3 3 3 3 3 3 3 3 3 3 3 3 3 3 3 3 3 3 3 3 3 3 3 3 3 3 3 3 3 3 3 3 3 3 3 3 3 3 3 3 3 3 3 3 3 3 3 3 3 3 3 3 3 3 3 3 3 3 3 3 3 3 3 3 3 3 3 3 3 3 3 3 3 3 3 3 3 3 3 3 3 3 3 3 3 3 3 3 3 3 3 3 3 3 3 3 3 3 3 3 3 3 3 3 3 3 3 3 3 3 3 3 3 3 3 3 3 3 3 3 3 3 3 3 3 3 3 3 3 3 3 3 3 3 3 3 3 3 3 3 3 3 3 3 3 3 3 3 3 3 3 3 3 3 3 3 3 3 3 3 3 3 3 3 3 3 3 3 3 3 3 3 3 3 3 3 3 3 3 3 3 3 3 3 3 3 3 3 3 3 3 3 3 3 3 3 3 3 3 3 3 3 3 3 3 3 3 3 3 3 3 3 3 3 3 3 3 3 3 3 3 3 3 3 3 3 3 3 3 3 3 3 3 3 3 3 3 3 3 3 3 3 3 3 3 3 3 3 3 3 3 3 3 3 3 3 3 3 3 3 3 3 3 3 3 3 3 3 3 3 3 3 3 3 3 3 3 3 3 3 3 3 3 3 3 3 3 3 3 3 3 3 3 3 3 3 3 3 3 3 </vcount>
          <p>7 0 5 0 6 0 19 1 4 1 5 1 7 2 19 2 5 2 8 3 6 3 9 3 1 4 7 4 6 4 8 5 1 5 6 5 8 6 9 6 10 6 11 7 10 7 13 7 11 8 8 8 10 8 12 9 13 9 3 9 12 10 11 10 13 10 15 11 3 11 2 11 12 12 3 12 15 12 18 13 2 13 14 13 16 14 15 14 2 14 18 15 16 15 2 15 18 16 14 16 17 16 0 17 17 17 4 17 0 18 18 18 17 18 19 19 0 19 4 19 29 20 27 20 25 20 26 21 39 21 27 21 29 22 26 22 27 22 30 23 25 23 28 23 23 24 29 24 25 24 30 25 23 25 25 25 30 26 28 26 31 26 24 27 31 27 32 27 24 28 30 28 31 28 22 29 32 29 34 29 22 30 24 30 32 30 33 31 34 31 36 31 22 32 34 32 33 32 38 33 36 33 35 33 21 34 33 34 36 34 38 35 21 35 36 35 38 36 35 36 37 36 20 37 37 37 39 37 20 38 38 38 37 38 26 39 20 39 39 39 49 40 54 40 50 40 48 41 55 41 46 41 44 42 59 42 61 42 44 43 45 43 59 43 46 44 57 44 45 44 51 45 47 45 52 45 40 46 77 46 129 46 47 47 40 47 63 47 128 48 87 48 42 48 43 49 60 49 41 49 51 50 52 50 54 50 81 51 67 51 79 51 76 52 65 52 75 52 110 53 109 53 73 53 73 54 70 54 80 54 80 55 72 55 82 55 74 56 68 56 81 56 107 57 48 57 46 57 127 58 125 58 102 58 85 59 98 59 64 59 76 60 75 60 78 60 114 61 107 61 113 61 78 62 71 62 76 62 78 63 77 63 71 63 90 64 89 64 97 64 104 65 105 65 124 65 92 66 91 66 95 66 96 67 84 67 90 67 95 68 93 68 99 68 112 69 115 69 94 69 108 70 111 70 66 70 98 71 85 71 86 71 87 72 86 72 83 72 98 73 86 73 64 73 82 74 69 74 74 74 97 75 88 75 92 75 45 76 105 76 46 76 124 77 126 77 104 77 101 78 100 78 125 78 80 79 81 79 73 79 111 80 110 80 79 80 81 81 80 81 74 81 115 82 114 82 99 82 99 83 96 83 95 83 97 84 92 84 90 84 30 85 94 85 23 85 91 86 29 86 93 86 29 87 91 87 88 87 26 88 88 88 89 88 84 89 38 89 89 89 67 90 18 90 0 90 18 91 67 91 16 91 69 92 15 92 68 92 15 93 69 93 72 93 70 94 11 94 12 94 102 95 100 95 110 95 101 96 103 96 108 96 103 97 102 97 111 97 96 98 114 98 84 98 106 99 107 99 115 99 104 100 106 100 112 100 108 101 7 101 101 101 19 102 108 102 0 102 101 103 7 103 100 103 108 104 19 104 7 104 11 105 70 105 109 105 1 106 8 106 109 106 1 107 109 107 100 107 94 108 30 108 112 108 112 109 24 109 22 109 33 110 21 110 113 110 38 111 84 111 113 111 112 112 22 112 104 112 33 113 105 113 104 113 33 114 113 114 105 114 116 115 34 115 32 115 39 116 116 116 117 116 117 117 31 117 28 117 31 118 117 118 32 118 117 119 28 119 25 119 27 120 117 120 25 120 116 121 36 121 34 121 36 122 116 122 35 122 116 123 37 123 35 123 116 124 39 124 37 124 118 125 6 125 119 125 3 126 118 126 2 126 119 127 5 127 4 127 17 128 119 128 4 128 119 129 17 129 14 129 119 130 14 130 2 130 118 131 9 131 6 131 9 132 118 132 10 132 118 133 13 133 10 133 13 134 118 134 3 134 75 135 65 135 120 135 101 136 51 136 49 136 51 137 125 137 47 137 124 138 45 138 121 138 85 139 64 139 121 139 49 140 103 140 101 140 121 141 44 141 83 141 121 142 123 142 124 142 46 143 105 143 107 143 122 144 120 144 127 144 44 145 42 145 83 145 47 146 71 146 40 146 103 147 49 147 50 147 57 148 133 148 132 148 47 149 120 149 71 149 132 150 59 150 58 150 59 151 132 151 61 151 131 152 61 152 146 152 60 153 131 153 146 153 146 154 136 154 60 154 55 155 48 155 53 155 50 156 48 156 103 156 128 157 42 157 131 157 106 158 102 158 107 158 43 159 41 159 128 159 126 160 127 160 106 160 127 161 126 161 122 161 122 162 123 162 75 162 128 163 64 163 87 163 129 164 75 164 128 164 75 165 129 165 77 165 62 166 130 166 41 166 60 167 43 167 131 167 40 168 129 168 63 168 144 169 146 169 143 169 132 170 141 170 137 170 145 171 136 171 144 171 134 172 136 172 142 172 138 173 135 173 134 173 135 174 138 174 148 174 151 175 140 175 150 175 140 176 139 176 150 176 149 177 148 177 147 177 163 178 161 178 162 178 177 179 170 179 161 179 163 180 177 180 161 180 179 181 162 181 164 181 179 182 163 182 162 182 178 183 164 183 165 183 179 184 164 184 178 184 167 185 165 185 166 185 178 186 165 186 167 186 168 187 166 187 158 187 167 188 166 188 168 188 175 189 158 189 169 189 168 190 158 190 175 190 176 191 169 191 173 191 176 192 175 192 169 192 172 193 173 193 171 193 172 194 176 194 173 194 174 195 171 195 170 195 174 196 172 196 171 196 177 197 174 197 170 197 142 198 197 198 212 198 145 199 183 199 197 199 151 200 211 200 241 200 228 201 147 201 138 201 211 202 147 202 228 202 211 203 151 203 147 203 140 204 241 204 139 204 258 205 139 205 241 205 184 206 141 206 258 206 245 207 143 207 141 207 244 208 143 208 245 208 198 209 143 209 244 209 143 210 198 210 144 210 144 211 186 211 183 211 160 212 153 212 156 212 156 213 154 213 160 213 141 214 132 214 133 214 200 215 178 215 230 215 168 216 230 216 167 216 168 217 240 217 230 217 175 218 182 218 240 218 214 219 177 219 163 219 226 220 228 220 180 220 176 221 257 221 175 221 257 222 245 222 182 222 229 223 177 223 214 223 199 224 177 224 229 224 159 225 194 225 152 225 156 226 192 226 155 226 153 227 189 227 159 227 155 228 191 228 154 228 160 229 195 229 153 229 152 230 188 230 157 230 154 231 190 231 160 231 157 232 193 232 156 232 189 233 171 233 173 233 171 234 189 234 170 234 170 235 195 235 161 235 191 236 162 236 161 236 192 237 164 237 162 237 192 238 165 238 164 238 165 239 192 239 166 239 166 240 193 240 158 240 194 241 169 241 158 241 189 242 173 242 169 242 203 243 202 243 201 243 203 244 204 244 202 244 207 245 208 245 205 245 207 246 205 246 218 246 209 247 206 247 208 247 207 248 209 248 208 248 209 249 215 249 206 249 215 250 201 250 210 250 229 251 214 251 212 251 177 252 199 252 187 252 215 253 209 253 222 253 224 254 215 254 221 254 176 255 243 255 257 255 243 256 176 256 196 256 155 257 154 257 156 257 212 258 197 258 229 258 217 259 213 259 216 259 156 260 152 260 157 260 156 261 159 261 152 261 242 262 254 262 240 262 228 263 226 263 221 263 219 264 207 264 225 264 204 265 218 265 202 265 225 266 218 266 220 266 220 267 204 267 223 267 223 268 203 268 224 268 200 269 211 269 222 269 221 270 222 270 228 270 216 271 209 271 219 271 216 272 224 272 221 272 244 273 245 273 243 273 233 274 231 274 232 274 246 275 233 275 232 275 246 276 232 276 238 276 233 277 236 277 231 277 249 278 234 278 235 278 249 279 235 279 250 279 239 280 237 280 234 280 249 281 239 281 234 281 251 282 256 282 252 282 248 283 251 283 255 283 238 284 237 284 246 284 174 285 187 285 172 285 156 286 153 286 159 286 186 287 198 287 185 287 180 288 181 288 214 288 211 289 200 289 241 289 182 290 184 290 240 290 180 291 163 291 226 291 246 292 239 292 247 292 255 293 246 293 242 293 179 294 200 294 226 294 200 295 179 295 178 295 183 296 186 296 187 296 244 297 243 297 198 297 238 298 206 298 237 298 259 299 247 299 248 299 196 300 176 300 185 300 197 301 183 301 199 301 234 302 201 302 235 302 248 303 239 303 251 303 201 304 234 304 210 304 251 305 249 305 256 305 236 306 250 306 231 306 256 307 250 307 253 307 205 308 231 308 202 308 252 309 233 309 255 309 241 310 230 310 247 310 208 311 232 311 205 311 240 312 258 312 259 312 232 313 208 313 238 313 258 314 241 314 259 314 253 315 236 315 252 315 248 316 255 316 259 316 215 317 203 317 201 317 225 318 220 318 219 318 219 319 223 319 216 319 226 320 200 320 217 320 142 321 212 321 227 321 142 322 227 322 138 322 55 323 150 323 133 323 55 324 53 324 150 324 54 325 148 325 53 325 52 326 135 326 54 326 135 327 52 327 56 327 135 328 56 328 63 328 62 329 136 329 130 329 134 330 63 330 136 330 54 331 53 331 50 331 55 332 57 332 46 332 42 333 44 333 61 333 45 334 58 334 59 334 57 335 58 335 45 335 47 336 56 336 52 336 56 337 47 337 63 337 60 338 62 338 41 338 49 339 51 339 54 339 67 340 66 340 79 340 109 341 70 341 73 341 70 342 72 342 80 342 72 343 69 343 82 343 68 344 67 344 81 344 125 345 100 345 102 345 75 346 77 346 78 346 107 347 105 347 113 347 71 348 65 348 76 348 77 349 40 349 71 349 89 350 88 350 97 350 105 351 45 351 124 351 91 352 93 352 95 352 84 353 89 353 90 353 93 354 94 354 99 354 115 355 99 355 94 355 111 356 79 356 66 356 85 357 83 357 86 357 42 358 87 358 83 358 86 359 87 359 64 359 69 360 68 360 74 360 88 361 91 361 92 361 126 362 106 362 104 362 51 363 101 363 125 363 81 364 79 364 73 364 110 365 73 365 79 365 80 366 82 366 74 366 114 367 96 367 99 367 96 368 90 368 95 368 92 369 95 369 90 369 94 370 93 370 23 370 29 371 23 371 93 371 26 372 29 372 88 372 20 373 26 373 89 373 38 374 20 374 89 374 66 375 67 375 0 375 67 376 68 376 16 376 15 377 16 377 68 377 12 378 15 378 72 378 72 379 70 379 12 379 100 380 109 380 110 380 103 381 111 381 108 381 102 382 110 382 111 382 114 383 113 383 84 383 107 384 114 384 115 384 106 385 115 385 112 385 108 386 66 386 0 386 7 387 1 387 100 387 8 388 11 388 109 388 30 389 24 389 112 389 21 390 38 390 113 390 22 391 33 391 104 391 117 392 116 392 32 392 27 393 39 393 117 393 6 394 5 394 119 394 118 395 119 395 2 395 122 396 75 396 120 396 125 397 120 397 47 397 45 398 44 398 121 398 64 399 123 399 121 399 85 400 121 400 83 400 123 401 126 401 124 401 120 402 125 402 127 402 58 403 57 403 132 403 120 404 65 404 71 404 132 405 137 405 61 405 61 406 137 406 146 406 136 407 62 407 60 407 48 408 50 408 53 408 48 409 107 409 103 409 42 410 61 410 131 410 102 411 103 411 107 411 41 412 129 412 128 412 127 413 102 413 106 413 126 414 123 414 122 414 123 415 64 415 75 415 75 416 64 416 128 416 130 417 129 417 41 417 43 418 128 418 131 418 129 419 130 419 63 419 146 420 137 420 143 420 141 421 143 421 137 421 136 422 146 422 144 422 136 423 145 423 142 423 142 424 138 424 134 424 138 425 147 425 148 425 149 426 151 426 150 426 139 427 133 427 150 427 151 428 149 428 147 428 142 429 145 429 197 429 140 430 151 430 241 430 181 431 228 431 138 431 141 432 139 432 258 432 184 433 245 433 141 433 198 434 186 434 144 434 145 435 144 435 183 435 139 436 141 436 133 436 178 437 167 437 230 437 168 438 175 438 240 438 180 439 214 439 163 439 228 440 181 440 180 440 257 441 182 441 175 441 245 442 184 442 182 442 194 443 188 443 152 443 192 444 191 444 155 444 189 445 194 445 159 445 191 446 190 446 154 446 195 447 189 447 153 447 188 448 193 448 157 448 190 449 195 449 160 449 193 450 192 450 156 450 189 451 195 451 170 451 195 452 190 452 161 452 190 453 191 453 161 453 191 454 192 454 162 454 192 455 193 455 166 455 193 456 188 456 158 456 188 457 194 457 158 457 194 458 189 458 169 458 215 459 210 459 206 459 214 460 227 460 212 460 174 461 177 461 187 461 209 462 213 462 222 462 215 463 222 463 221 463 197 464 199 464 229 464 213 465 209 465 216 465 254 466 230 466 240 466 226 467 217 467 221 467 207 468 218 468 225 468 218 469 205 469 202 469 218 470 204 470 220 470 204 471 203 471 223 471 203 472 215 472 224 472 213 473 200 473 222 473 222 474 211 474 228 474 209 475 207 475 219 475 217 476 216 476 221 476 245 477 257 477 243 477 256 478 253 478 252 478 251 479 252 479 255 479 237 480 239 480 246 480 187 481 185 481 172 481 198 482 196 482 185 482 181 483 227 483 214 483 200 484 230 484 241 484 184 485 258 485 240 485 163 486 179 486 226 486 254 487 246 487 247 487 246 488 254 488 242 488 186 489 185 489 187 489 243 490 196 490 198 490 206 491 210 491 237 491 247 492 239 492 248 492 176 493 172 493 185 493 183 494 187 494 199 494 201 495 202 495 235 495 239 496 249 496 251 496 234 497 237 497 210 497 249 498 250 498 256 498 250 499 235 499 231 499 250 500 236 500 253 500 231 501 235 501 202 501 233 502 246 502 255 502 230 503 254 503 247 503 232 504 231 504 205 504 242 505 240 505 259 505 208 506 206 506 238 506 241 507 247 507 259 507 236 508 233 508 252 508 255 509 242 509 259 509 220 510 223 510 219 510 223 511 224 511 216 511 200 512 213 512 217 512 227 513 181 513 138 513 57 514 55 514 133 514 53 515 149 515 150 515 148 516 149 516 53 516 135 517 148 517 54 517 134 518 135 518 63 518 63 519 130 519 136 519</p>
        </polylist>
      </mesh>
      <extra><technique profile="MAYA"><double_sided>1</double_sided></technique></extra>
    </geometry>
  </library_geometries>
  <library_controllers/>
  <library_visual_scenes>
    <visual_scene id="Scene" name="Scene">
      <node id="node_007" name="node_007" type="NODE">
        <matrix sid="transform">1 0 0 0 0 1 0 0 0 0 1 0 0 0 0 1</matrix>
        <instance_geometry url="#shape0_012-mesh">
          <bind_material>
            <technique_common>
              <instance_material symbol="Material_003-material" target="#Material_003-material"/>
            </technique_common>
          </bind_material>
        </instance_geometry>
      </node>
    </visual_scene>
  </library_visual_scenes>
  <scene>
    <instance_visual_scene url="#Scene"/>
  </scene>
</COLLADA>
