<?xml version="1.0" encoding="UTF-8"?>
<COLLADA xmlns="http://www.collada.org/2005/11/COLLADASchema" version="1.4.1">
    <asset>
        <contributor>
            <author>VCGLab</author>
            <authoring_tool>VCGLib | MeshLab</authoring_tool>
        </contributor>
        <up_axis>Y_UP</up_axis>
        <created>Mon Feb 18 15:32:36 2013</created>
        <modified>Mon Feb 18 15:32:36 2013</modified>
    </asset>
    <library_images/>
    <library_materials/>
    <library_effects/>
    <library_geometries>
        <geometry id="shape0-lib" name="shape0">
            <mesh>
                <source id="shape0-lib-positions" name="position">
                    <float_array id="shape0-lib-positions-array" count="495">14.3865 0 62.0549 -9.5 0 80.0003 22.2163 0 85.9528 23 -30 35.733 -23 -30 34.6038 23 -22 35.733 -23 -22 34.6038 -24.9307 -22.1082 79.8918 0 0 89.5 7.10665 -22 101.874 -19.9722 -35.5 86.4894 19.9722 -35.5 86.4894 0 -35.5 101 -7.10665 -22 101.874 12.3435 -35.5 96.9894 -18.6065 -22 93.52 -18.6065 -30 93.52 -12.3435 -35.5 96.9894 21.6131 0 72.1339 0 -35.5 59 18.6065 -30 93.52 -24.9307 -29.8918 79.8918 23 -30 80 -7.82922 0 85.2673 7.10665 -30 101.874 -7.10665 -30 101.874 -4.72786 0 71.76 19.9722 -35.5 73.5106 -19.9722 -35.5 73.5106 22.978 0 81.0058 -4.72732 0 88.2402 -25 -29.7 59.3 14.3865 0 62.0549 22.2163 0 85.9528 -8.39244 0 84.4064 -23 30 34.6038 -23 22 34.6038 -24.9307 29.8918 79.8918 23 30 35.733 23 22 35.733 -24.9307 22.1082 79.8918 -18.6065 22 93.52 0 0 89.5 12.3435 35.5 96.9894 19.9722 35.5 86.4894 -12.3435 35.5 96.9894 -19.9722 35.5 73.5106 0 35.5 101 7.10665 30 101.874 21.6131 0 72.1339 7.10665 22 101.874 -7.10665 22 101.874 -5.33698 0 72.2544 18.6065 30 93.52 -19.9722 35.5 86.4894 23 30 80 12.3435 35.5 63.0106 -18.6065 30 93.52 -7.10665 30 101.874 -8.3927 0 75.594 -4.72732 0 88.2402 19.9722 35.5 73.5106 -12.3435 35.5 63.0106 22.978 0 81.0058 69 12.1935 8.736 69 -12.1886 8.74288 69 4.66591 -14.2559 69 -12.1935 -8.736 41 -31 0 29 -26.2554 -16.4817 29 -31 0 69 -0.873299 14.8608 69 12.1886 -8.74288 41 15.5 26.8468 41 0 30.9996 29 2.6332 30.888 29 15.5 26.8468 23 0 -21.65 23 -18.9705 10 23 18.9705 10 29 26.8471 15.4989 29 30.9998 0.001116 29 15.4989 -26.8471 29 0.001116 -30.9998 29 26.8468 -15.5 41 -15.5 26.8468 29 -19.8227 23.834 41 -26.8465 15.4998 29 -15.5 -26.8468 23 0 21.65 23 -18.9705 -10 23 18.9705 -10 29 -28.0664 13.1636 69 -4.67362 -14.2533 69 15 0 69 -15 0 304 -15 0 304 4.678 -14.2518 304 4.48962 14.2824 69 15 0 69 -4.67362 -14.2533 69 -4.9062 14.1742 304 15 0 69 -15 0 69 4.90475 14.1748 304 -4.67572 -14.2526 69 4.66591 -14.2559 304 -4.68134 14.2507 304 12.2086 8.7149 69 12.1886 -8.74288 69 -12.1935 -8.736 304 -12.2086 -8.7149 304 12.2101 -8.7128 304 -12.2101 8.7128 69 12.1935 8.736 69 -12.1886 8.74288 93 0 15 69 -0.873299 14.8608 305 30 -22 324.198 30 54.0759 335 30 -22 310.366 -30 47.6812 305.183 22 29.0578 305.046 -30 28.3937 324.198 -30 54.0759 310.366 30 47.6812 350 -6.5821 15.8908 350 -15.8907 -6.58219 350 15.8907 6.58219 334.954 -30 28.3937 334.954 30 28.3937 315.802 30 54.0759 315.802 -30 54.0759 350 12.1622 -12.1623 305.046 30 28.3937 305 27 -25 305 -27 -25 335 -27 -25 335 -30 -22 305 -30 -22 335 27 -25 340 8.03417 -24.7275 349.912 0 -17.4121 350 -15.8907 6.58219 329.634 -30 47.6812 329.634 30 47.6812 350 6.5821 15.8908 350 17.2 0 350 -12.1622 -12.1623 340 -8.03417 -24.7275 -23 -30 34.6038 23 -30 35.733 23 30 35.733 23 0.001116 -30.9998 -23 -27 -25 -23 30 -22 -23 30 34.6038 23 -30 -22 23 30 -22 -23 -30 -22 -23 27 -25 23 -27 -25 23 27 -25 23 30.9998 0.001116 23 -30.9998 -0.001116</float_array>
                    <technique_common>
                        <accessor count="165" source="#shape0-lib-positions-array" stride="3">
                            <param name="X" type="float"/>
                            <param name="Y" type="float"/>
                            <param name="Z" type="float"/>
                        </accessor>
                    </technique_common>
                </source>
                <source id="shape0-lib-normals" name="normal">
                    <float_array id="shape0-lib-normals-array" count="918">0 1 0 0.0245413 0 -0.999699 -0.819477 0.572129 -0.0335687 0.0245413 0 -0.999699 0.015667 0.76971 -0.638201 0.134821 0.518483 0.844392 0 1 0 0 -1 0 0 0.490231 0.871592 0 -1 0 -0.90709 0 0.420937 -0.587733 0 0.809055 -0.708732 -0.482237 0.514924 0 -1 0 0.570265 0.712473 -0.408877 0 1 0 0 -1 0 0.00552029 -0.974373 -0.224871 0.635367 0.116116 0.76343 0.708732 -0.482237 0.514924 -0.90709 0 0.420937 -0.867304 -0.296115 0.400124 0.950412 -0.0364559 0.308849 0.939259 -0.156939 0.305225 0.876028 -0.482261 0 1 0 0 0 1 0 -0.794149 0.55305 0.251919 -0.778802 0.515553 0.357312 0.58045 -0.156946 0.799028 0.587733 0 0.809055 0.270715 -0.482197 0.833186 0 0 1 0 -0.15694 0.987608 0 0 1 -0.587733 0 0.809055 -0.58045 -0.156946 0.799028 -0.270715 -0.482197 0.833186 0 1 0 -0.212435 0.883073 -0.418394 -0.465919 0.842683 -0.269825 0.876028 -0.482261 0 0 -1 0 0.098541 -0.985847 -0.135631 -0.749169 -0.662379 0 -0.095907 -0.986598 -0.132005 0 -1 0 0.988343 -0.00437724 0.152178 1 0.000728895 0.000131727 0.943005 0.29949 -0.145077 0 1 0 -0.511718 0.49188 0.704414 -0.59077 0.520628 0.616391 -0.218196 0.531015 0.818788 0 1 0 -0.694234 -0.71818 -0.0474977 -0.751204 -0.66006 -0.00361992 -0.999994 0 0.00336538 -0.99153 0.122908 -0.0419768 -0.996737 0 -0.0807197 0 -1 0 -0.999093 0 -0.0425929 0.0245413 0 -0.999699 0.0245413 0 -0.999699 0.015667 -0.76971 -0.638201 -0.78117 -0.511166 0.358446 -0.90709 0 0.420937 -0.999093 0 -0.0425929 0 -1 0 0 1 0 0 1 0 -0.766117 0.641947 -0.0311271 0.270715 0.482197 0.833186 0 1 0 0 -1 0 0.570265 -0.712473 -0.408877 0 -0.490231 0.871592 0.134821 -0.518483 0.844392 0 0 1 -0.214915 -0.883794 -0.415595 0 -1 0 0.58045 0.156946 0.799028 0.587733 0 0.809055 0.635367 -0.116116 0.76343 0.708732 0.482237 0.514924 0 1 0 -0.749169 0.662379 0 0.939259 0.156939 0.305225 0.950412 0.0364559 0.308849 1 0 0 0.876028 0.482261 0 0.00480774 0.980623 -0.195845 0 1 0 -0.708732 0.482237 0.514924 -0.90709 0 0.420937 -0.867304 0.296115 0.400124 -0.587733 0 0.809055 -0.58045 0.156946 0.799028 -0.587733 0 0.809055 -0.270715 0.482197 0.833186 0 0 1 0 0.15694 0.987608 -0.366414 -0.867951 -0.335265 0 -1 0 -0.800747 -0.599002 2.40906e-05 -0.803369 -0.594577 -0.0328283 0 -1 0 -0.218196 -0.531015 0.818788 -0.511718 -0.49188 0.704414 -0.613827 -0.528076 0.586815 0.876028 0.482261 0 0.176147 0.976009 -0.127978 0 1 0 -0.17174 0.977208 -0.124776 0 1 0 0 0.981768 -0.190085 1 -0.000728895 0.000131727 0.988343 0.00437724 0.152178 0 -1 0 0.943005 -0.29949 -0.145077 1 0 0 0.371876 -0.78432 -0.496539 1 0 0 0 -0.960975 -0.276637 1 0 0 1 0 0 0.491795 0.225336 0.841048 0.536529 0.35816 0.764106 0.0477506 0.2585 0.96483 0 0.299648 0.95405 -1 0 0 0 0.707132 0.707082 0.373812 0.823021 0.427669 -0.832942 0.534505 0.143223 -0.844417 0.378801 0.378774 -0.832943 0.143222 -0.534503 0.354048 0.661282 -0.661329 0.382504 0.546158 -0.745252 0.350426 0.242412 -0.904676 -0.0656295 -0.258237 0.96385 -0.130447 -0.297128 0.945885 0.530002 -0.403317 0.745944 0.481028 -0.226887 0.846838 0.0769671 -0.705025 0.704994 0.475701 -0.62199 0.621962 -0.832929 -0.143209 -0.534528 0.357973 -0.647936 -0.672335 -0.897843 -0.230422 0.375212 -0.800871 -0.179465 0.571313 -1 0 0 -0.902057 0.225869 0.367798 -0.848062 0.158783 0.505549 -0.902057 -0.225869 -0.367798 -0.850992 -0.364433 -0.378156 -1 0 0 -0.826039 -0.541618 -0.155916 -0.894866 -0.446336 0 -0.844429 0.378761 -0.378788 -0.902053 0.225874 -0.367806 -1 0 0 -0.832938 0.534515 -0.143205 -0.894863 0.446342 0 0 -0.976056 0.217521 0.0477477 -0.964819 0.258544 -0.0385488 -0.790755 0.610918 -0.835752 -0.434532 0.335709 -0.847158 -0.518619 0.115578 1 0 0 0.382477 -0.546575 -0.744961 0.386158 -0.000251019 -0.922433 0.35043 -0.242379 -0.904683 0.360406 0.90101 0.24143 0.371788 0.88383 0.283935 0.360398 0.901022 -0.241398 0.371852 0.883725 -0.284178 1 0 0 0.496669 -0.82627 0.265702 0.483232 -0.845656 0.226611 0.477897 -0.836319 -0.268672 1 0 0 1 0 0 -1 0 0 1 0 0 -1 0 0 -1 0 0 1 0 0 1.70726e-05 8.29927e-05 -1 2.95599e-06 -0.000272127 -1 -1 0 0 1 0 0 0 0.952342 0.305033 1 0 0 0.000662189 0.584981 0.811047 -1.66264e-05 0.59111 -0.806591 -1 0 0 -2.89853e-06 -0.591554 -0.806265 -1 0 0 0 -0.952342 -0.305033 -3.38138e-05 -0.952077 -0.30586 1 0 0 3.42414e-05 -0.592309 -0.805711 1 0 0 4.88481e-05 0.592442 -0.805613 0 0.952367 -0.304955 -4.80374e-05 0.95199 -0.30613 1 0 0 0.000304735 -0.592536 0.805544 0 -0.952367 0.304955 -1 0 0 3.34906e-05 0.598044 0.801463 -3.38138e-05 0.952077 0.30586 -1 0 0 -4.80374e-05 -0.95199 0.30613 4.78389e-05 -0.597855 0.801604 0.00347444 -0.00344697 0.999988 -0.00015963 0.165151 0.986268 -1 0 0 -0.0100481 0.117893 0.992975 -0.000160339 -0.16783 0.985816 9.28781e-06 -0.157631 0.987498 0 1 0 -0.964001 -0.000855602 0.265897 0 -1 0 -0.963387 0 0.268115 0 1 0 1 0 0 0 -1 0 0 1 0 0 1 0 -0.761909 0 0.647684 0 0 1 0 -1 0 0 0 1 -0.761909 0 0.647684 1 0 0 -0.963986 0.00556133 0.265893 0 1 0 -1 0 0.000912613 -0.97937 0 0.202074 0 0.707107 -0.707107 -1 0 0 0 0 -1 0 -1 0 0 -0.707107 -0.707107 0 -0.707107 -0.707107 0 -1 0 -1 0 0 -1 0 0.000912613 0.0544191 0 -0.998518 0 0 -1 0 0.707107 -0.707107 0.669149 0.166002 -0.72435 0.793671 0.430166 -0.430166 0.761081 0.252416 -0.59753 0.684518 -0.728996 0.0006247 0.68515 -0.728402 0 1 0 0 0.820426 -0.525063 0.226295 0.886601 -0.327062 0.327061 0 -1 0 0.761909 0 0.647684 0.761909 0 0.647684 0.842029 0 0.539432 0.820426 0.525063 0.226295 0 1 0 1 0 0 0.886601 0.327062 0.327061 0.842029 0 0.539432 1 0 0 0.803483 0.550011 -0.227823 0.648617 0.761115 0.000591937 0.768888 0.627098 0.12474 0.804218 -0.494171 -0.330194 0.793671 -0.430166 -0.430166 0.99986 0 -0.0167626 1 0 0 0.761081 -0.252416 -0.59753 0.669149 -0.166002 -0.72435 0.0544191 0 -0.998518 0.593821 0 -0.804597 -0.0245413 0 0.999699 1 0 0 -1 0 0 -0.0245413 0 0.999699 -1 0 0 1 0 0 1 0 0 -1 0 0 0 -0.707107 -0.707107 0 0.707107 -0.707107 -0.129335 0 -0.991601 -1 0 0 0 -0.216915 -0.976191 1 0 0 0 -0.707107 -0.707107 1 0 0 0 0.216932 -0.976187 0 0.707107 -0.707107 1 0 0 0 0.998969 -0.0453963 -0.0217296 0.999764 0 -0.000686617 0.999609 0.0279697 -0.0217296 -0.999764 0 0 -0.998969 -0.0454009 -0.000686575 -0.999609 0.0279679 1 0 0</float_array>
                    <technique_common>
                        <accessor count="306" source="#shape0-lib-normals-array" stride="3">
                            <param name="X" type="float"/>
                            <param name="Y" type="float"/>
                            <param name="Z" type="float"/>
                        </accessor>
                    </technique_common>
                </source>
                <vertices id="shape0-lib-vertices">
                    <input semantic="POSITION" source="#shape0-lib-positions"/>
                </vertices>
                <triangles count="306">
                    <input offset="0" semantic="VERTEX" source="#shape0-lib-vertices"/>
                    <input offset="1" semantic="NORMAL" source="#shape0-lib-normals"/>
                    <p>0 0 1 0 2 0 3 1 4 1 5 1 6 2 7 2 1 2 6 3 5 3 4 3 6 4 0 4 5 4 8 5 9 5 2 5 8 6 2 6 1 6 10 7 11 7 12 7 13 8 9 8 8 8 14 9 12 9 11 9 15 10 7 10 16 10 15 11 16 11 13 11 17 12 16 12 10 12 17 13 10 13 12 13 18 14 5 14 0 14 18 15 0 15 2 15 19 16 11 16 10 16 19 17 4 17 3 17 20 18 2 18 9 18 20 19 14 19 11 19 21 20 16 20 7 20 21 21 10 21 16 21 22 22 2 22 20 22 22 23 20 23 11 23 22 24 11 24 3 24 22 25 3 25 5 25 23 26 8 26 1 26 23 27 1 27 7 27 23 28 7 28 15 28 24 29 14 29 20 29 24 30 20 30 9 30 24 31 12 31 14 31 24 32 9 32 13 32 25 33 12 33 24 33 25 34 24 34 13 34 25 35 13 35 16 35 25 36 16 36 17 36 25 37 17 37 12 37 26 38 1 38 0 38 26 39 0 39 6 39 26 40 6 40 1 40 27 41 3 41 11 41 27 42 11 42 19 42 27 43 19 43 3 43 28 44 10 44 21 44 28 45 4 45 19 45 28 46 19 46 10 46 29 47 2 47 22 47 29 48 22 48 5 48 29 49 5 49 18 49 29 50 18 50 2 50 30 51 15 51 13 51 30 52 23 52 15 52 30 53 13 53 8 53 30 54 8 54 23 54 31 55 4 55 28 55 31 56 28 56 21 56 31 57 21 57 7 57 31 58 7 58 6 58 31 59 6 59 4 59 32 60 33 60 34 60 35 61 36 61 37 61 35 62 38 62 36 62 39 63 36 63 38 63 39 64 32 64 36 64 40 65 34 65 41 65 40 66 41 66 37 66 40 67 37 67 36 67 42 68 34 68 33 68 43 69 44 69 45 69 46 70 45 70 44 70 46 71 35 71 37 71 47 72 48 72 43 72 47 73 43 73 45 73 49 74 33 74 32 74 49 75 32 75 39 75 50 76 51 76 42 76 50 77 42 77 33 77 50 78 48 78 51 78 52 79 36 79 32 79 52 80 32 80 34 80 53 81 43 81 48 81 53 82 48 82 50 82 53 83 50 83 33 83 53 84 44 84 43 84 54 85 45 85 46 85 54 86 46 86 37 86 55 87 44 87 53 87 55 88 53 88 33 88 55 89 39 89 38 89 55 90 38 90 44 90 56 91 38 91 35 91 56 92 46 92 44 92 57 93 45 93 54 93 57 94 37 94 41 94 57 95 54 95 37 95 57 96 41 96 51 96 58 97 45 97 57 97 58 98 57 98 51 98 58 99 47 99 45 99 58 100 51 100 48 100 58 101 48 101 47 101 59 102 36 102 52 102 59 103 52 103 34 103 59 104 34 104 40 104 59 105 40 105 36 105 60 106 34 106 42 106 60 107 42 107 51 107 60 108 51 108 41 108 60 109 41 109 34 109 61 110 44 110 38 110 61 111 38 111 56 111 61 112 56 112 44 112 62 113 35 113 46 113 62 114 46 114 56 114 62 115 56 115 35 115 63 116 39 116 55 116 63 117 55 117 33 117 63 118 33 118 49 118 63 119 49 119 39 119 64 120 65 120 66 120 67 121 68 121 69 121 67 122 66 122 65 122 70 123 69 123 68 123 71 124 65 124 64 124 72 125 64 125 66 125 73 126 74 126 71 126 73 127 71 127 64 127 75 128 74 128 73 128 75 129 73 129 76 129 77 130 78 130 79 130 80 131 76 131 73 131 80 132 73 132 64 132 80 133 81 133 79 133 80 134 79 134 76 134 82 135 83 135 77 135 82 136 84 136 72 136 82 137 72 137 66 137 82 138 66 138 83 138 85 139 74 139 75 139 85 140 75 140 86 140 85 141 65 141 71 141 85 142 71 142 74 142 85 143 86 143 87 143 85 144 87 144 65 144 88 145 77 145 83 145 88 146 67 146 69 146 89 147 78 147 86 147 89 148 86 148 75 148 89 149 79 149 78 149 89 150 76 150 79 150 89 151 75 151 76 151 90 152 77 152 88 152 90 153 88 153 69 153 90 154 78 154 77 154 90 155 69 155 70 155 90 156 70 156 78 156 91 157 84 157 82 157 91 158 82 158 77 158 91 159 77 159 79 159 91 160 81 160 84 160 91 161 79 161 81 161 92 162 70 162 68 162 92 163 68 163 87 163 92 164 87 164 86 164 92 165 86 165 78 165 92 166 78 166 70 166 93 167 66 167 67 167 93 168 67 168 88 168 93 169 83 169 66 169 93 170 88 170 83 170 94 171 81 171 80 171 94 172 80 172 64 172 94 173 84 173 81 173 94 174 72 174 84 174 94 175 64 175 72 175 95 176 65 176 87 176 95 177 87 177 68 177 95 178 68 178 67 178 95 179 67 179 65 179 96 180 97 180 98 180 99 181 100 181 101 181 102 182 98 182 97 182 103 183 101 183 100 183 104 184 99 184 101 184 105 185 97 185 96 185 106 186 97 186 105 186 106 187 105 187 100 187 106 188 100 188 99 188 107 189 96 189 98 189 108 190 102 190 99 190 108 191 98 191 102 191 108 192 104 192 98 192 109 193 97 193 106 193 109 194 106 194 99 194 110 195 100 195 105 195 110 196 103 196 100 196 111 197 96 197 103 197 111 198 103 198 110 198 111 199 105 199 96 199 111 200 110 200 105 200 112 201 102 201 97 201 112 202 97 202 109 202 112 203 99 203 102 203 112 204 109 204 99 204 113 205 96 205 107 205 113 206 107 206 101 206 113 207 103 207 96 207 114 208 99 208 104 208 114 209 104 209 108 209 114 210 108 210 99 210 115 211 101 211 103 211 115 212 103 212 113 212 115 213 113 213 101 213 116 214 107 214 98 214 116 215 98 215 104 215 117 216 104 216 101 216 117 217 116 217 104 217 117 218 101 218 107 218 117 219 107 219 116 219 118 220 119 220 120 220 121 221 122 221 123 221 121 222 123 222 124 222 125 223 122 223 121 223 125 224 119 224 118 224 126 225 127 225 128 225 129 226 124 226 123 226 130 227 120 227 119 227 131 228 119 228 125 228 131 229 125 229 121 229 131 230 124 230 119 230 132 231 121 231 124 231 132 232 124 232 131 232 132 233 131 233 121 233 133 234 128 234 127 234 134 235 122 235 125 235 134 236 125 236 118 236 134 237 118 237 123 237 134 238 123 238 122 238 135 239 118 239 120 239 135 240 136 240 118 240 135 241 137 241 136 241 138 242 129 242 123 242 138 243 136 243 137 243 139 244 136 244 138 244 139 245 138 245 123 245 139 246 118 246 136 246 139 247 123 247 118 247 140 248 141 248 137 248 140 249 137 249 135 249 140 250 135 250 120 250 140 251 142 251 141 251 140 252 120 252 133 252 140 253 133 253 142 253 143 254 129 254 138 254 143 255 138 255 127 255 143 256 127 256 126 256 144 257 129 257 143 257 144 258 143 258 126 258 144 259 124 259 129 259 144 260 119 260 124 260 145 261 119 261 144 261 145 262 144 262 126 262 145 263 128 263 130 263 145 264 130 264 119 264 146 265 126 265 128 265 146 266 128 266 145 266 146 267 145 267 126 267 147 268 128 268 133 268 147 269 133 269 120 269 147 270 120 270 130 270 147 271 130 271 128 271 148 272 127 272 138 272 148 273 138 273 137 273 148 274 142 274 133 274 148 275 133 275 127 275 148 276 137 276 142 276 149 277 142 277 137 277 149 278 137 278 141 278 149 279 141 279 142 279 150 280 151 280 152 280 153 281 152 281 151 281 154 282 150 282 155 282 156 283 150 283 152 283 156 284 155 284 150 284 157 285 153 285 151 285 158 286 152 286 153 286 159 287 150 287 154 287 159 288 154 288 157 288 160 289 155 289 158 289 160 290 153 290 154 290 160 291 154 291 155 291 161 292 154 292 153 292 161 293 153 293 157 293 161 294 157 294 154 294 162 295 158 295 153 295 162 296 153 296 160 296 162 297 160 297 158 297 163 298 152 298 158 298 163 299 158 299 155 299 163 300 155 300 156 300 163 301 156 301 152 301 164 302 150 302 159 302 164 303 159 303 157 303 164 304 151 304 150 304 164 305 157 305 151 305</p>
                </triangles>
            </mesh>
        </geometry>
    </library_geometries>
    <library_visual_scenes>
        <visual_scene id="VisualSceneNode" name="VisualScene">
            <node id="node" name="node">
                <instance_geometry url="#shape0-lib">
                    <bind_material>
                        <technique_common/>
                    </bind_material>
                </instance_geometry>
            </node>
        </visual_scene>
    </library_visual_scenes>
    <scene>
        <instance_visual_scene url="#VisualSceneNode"/>
    </scene>
</COLLADA>
