<?xml version="1.0" encoding="utf-8"?>
<COLLADA xmlns="http://www.collada.org/2005/11/COLLADASchema" version="1.4.1">
  <asset>
    <contributor>
      <author>Blender User</author>
      <authoring_tool>Blender 2.69.0 r60991</authoring_tool>
    </contributor>
    <created>2014-02-11T15:51:27</created>
    <modified>2014-02-11T15:51:27</modified>
    <unit name="meter" meter="1"/>
    <up_axis>Z_UP</up_axis>
  </asset>
  <library_images/>
  <library_effects>
    <effect id="Material_002-effect">
      <profile_COMMON>
        <technique sid="common">
          <phong>
            <emission>
              <color sid="emission">0 0 0 1</color>
            </emission>
            <ambient>
              <color sid="ambient">0 0 0 1</color>
            </ambient>
            <diffuse>
              <color sid="diffuse">0.9698 0.9698 0.9698 1</color>
            </diffuse>
            <specular>
              <color sid="specular">0.5 0.5 0.5 1</color>
            </specular>
            <shininess>
              <float sid="shininess">50</float>
            </shininess>
            <index_of_refraction>
              <float sid="index_of_refraction">1</float>
            </index_of_refraction>
          </phong>
        </technique>
        <extra>
          <technique profile="GOOGLEEARTH">
            <double_sided>1</double_sided>
          </technique>
        </extra>
      </profile_COMMON>
      <extra><technique profile="MAX3D"><double_sided>1</double_sided></technique></extra>
    </effect>
  </library_effects>
  <library_materials>
    <material id="Material_002-material" name="Material_002">
      <instance_effect url="#Material_002-effect"/>
    </material>
  </library_materials>
  <library_geometries>
    <geometry id="shape0_007-mesh" name="shape0.007">
      <mesh>
        <source id="shape0_007-mesh-positions">
          <float_array id="shape0_007-mesh-positions-array" count="621">0.04475349 0.001296162 -0.005999982 0.04994946 -0.001703619 -0.005999982 0.04475349 0.001296162 -0.02199995 0.04994946 -0.007703959 -0.005999982 0.04994946 -0.007703959 -0.02199995 0.04475349 -0.0107038 -0.005999982 0.03955745 -0.001703619 -0.005999982 0.03955745 -0.007703959 -0.005999982 0.03955745 -0.007703959 -0.02199995 0.03955745 -0.001703619 -0.02199995 0.04475349 -0.0107038 -0.02199995 0.04994946 -0.001703619 -0.02199995 0.04994946 -0.007703959 0.005999982 0.04475349 -0.0107038 0.005999982 0.04994946 -0.001703619 0.02200001 0.04994946 -0.001703619 0.005999982 0.03955745 -0.001703619 0.005999982 0.04475349 0.001296162 0.005999982 0.04475349 0.001296162 0.02200001 0.03955745 -0.001703619 0.02199995 0.03955745 -0.007703959 0.005999982 0.04475349 -0.0107038 0.02199995 0.03955745 -0.007703959 0.02199995 0.04994946 -0.007703959 0.02199995 0.122 0 -0.01524996 0.1219999 -0.02300006 -0.02199995 0.1219999 -0.02300006 0.02200001 0.1219999 -0.01076465 0.0108022 0.122 0.01076346 0.0108031 0.122 0 0.01524996 0.122 0.02299988 -0.02199995 0.122 0.01076447 -0.01080214 0.122 0.01524966 7.17226e-7 0.1219999 -0.01524984 -6.77473e-7 0.1219999 -0.01076364 -0.01080304 0 -0.02299994 -0.02999997 0.092 0.02299994 0.02200001 0.1219999 -0.02300006 -0.02999997 0.122 0.02299988 -0.02999997 0 0.023 -0.02999997 -0.01351994 0.01860648 -0.02999997 -0.02187407 0.007106661 -0.02999997 -0.02193498 -0.006917655 -0.02199995 -0.01352 -0.01860648 -0.02999997 -0.02187407 -0.007106602 -0.02999997 0.092 0.02299988 0.02999997 -0.01360011 -0.01854813 -0.02199995 -0.02178055 0.007389485 -0.02199995 0 -0.02299994 -0.02199995 0 0.023 -0.02199995 0.09199994 -0.02300006 0.02200001 0 0.02299994 0.02999997 0.122 0.02299988 0.03000003 0.1219999 -0.02300006 0.02999997 0 -0.023 0.02999997 -0.02187407 -0.007106602 0.02999997 -0.01352 -0.01860648 0.02999997 -0.02193498 -0.006917655 0.02199995 -0.01351994 0.01860648 0.02999997 -0.02187407 0.007106661 0.02999997 -0.02178055 0.007389485 0.02199995 -0.01319724 0.01883685 0.02199995 -0.01360011 -0.01854819 0.02199995 0 -0.023 0.02199995 0.122 0.02299988 0.02200001 0 0.02299994 0.02199995 0.09199994 -0.02300006 0.02999997 -0.01319724 0.01883691 -0.02199995 0.092 0.02299994 -0.02199995 0.092 0.02299994 -0.02999997 0.09199994 -0.023 -0.02199995 0.09199994 -0.023 -0.02999997 0.092 0 -0.02199995 0 0 -0.02199995 0 0 0.02199995 0.09199994 0 0.02200001 -0.01997458 0.006481826 -0.02999997 -0.01998871 -0.006438255 -0.02999997 0.01235449 0.0169813 -0.02999997 -0.01235449 -0.0169813 -0.02999997 3.06614e-5 -0.0209999 -0.02999997 0.01996976 0.006496846 -0.03549998 -0.0123499 0.0169847 -0.03549998 -0.01997458 0.006481826 -0.03549998 -0.01233708 -0.01699399 -0.03549998 -0.01996976 -0.006496846 -0.03549998 7.90649e-6 -0.02099996 -0.03549998 0.0123499 -0.0169847 -0.03549998 0.01240062 -0.01694762 -0.02999997 0.01997458 -0.006481826 -0.03549998 0.01998871 0.006438255 -0.02999997 0.01997458 -0.006481826 -0.02999997 0.01233708 0.01699399 -0.03549998 -7.89136e-6 0.02099996 -0.03549998 -0.01240062 0.01694768 -0.02999997 -3.06486e-5 0.0209999 -0.02999997 -0.01997458 0.006481826 0.02999997 -0.01998907 -0.006437063 0.02999997 0.01239961 -0.0169484 0.02999997 0.01997458 -0.006481826 0.02999997 0.01998907 0.006437063 0.02999997 0.01235544 0.01698052 0.02999997 -0.01239961 0.0169484 0.02999997 0.0123499 -0.0169847 0.03549998 0.01997458 -0.006481826 0.03549998 -0.01997458 0.006481826 0.03549998 -0.0123499 0.0169847 0.03549998 -7.90649e-6 0.02099996 0.03549998 0.01233708 0.01699399 0.03549998 -2.94631e-5 0.0209999 0.02999997 0.01996976 0.006496846 0.03549998 7.89136e-6 -0.02099996 0.03549998 2.94503e-5 -0.02099996 0.02999997 -0.01233708 -0.01699399 0.03549998 -0.01235544 -0.01698058 0.02999997 -0.01996976 -0.006496846 0.03549998 -2.42735e-6 0.006489336 0.03549998 2.41042e-6 -0.006489336 0.03549998 0.01999998 -0.023 0.02199995 0.01999998 0.02299994 0.02199995 0.01999998 0.02299994 0.02999997 0.01999992 -0.023 0.02999997 2.42556e-6 -0.006489336 -0.03549998 -2.41221e-6 0.006489336 -0.03549998 0.01999998 0 0.02199995 0.01999998 0 -0.02199995 0.01999998 0.02299994 -0.02999997 0.01999998 -0.023 -0.02199995 0.01999998 0.02299994 -0.02199995 0.01999998 -0.023 -0.02999997 0.04475349 -5.03817e-4 -0.005999982 0.04839068 -0.00260365 -0.005999982 0.04839068 -0.006803929 -0.005999982 0.04475349 -0.008903801 -0.005999982 0.04111629 -0.00260365 -0.005999982 0.04111629 -0.00680387 -0.005999982 0.04475349 -5.03818e-4 0.005999982 0.04839068 -0.00260365 0.005999982 0.04475349 -0.008903801 0.005999982 0.04111629 -0.00260365 0.005999982 0.04839068 -0.006803929 0.005999982 0.04111629 -0.006803929 0.005999982 0.304 -1.34051e-7 -0.0152499 0.304 -0.01076471 0.0108022 0.304 0.0107634 0.0108031 0.304 -1.40432e-7 0.01525002 0.304 0.01076442 -0.01080214 0.304 0.0152496 7.46878e-7 0.304 -0.0152499 -6.47822e-7 0.304 -0.0107637 -0.01080304 0.304 -1.33628e-7 -0.01677495 0.304 -0.01184117 0.01188242 0.304 0.0118398 0.01188343 0.304 -1.40647e-7 0.01677501 0.304 0.01184087 -0.01188236 0.304 0.01677459 8.16601e-7 0.304 -0.01677489 -7.17569e-7 0.304 -0.01184004 -0.01188331 0.307 -1.33305e-7 -0.02012991 0.307 -0.01420938 0.01425892 0.307 0.01420778 0.01426011 0.307 -1.41728e-7 0.02013003 0.307 0.01420909 -0.0142588 0.307 0.02012956 9.7048e-7 0.307 -0.02012985 -8.70523e-7 0.307 -0.01420807 -0.01425999 0.331 -1.37978e-7 -0.02012991 0.331 -0.01420938 0.01425892 0.331 0.01420778 0.01426011 0.331 -1.46401e-7 0.02013003 0.331 0.01420909 -0.0142588 0.331 0.02012956 9.74391e-7 0.331 -0.02012985 -8.66613e-7 0.331 -0.01420807 -0.01425999 0.333 -1.39362e-7 -0.01690912 0.333 -0.01193588 0.01197749 0.333 0.01193451 0.0119785 0.333 -1.46437e-7 0.01690924 0.333 0.01193565 -0.01197737 0.333 0.01690882 8.27418e-7 0.333 -0.01690912 -7.19025e-7 0.333 -0.01193481 -0.01197838 0.336 -1.38896e-7 -0.02029097 0.336 -0.01432305 0.014373 0.336 0.01432144 0.01437419 0.336 -1.47386e-7 0.02029109 0.336 0.01432275 -0.01437288 0.336 0.02029061 9.8254e-7 0.336 -0.02029091 -8.73192e-7 0.336 -0.01432174 -0.01437407 0.348 -1.41232e-7 -0.02029097 0.348 -0.01432305 0.014373 0.348 0.01432144 0.01437419 0.348 -1.49722e-7 0.02029109 0.348 0.01432275 -0.01437288 0.348 0.02029061 9.84495e-7 0.348 -0.02029091 -8.71237e-7 0.348 -0.01432174 -0.01437407 0.358 -1.45751e-7 -0.01217454 0.358 -0.008593916 0.008623838 0.358 0.008592784 0.008624553 0.358 -1.50845e-7 0.01217466 0.358 0.008593618 -0.008623719 0.358 0.0121743 6.15005e-7 0.358 -0.0121746 -4.98434e-7 0.358 -0.008593082 -0.008624434 0.362 -1.50204e-7 0</float_array>
          <technique_common>
            <accessor source="#shape0_007-mesh-positions-array" count="207" stride="3">
              <param name="X" type="float"/>
              <param name="Y" type="float"/>
              <param name="Z" type="float"/>
            </accessor>
          </technique_common>
        </source>
        <source id="shape0_007-mesh-normals">
          <float_array id="shape0_007-mesh-normals-array" count="1242">0.4999917 0.8660302 1.82735e-7 -0.4999901 0.8660312 0 -0.4999903 0.8660309 1.82735e-7 1 -1.2417e-6 2.3283e-7 0.4999914 0.8660303 3.22124e-7 0.4999931 -0.8660294 0 1 -1.2417e-6 2.3283e-7 -0.499994 -0.8660289 -3.18052e-7 0.499993 -0.8660294 0 -1 6.20849e-7 -2.32831e-7 -0.4999938 -0.866029 -2.67642e-7 -1 6.20849e-7 -2.3283e-7 0.4999928 -0.8660296 0 -0.4999939 -0.8660289 -2.67642e-7 -0.499994 -0.8660289 -3.18052e-7 1 -1.2417e-6 2.3283e-7 0.499993 -0.8660295 0 0.4999917 0.8660302 2.99148e-7 1 -1.2417e-6 2.3283e-7 -0.4999901 0.8660312 0 0.4999917 0.8660302 2.92847e-7 -1 1.2417e-6 0 -0.4999903 0.8660309 1.76434e-7 -1 1.86255e-6 -2.3283e-7 1 -1.92265e-6 3.38662e-7 1 4.5733e-7 -4.99787e-7 1 -4.25136e-7 8.66193e-7 1 4.80685e-7 1.69331e-7 1 4.41217e-7 1.83236e-7 1 0 0 -1.5522e-6 -1 -4.65663e-7 -0.8090279 -0.5877195 0.007722795 1 -4.76851e-7 -5.21037e-7 -1.5522e-6 -1 -2.32831e-7 -0.3008016 0.9535636 0.01532918 -0.3090535 0.9510447 3.95393e-7 -0.808951 0.5876662 0.01570612 -0.9999316 5.24162e-7 0.01168704 1.49012e-6 1 2.32831e-7 -4.91531e-7 -1 -2.32831e-7 1.5522e-6 1 4.65662e-7 1.30385e-6 1 4.65662e-7 -0.8000193 0.5998571 0.01185655 1 -6.47877e-7 0 -0.3090528 -0.9510371 0.003836214 -0.3110942 -0.950379 -4.9034e-7 -0.8128213 -0.5825002 0.003892481 -0.9999108 0.01079183 0.007866859 1 -1.80937e-6 -6.46304e-7 1 -8.09846e-7 2.75947e-6 1 -8.09846e-7 0 1 -2.8749e-7 9.79594e-7 1 -1.43066e-6 1.56348e-6 1 -6.47876e-7 -1.10379e-6 -5.17401e-7 -1 -4.65662e-7 1.02445e-6 1 4.65661e-7 -2.48353e-7 -2.83446e-7 1 -0.9999935 0.001091182 -0.003454446 1.86265e-7 2.83446e-7 -1 -1.55221e-6 -1 -2.11665e-7 1.5522e-6 1 2.11664e-7 1.86265e-7 2.42954e-7 -1 0 -2.42954e-7 1 0 -3.23938e-7 1 0 0 -1 0 2.42954e-7 -1 2.00201e-7 3.38028e-7 -1 1.29215e-7 1.28795e-7 -1 0 2.29901e-7 -1 0 2.42954e-7 -1 0 -2.42954e-7 1 -2.07788e-7 -1.48909e-7 1 -1.73223e-7 -2.5851e-7 1 -1.56193e-7 -2.08313e-7 1 -2.05637e-7 -2.42954e-7 1 -1 1.29575e-6 -3.38662e-7 -1 6.47877e-7 -3.38663e-7 0.8099571 0.5864878 -0.001211106 0.8092402 -0.587478 1.24842e-7 -0.3086297 -0.9511815 0.001218616 0.3113092 -0.9503078 -0.001274108 0.9999935 -0.001091182 -0.003454089 -0.8100943 0.5862894 0.003453791 -0.3113092 0.9503078 -0.001274228 0.3086297 0.9511815 0.001218736 -0.809957 -0.586488 -0.001211404 -0.8101104 0.5862668 -0.003519535 -0.9999933 0.001118779 0.003519296 0.8100944 -0.5862894 0.003454089 0 0 -1 0.3086881 0.9511626 -0.001218199 2.59757e-7 -2.07121e-6 1 -0.3086881 -0.9511626 -0.001218318 0.3112553 -0.9503256 0.001211702 1.35115e-6 -1.33379e-6 1 0.8099904 0.5864418 0.001274049 0 1.30731e-7 -1 0.9999999 3.72566e-4 3.38757e-7 4.51971e-7 3.04982e-7 -1 -0.3112553 0.9503256 0.001211583 -2.45163e-7 1.75819e-7 -1 0 0 -1 -0.8099904 -0.5864418 0.001273751 0 0 1 1.96123e-6 0 1 0 -2.575e-7 1 -1.86524e-7 0 1 0 0 1 -1.66639e-7 -5.13519e-7 1 -1.86339e-7 -4.90377e-7 1 -4.36578e-7 -5.13621e-7 1 0 0 1 0 -3.54789e-7 1 0 -2.56759e-7 1 -2.18289e-7 -2.5681e-7 1 -1.86441e-7 -2.19342e-7 1 0 0 -1 1.86524e-7 0 -1 0 0 -1 4.36578e-7 5.13621e-7 -1 1.66639e-7 5.13519e-7 -1 1.86339e-7 4.90377e-7 -1 1.86441e-7 2.19342e-7 -1 2.18289e-7 2.5681e-7 -1 0 2.56759e-7 -1 0 3.54789e-7 -1 -2.58728e-7 0 1 -1.02445e-6 -1 -4.65662e-7 5.43271e-7 1 4.65661e-7 -2.02235e-7 -3.50287e-7 1 -2.18697e-7 -3.23938e-7 1 4.39791e-7 1 2.32831e-7 -1.11759e-6 -1 -2.32831e-7 -1.92908e-7 -2.86779e-7 1 2.21062e-7 -3.37951e-7 1 -2.06961e-7 -3.40774e-7 1 -1.55221e-7 -3.38528e-7 1 -2.839e-7 -9.72142e-7 1 -1.81091e-7 -3.37257e-7 1 0 -3.37391e-7 1 0 -2.19126e-7 1 3.25055e-7 -2.88688e-7 -1 2.06961e-7 2.24793e-7 -1 2.06961e-7 7.89661e-7 -1 -1.77167e-7 2.25055e-7 -1 0 0 -1 -5.97604e-7 7.88426e-7 -1 1.76292e-7 1.76013e-6 -1 -1.76966e-7 -2.42953e-7 1 -1.64605e-7 -3.10424e-7 1 -1.67339e-7 -2.42954e-7 1 -1.81091e-7 -2.06536e-7 1 -2.11642e-7 -2.42954e-7 1 1.38173e-7 3.10424e-7 -1 1.61788e-7 2.8023e-7 -1 1.55221e-7 2.93451e-7 -1 1.65734e-7 3.33847e-7 -1 1.32671e-7 2.42954e-7 -1 1.2031e-7 3.10424e-7 -1 1.3173e-7 2.28168e-7 -1 2.06961e-7 0 -1 2.75902e-7 1.43028e-7 -1 -1.79248e-7 -3.1044e-7 1 -1.34429e-7 -2.32818e-7 1 -1.9417e-7 -1.8109e-7 1 -2.98715e-7 -5.174e-7 1 -1.64302e-7 -2.32818e-7 1 -1.34436e-7 -2.3283e-7 1 0.4999921 0.8660299 0 -0.4999894 0.8660315 0 0.4999924 -0.8660297 0 1 0 0 -1 0 0 -0.4999937 -0.866029 -2.346e-7 4.18223e-7 3.10424e-7 -1 2.98715e-7 5.17401e-7 -1 3.43528e-7 4.3979e-7 -1 1.34436e-7 2.3283e-7 -1 1.79248e-7 3.1044e-7 -1 4.18223e-7 3.10424e-7 -1 0 -0.3818382 -0.9242292 -2.51512e-7 -0.9235621 0.3834488 0 -0.9235254 -0.383537 2.25595e-7 0.3818742 -0.9242143 -2.18912e-7 -0.3818741 0.9242144 0 0.9235256 0.3835366 2.51512e-7 0.9235622 -0.3834485 0 0.3818381 0.9242293 -1 0 0 -1 0 0 -1 0 0 -1 0 0 -1 0 0 -1 0 0 -1 0 0 -1 0 0 -0.7184254 0.6424083 0.2667896 -0.7186883 -0.2655045 -0.6426466 -0.7186886 0.2655042 0.6426463 -0.7184255 -0.6424078 -0.2667901 -0.7186823 0.2655318 -0.6426419 -0.7184293 -0.6424292 0.2667284 -0.7184261 0.6424331 -0.2667281 -0.7186827 -0.2655316 0.6426416 1.3415e-7 0.9235622 -0.3834485 -1.81686e-7 -0.3818743 0.9242143 1.19655e-7 0.9235256 0.3835368 0 -0.3818382 -0.9242292 0 0.3818382 0.9242292 0 -0.9235254 -0.3835374 1.81686e-7 0.3818743 -0.9242143 -2.05827e-7 -0.923562 0.383449 0.8298549 -0.515308 -0.2140059 0.8300461 0.2129692 -0.5154294 0.8298517 -0.5153334 0.2139569 0.8298592 0.5153222 -0.2139554 0.8300459 -0.2129693 0.5154299 0.8298551 0.515308 0.2140054 0.8300501 -0.2129468 -0.5154322 0.8300502 0.2129468 0.5154322 -0.7214543 -0.2644084 -0.6399937 -0.7214545 0.2644083 0.6399935 -0.7211927 -0.6397578 -0.2656896 -0.7214487 0.2644356 -0.6399887 -0.7211967 -0.6397789 0.265628 -0.7211902 0.6397864 -0.2656278 -0.7214489 -0.2644355 0.6399886 -0.7211928 0.6397579 0.265689 -1.31003e-7 -0.3818742 0.9242143 0 0.9235256 0.3835368 0 -0.3818382 -0.9242292 0 0.3818382 0.9242292 0 -0.9235253 -0.3835374 1.31003e-7 0.3818742 -0.9242143 0 -0.923562 0.383449 0 0.9235622 -0.3834486 0.5997828 -0.7390005 0.3068206 0.5997841 0.7389993 -0.306821 0.6000672 -0.3054801 0.7393249 0.5997833 0.7389705 0.3068916 0.6000735 -0.3054495 -0.7393324 0.6000736 0.3054494 0.7393324 0.5997831 -0.7389705 -0.3068922 0.6000675 0.30548 -0.7393246 0.9422354 0.1278972 0.3095718 0.9421554 -0.3095437 -0.1285525 0.9422338 0.127911 -0.3095712 0.9421557 -0.3095555 0.1285228 0.9421557 0.3095557 -0.1285226 0.9422338 -0.127911 0.3095713 0.9421555 0.3095439 0.1285523 0.9422355 -0.1278972 -0.3095719 -1.5522e-6 -1 -4.65661e-7 -0.8128213 -0.5825001 -0.003893315 -1.5522e-6 -1 -2.32831e-7 -0.3090534 0.9510447 1.73961e-7 -0.3008014 0.9535636 -0.01532888 -0.8000192 0.5998571 -0.01185649 -0.9999108 0.01079171 -0.007867038 1.5522e-6 1 4.65661e-7 -4.91531e-7 -1 -2.32831e-7 1.49012e-6 1 2.32832e-7 1.30385e-6 1 4.65662e-7 -0.8089511 0.5876661 -0.01570636 1 -6.47877e-7 0 -0.3110942 -0.9503791 -3.17779e-7 -0.3090527 -0.9510372 -0.003837168 -0.8090281 -0.5877194 -0.007723212 -0.9999318 6.55203e-7 -0.01168727 1 -8.09846e-7 0 -5.17401e-7 -1 -4.65662e-7 9.31323e-7 1 2.32831e-7 -1.86265e-7 -2.42954e-7 1 -0.9999999 -3.72566e-4 -3.38757e-7 1.86265e-7 2.83446e-7 -1 -1.5522e-6 -1 -2.11664e-7 1.5522e-6 1 2.11664e-7 1.86265e-7 2.42954e-7 -1 0 -2.42954e-7 1 0 -2.42954e-7 1 1.86265e-7 2.42954e-7 -1 -1 6.47877e-7 0 -1 3.23938e-7 -1.69331e-7 0.8087899 0.5880873 0.003482222 0.8101103 -0.5862668 -0.003519117 -0.3086587 -0.951172 0.001290798 0.3093711 -0.9509348 0.00355494 1 3.7271e-4 3.38757e-7 -0.8092402 0.587478 -1.24842e-7 -0.3093711 0.9509347 0.003554761 0.3086588 0.951172 0.001290977 -0.80879 -0.5880872 0.003481566 -0.8092402 0.587478 -1.24842e-7 -0.9999999 -3.7271e-4 -3.38757e-7 0.8092402 -0.587478 1.24842e-7 0 0 -1 0.3086587 0.951172 -0.001291096 -7.56528e-7 0 1 -0.3086587 -0.9511719 -0.001291215 0.3093711 -0.950935 -0.003482401 1.49695e-6 -1.41141e-6 1 0.8087898 0.5880871 -0.003554165 1.27263e-7 0 -1 0.9999932 -0.001118779 0.003519654 6.05353e-7 0 -1 -0.3093712 0.950935 -0.00348252 0 2.57603e-7 -1 0 0 -1 -0.8087897 -0.5880872 -0.003554761 0 0 1 0 2.88474e-7 1 2.45323e-7 -1.7571e-7 1 -1.86524e-7 0 1 0 0 1 0 0 -1 1.86524e-7 0 -1 -1.42588e-7 -2.83446e-7 1 -1.02445e-6 -1 -4.65662e-7 5.43272e-7 1 4.65661e-7 -2.33412e-7 -3.10424e-7 1 4.65661e-7 1 4.65661e-7 -1.11759e-6 -1 -2.32831e-7 -1.86265e-7 0 1 0 0 1 0 2.83446e-7 -1 0 0 -1 0 0 -1 -1.53685e-7 -2.66196e-7 1 -2.1615e-7 -2.46523e-7 1 2.11642e-7 2.42954e-7 -1 1.23043e-7 2.42954e-7 -1 1.97533e-7 0 -1 -2.34725e-7 -2.58701e-7 1 -5.33446e-7 0 1 0 0 1 0 -2.58701e-7 1 -1.28028e-7 -2.21732e-7 1 -3.84082e-7 0 1 0.499992 0.8660299 0 -0.4999894 0.8660315 0 0.4999919 -0.8660301 -2.01638e-7 1 0 0 -1 0 0 -0.4999938 -0.866029 -2.89644e-7 1.28028e-7 2.21732e-7 -1 0 2.58701e-7 -1 1.49358e-7 2.587e-7 -1 0 2.587e-7 -1 2.34724e-7 2.58701e-7 -1 1.28028e-7 2.21732e-7 -1 0 -0.3818382 -0.9242292 -2.3569e-7 -0.9235621 0.3834491 -1.26547e-7 -0.9235255 -0.3835373 2.25693e-7 0.3818743 -0.9242143 -2.25693e-7 -0.3818742 0.9242144 1.26547e-7 0.9235257 0.3835365 2.42378e-7 0.9235624 -0.3834484 0 0.3818382 0.9242293 -1 0 0 -1 0 0 -1 0 0 -1 0 0 -1 0 0 -1 0 0 -1 0 0 -1 0 0 -0.7184255 0.6424081 0.2667896 -0.7186881 -0.2655045 -0.6426467 -0.7186883 0.2655045 0.6426466 -0.7184287 -0.6424043 -0.2667901 -0.7186826 0.2655318 -0.6426416 -0.7184263 -0.6424326 0.2667284 -0.718426 0.6424331 -0.2667281 -0.718683 -0.2655315 0.6426412 2.23834e-7 0.9235622 -0.3834487 -2.17811e-7 -0.3818743 0.9242143 0 0.9235256 0.3835366 0 -0.3818382 -0.9242292 0 0.3818382 0.9242292 0 -0.9235254 -0.3835374 2.17811e-7 0.3818742 -0.9242143 -2.3562e-7 -0.923562 0.383449 0.8298513 -0.5153135 -0.2140064 0.8300461 0.2129692 -0.5154294 0.8298553 -0.5153279 0.2139564 0.8298556 0.5153276 -0.2139559 0.8300461 -0.2129693 0.5154294 0.8298587 0.5153023 0.2140049 0.8300502 -0.2129468 -0.5154321 0.8300502 0.2129467 0.5154321 -0.7214543 -0.2644085 -0.6399938 -0.7214545 0.2644084 0.6399936 -0.7211961 -0.6397542 -0.2656896 -0.7214488 0.2644357 -0.6399887 -0.7211934 -0.6397826 0.265628 -0.7211934 0.6397828 -0.2656278 -0.721449 -0.2644355 0.6399885 -0.7211897 0.6397615 0.2656891 -2.1781e-7 -0.3818742 0.9242143 0 0.9235256 0.3835368 0 -0.3818382 -0.9242292 0 0.3818381 0.9242292 0 -0.9235254 -0.3835373 2.1781e-7 0.3818742 -0.9242144 -1.55833e-7 -0.923562 0.3834491 1.73115e-7 0.9235622 -0.3834487 0.5997838 -0.7389993 0.3068215 0.599784 0.7389993 -0.3068209 0.6000673 -0.3054801 0.7393249 0.5997835 0.7389704 0.3068917 0.6000735 -0.3054494 -0.7393324 0.6000735 0.3054496 0.7393324 0.5997822 -0.7389715 -0.3068915 0.6000674 0.30548 -0.7393246</float_array>
          <technique_common>
            <accessor source="#shape0_007-mesh-normals-array" count="414" stride="3">
              <param name="X" type="float"/>
              <param name="Y" type="float"/>
              <param name="Z" type="float"/>
            </accessor>
          </technique_common>
        </source>
        <vertices id="shape0_007-mesh-vertices">
          <input semantic="POSITION" source="#shape0_007-mesh-positions"/>
        </vertices>
        <polylist material="Material_002-material" count="414">
          <input semantic="VERTEX" source="#shape0_007-mesh-vertices" offset="0"/>
          <input semantic="NORMAL" source="#shape0_007-mesh-normals" offset="1"/>
          <vcount>3 3 3 3 3 3 3 3 3 3 3 3 3 3 3 3 3 3 3 3 3 3 3 3 3 3 3 3 3 3 3 3 3 3 3 3 3 3 3 3 3 3 3 3 3 3 3 3 3 3 3 3 3 3 3 3 3 3 3 3 3 3 3 3 3 3 3 3 3 3 3 3 3 3 3 3 3 3 3 3 3 3 3 3 3 3 3 3 3 3 3 3 3 3 3 3 3 3 3 3 3 3 3 3 3 3 3 3 3 3 3 3 3 3 3 3 3 3 3 3 3 3 3 3 3 3 3 3 3 3 3 3 3 3 3 3 3 3 3 3 3 3 3 3 3 3 3 3 3 3 3 3 3 3 3 3 3 3 3 3 3 3 3 3 3 3 3 3 3 3 3 3 3 3 3 3 3 3 3 3 3 3 3 3 3 3 3 3 3 3 3 3 3 3 3 3 3 3 3 3 3 3 3 3 3 3 3 3 3 3 3 3 3 3 3 3 3 3 3 3 3 3 3 3 3 3 3 3 3 3 3 3 3 3 3 3 3 3 3 3 3 3 3 3 3 3 3 3 3 3 3 3 3 3 3 3 3 3 3 3 3 3 3 3 3 3 3 3 3 3 3 3 3 3 3 3 3 3 3 3 3 3 3 3 3 3 3 3 3 3 3 3 3 3 3 3 3 3 3 3 3 3 3 3 3 3 3 3 3 3 3 3 3 3 3 3 3 3 3 3 3 3 3 3 3 3 3 3 3 3 3 3 3 3 3 3 3 3 3 3 3 3 3 3 3 3 3 3 3 3 3 3 3 3 3 3 3 3 3 3 3 3 3 3 3 3 3 3 3 3 3 3 3 3 3 3 3 3 3 3 3 3 3 3 3 3 3 3 3 3 3 3 3 3 3 3 3 3 3 3 3 3 3 3 3 3 3 3 3 3 3 3 3 3 </vcount>
          <p>2 0 0 0 1 0 9 1 6 1 0 1 9 2 0 2 2 2 11 3 1 3 3 3 11 4 2 4 1 4 4 5 3 5 5 5 11 6 3 6 4 6 10 7 5 7 7 7 4 8 5 8 10 8 8 9 7 9 6 9 10 10 7 10 8 10 8 11 6 11 9 11 21 12 13 12 12 12 22 13 20 13 13 13 22 14 13 14 21 14 23 15 12 15 15 15 23 16 21 16 12 16 14 17 15 17 17 17 23 18 15 18 14 18 18 19 17 19 16 19 14 20 17 20 18 20 19 21 16 21 20 21 18 22 16 22 19 22 19 23 20 23 22 23 33 24 26 24 25 24 34 25 33 25 25 25 33 26 27 26 26 26 32 27 30 27 64 27 28 28 32 28 64 28 32 29 31 29 30 29 66 30 50 30 53 30 44 31 43 31 42 31 30 32 31 32 24 32 70 33 71 33 25 33 61 34 58 34 65 34 49 35 39 35 40 35 40 36 41 36 67 36 41 37 44 37 47 37 52 38 64 38 45 38 127 39 129 39 70 39 30 40 38 40 68 40 128 41 126 41 49 41 60 42 59 42 61 42 25 43 37 43 30 43 46 44 43 44 35 44 63 45 54 45 62 45 62 46 56 46 57 46 57 47 55 47 60 47 27 48 29 48 26 48 26 49 29 49 64 49 26 50 64 50 53 50 29 51 28 51 64 51 34 52 25 52 24 52 30 53 24 53 25 53 121 54 118 54 66 54 120 55 119 55 51 55 45 56 66 56 53 56 77 57 76 57 85 57 71 58 69 58 37 58 26 59 50 59 25 59 36 60 64 60 68 60 124 61 118 61 74 61 125 62 128 62 73 62 127 63 125 63 48 63 119 64 124 64 65 64 74 65 61 65 65 65 61 66 74 66 60 66 60 67 74 67 57 67 74 68 62 68 57 68 74 69 63 69 62 69 48 70 73 70 46 70 46 71 73 71 42 71 73 72 47 72 42 72 73 73 67 73 47 73 73 74 49 74 67 74 72 75 70 75 75 75 75 76 36 76 72 76 78 77 90 77 92 77 89 78 91 78 87 78 80 79 79 79 84 79 88 80 80 80 86 80 90 81 91 81 81 81 102 82 96 82 106 82 94 83 95 83 93 83 95 84 78 84 92 84 79 85 77 85 84 85 76 86 94 86 82 86 96 87 97 87 115 87 98 88 99 88 103 88 43 89 79 89 80 89 101 90 109 90 107 90 58 91 102 91 51 91 114 92 112 92 111 92 112 93 98 93 111 93 102 94 58 94 96 94 100 95 101 95 108 95 76 96 41 96 40 96 104 97 99 97 110 97 94 98 40 98 39 98 109 99 102 99 107 99 79 100 43 100 77 100 77 101 44 101 76 101 97 102 114 102 113 102 114 103 56 103 112 103 96 104 59 104 55 104 97 105 55 105 56 105 116 106 105 106 115 106 110 107 116 107 117 107 117 108 113 108 111 108 117 109 115 109 113 109 117 110 111 110 103 110 117 111 103 111 104 111 116 112 110 112 108 112 116 113 108 113 107 113 106 114 116 114 107 114 105 115 116 115 106 115 122 116 85 116 123 116 89 117 122 117 81 117 123 118 83 118 82 118 93 119 123 119 82 119 92 120 123 120 93 120 123 121 92 121 81 121 122 122 89 122 87 122 122 123 87 123 86 123 122 124 86 124 84 124 85 125 122 125 84 125 45 126 100 126 99 126 54 127 63 127 121 127 45 128 36 128 120 128 127 129 10 129 8 129 9 130 125 130 127 130 68 131 69 131 128 131 48 132 35 132 127 132 10 133 70 133 4 133 121 134 99 134 98 134 10 135 127 135 70 135 121 136 66 136 99 136 121 137 98 137 112 137 45 138 120 138 100 138 120 139 101 139 100 139 101 140 120 140 109 140 90 141 69 141 91 141 90 142 126 142 69 142 129 143 91 143 71 143 126 144 90 144 78 144 126 145 78 145 95 145 91 146 129 146 88 146 88 147 129 147 80 147 72 148 4 148 70 148 72 149 11 149 4 149 11 150 72 150 68 150 128 151 2 151 68 151 125 152 9 152 128 152 22 153 118 153 19 153 118 154 22 154 21 154 118 155 21 155 50 155 23 156 50 156 21 156 23 157 75 157 50 157 75 158 23 158 14 158 18 159 36 159 14 159 18 160 119 160 36 160 119 161 18 161 19 161 0 162 6 162 134 162 3 163 1 163 132 163 7 164 5 164 135 164 1 165 0 165 131 165 6 166 7 166 135 166 5 167 3 167 132 167 131 168 130 168 137 168 130 169 134 169 136 169 133 170 132 170 138 170 132 171 131 171 140 171 134 172 135 172 139 172 135 173 133 173 141 173 15 174 12 174 137 174 17 175 15 175 137 175 13 176 20 176 141 176 12 177 13 177 140 177 16 178 17 178 139 178 20 179 16 179 141 179 34 180 24 180 149 180 33 181 148 181 27 181 34 182 149 182 33 182 31 183 146 183 24 183 27 184 143 184 29 184 28 185 144 185 32 185 32 186 147 186 31 186 28 187 29 187 144 187 144 188 145 188 152 188 149 189 157 189 148 189 146 190 154 190 142 190 148 191 156 191 151 191 147 192 155 192 154 192 143 193 151 193 145 193 144 194 152 194 147 194 149 195 142 195 157 195 152 196 160 196 155 196 157 197 150 197 158 197 152 198 153 198 161 198 157 199 165 199 156 199 154 200 162 200 150 200 156 201 164 201 159 201 155 202 163 202 162 202 151 203 159 203 153 203 163 204 171 204 162 204 159 205 167 205 161 205 160 206 168 206 171 206 165 207 158 207 173 207 160 208 161 208 168 208 165 209 173 209 164 209 162 210 170 210 158 210 164 211 172 211 167 211 173 212 181 212 180 212 170 213 178 213 174 213 172 214 180 214 167 214 171 215 179 215 170 215 167 216 175 216 177 216 168 217 176 217 179 217 173 218 166 218 181 218 168 219 169 219 176 219 181 220 174 220 182 220 176 221 177 221 185 221 181 222 189 222 180 222 178 223 186 223 174 223 180 224 188 224 183 224 179 225 187 225 186 225 175 226 183 226 177 226 176 227 184 227 179 227 183 228 191 228 185 228 184 229 192 229 195 229 189 230 182 230 197 230 184 231 185 231 192 231 189 232 197 232 188 232 186 233 194 233 182 233 188 234 196 234 191 234 187 235 195 235 186 235 196 236 204 236 191 236 195 237 203 237 194 237 191 238 199 238 201 238 192 239 200 239 203 239 197 240 190 240 205 240 192 241 193 241 200 241 197 242 205 242 204 242 194 243 202 243 198 243 200 244 201 244 206 244 205 245 206 245 204 245 202 246 206 246 198 246 204 247 206 247 199 247 203 248 206 248 202 248 199 249 206 249 201 249 200 250 206 250 203 250 205 251 198 251 206 251 50 252 26 252 53 252 43 253 46 253 42 253 71 254 37 254 25 254 58 255 51 255 65 255 67 256 49 256 40 256 41 257 47 257 67 257 44 258 42 258 47 258 64 259 36 259 45 259 129 260 71 260 70 260 38 261 69 261 68 261 126 262 39 262 49 262 59 263 58 263 61 263 37 264 38 264 30 264 48 265 46 265 35 265 54 266 56 266 62 266 56 267 55 267 57 267 55 268 59 268 60 268 64 269 52 269 53 269 118 270 50 270 66 270 119 271 65 271 51 271 52 272 45 272 53 272 76 273 83 273 85 273 69 274 38 274 37 274 50 275 70 275 25 275 64 276 30 276 68 276 118 277 63 277 74 277 128 278 49 278 73 278 125 279 73 279 48 279 124 280 74 280 65 280 70 281 50 281 75 281 36 282 68 282 72 282 90 283 81 283 92 283 91 284 88 284 87 284 86 285 80 285 84 285 87 286 88 286 86 286 91 287 89 287 81 287 96 288 105 288 106 288 82 289 94 289 93 289 93 290 95 290 92 290 77 291 85 291 84 291 83 292 76 292 82 292 105 293 96 293 115 293 99 294 104 294 103 294 35 295 43 295 80 295 108 296 101 296 107 296 102 297 109 297 51 297 113 298 114 298 111 298 98 299 103 299 111 299 58 300 59 300 96 300 110 301 100 301 108 301 94 302 76 302 40 302 99 303 100 303 110 303 95 304 94 304 39 304 102 305 106 305 107 305 43 306 44 306 77 306 44 307 41 307 76 307 115 308 97 308 113 308 56 309 54 309 112 309 97 310 96 310 55 310 114 311 97 311 56 311 117 312 116 312 115 312 104 313 110 313 117 313 85 314 83 314 123 314 122 315 123 315 81 315 66 316 45 316 99 316 63 317 118 317 121 317 36 318 119 318 120 318 8 319 9 319 127 319 69 320 126 320 128 320 35 321 129 321 127 321 54 322 121 322 112 322 120 323 51 323 109 323 69 324 71 324 91 324 39 325 126 325 95 325 129 326 35 326 80 326 2 327 11 327 68 327 9 328 2 328 128 328 118 329 124 329 19 329 36 330 75 330 14 330 124 331 119 331 19 331 130 332 0 332 134 332 1 333 131 333 132 333 5 334 133 334 135 334 0 335 130 335 131 335 134 336 6 336 135 336 133 337 5 337 132 337 130 338 136 338 137 338 134 339 139 339 136 339 132 340 140 340 138 340 131 341 137 341 140 341 135 342 141 342 139 342 133 343 138 343 141 343 12 344 140 344 137 344 136 345 17 345 137 345 138 346 13 346 141 346 13 347 138 347 140 347 17 348 136 348 139 348 16 349 139 349 141 349 24 350 142 350 149 350 148 351 143 351 27 351 149 352 148 352 33 352 146 353 142 353 24 353 143 354 145 354 29 354 144 355 147 355 32 355 147 356 146 356 31 356 29 357 145 357 144 357 145 358 153 358 152 358 157 359 156 359 148 359 154 360 150 360 142 360 143 361 148 361 151 361 146 362 147 362 154 362 151 363 153 363 145 363 152 364 155 364 147 364 142 365 150 365 157 365 160 366 163 366 155 366 165 367 157 367 158 367 160 368 152 368 161 368 165 369 164 369 156 369 162 370 158 370 150 370 151 371 156 371 159 371 154 372 155 372 162 372 159 373 161 373 153 373 171 374 170 374 162 374 167 375 169 375 161 375 163 376 160 376 171 376 158 377 166 377 173 377 161 378 169 378 168 378 173 379 172 379 164 379 170 380 166 380 158 380 159 381 164 381 167 381 172 382 173 382 180 382 166 383 170 383 174 383 180 384 175 384 167 384 179 385 178 385 170 385 169 386 167 386 177 386 171 387 168 387 179 387 166 388 174 388 181 388 169 389 177 389 176 389 189 390 181 390 182 390 184 391 176 391 185 391 189 392 188 392 180 392 186 393 182 393 174 393 175 394 180 394 183 394 178 395 179 395 186 395 183 396 185 396 177 396 184 397 187 397 179 397 191 398 193 398 185 398 187 399 184 399 195 399 182 400 190 400 197 400 185 401 193 401 192 401 197 402 196 402 188 402 194 403 190 403 182 403 183 404 188 404 191 404 195 405 194 405 186 405 204 406 199 406 191 406 203 407 202 407 194 407 193 408 191 408 201 408 195 409 192 409 203 409 190 410 198 410 205 410 193 411 201 411 200 411 196 412 197 412 204 412 190 413 194 413 198 413</p>
        </polylist>
      </mesh>
      <extra><technique profile="MAYA"><double_sided>1</double_sided></technique></extra>
    </geometry>
  </library_geometries>
  <library_controllers/>
  <library_visual_scenes>
    <visual_scene id="Scene" name="Scene">
      <node id="node_004" name="node_004" type="NODE">
        <matrix sid="transform">1 0 0 0 0 1 0 0 0 0 1 0 0 0 0 1</matrix>
        <instance_geometry url="#shape0_007-mesh">
          <bind_material>
            <technique_common>
              <instance_material symbol="Material_002-material" target="#Material_002-material"/>
            </technique_common>
          </bind_material>
        </instance_geometry>
      </node>
    </visual_scene>
  </library_visual_scenes>
  <scene>
    <instance_visual_scene url="#Scene"/>
  </scene>
</COLLADA>
