<?xml version="1.0" encoding="UTF-8"?>
<COLLADA xmlns="http://www.collada.org/2005/11/COLLADASchema" version="1.4.1">
    <asset>
        <contributor>
            <author>VCGLab</author>
            <authoring_tool>VCGLib | MeshLab</authoring_tool>
        </contributor>
        <up_axis>Y_UP</up_axis>
        <created>Mon Feb 18 15:33:50 2013</created>
        <modified>Mon Feb 18 15:33:50 2013</modified>
    </asset>
    <library_images/>
    <library_materials/>
    <library_effects/>
    <library_geometries>
        <geometry id="shape0-lib" name="shape0">
            <mesh>
                <source id="shape0-lib-positions" name="position">
                    <float_array id="shape0-lib-positions-array" count="636">73.9238 -23 -22 49.9591 -23 -22 49.9591 -23 -30 49.9591 -3.06084 -21.0383 49.9591 23 -30 73.9238 23 -30 73.9238 23 -22 73.9238 -23 -30 49.9591 23 -22 49.9591 -6.34672 -21.0383 49.9591 23 30 73.9238 -23 30 73.9238 23 30 49.9591 -23 30 49.9591 -6.34672 21.0383 73.9238 23 22 73.9238 -23 22 49.9591 23 22 49.9591 -23 22 49.9591 -3.06084 21.0383 25.9944 23 -30 25.9944 -23 -30 25.9944 -23 -22 49.9591 23 -30 49.9591 -23 -30 25.9944 23 -22 49.9591 23 -22 44.7535 -0.703781 0 49.9591 -23 -22 49.9495 -7.70394 -6 44.7535 -8.70378 0 40.7535 -4.70292 0 48.7535 -4.70465 0 48.2105 -6.71596 0 48.2114 -2.69308 0 41.2956 -6.71448 0 41.2964 -2.6916 0 49.9495 -1.70362 -6 25.9944 23 30 49.9591 -23 30 49.9591 23 30 25.9944 -23 30 25.9944 -23 22 49.9591 23 22 25.9944 23 22 44.7535 -0.703781 0 49.9591 -23 22 49.9495 -7.70394 6 44.7535 -8.70378 0 40.7535 -4.70292 0 48.7535 -4.70465 0 48.2105 -6.71596 0 48.2114 -2.69308 0 41.2956 -6.71448 0 41.2964 -2.6916 0 49.9495 -1.70362 6 121.853 23 30 122 -23 30 122 23 30 122 23 -30 145.818 14.2567 4.66297 145.818 -8.74591 12.1863 145.818 -8.75137 -12.1824 145.818 8.74591 -12.1863 145.818 -14.2546 4.66931 145.818 8.75137 12.1824 145.818 -14.2567 -4.66297 145.818 14.2546 -4.66931 145.818 0 -15 145.818 0 15 121.853 23 -30 121.853 -23 -30 121.853 -23 30 122 -23 -30 7.2895 12.6258 0 -4.72732 -8.24028 0 -13.1973 18.8369 0 -19.9186 11.5 0 2.5163 22.8619 0 25.9944 23 22 8.22054 -4.76155 0 25.9944 23 30 25.9944 -23 30 -21.935 -6.91769 22 -21.8741 7.10665 30 25.9944 -23 22 0 -23 22 -13.6001 -18.5482 22 -13.52 -18.6065 30 -13.52 18.6065 30 -16.9894 12.3435 35.5 -6.48936 19.9722 35.5 -21 0 35.5 -4.76093 8.22083 35.9 -16.9894 -12.3435 35.5 -6.48936 -19.9722 35.5 0 23 30 21 0 35.5 16.9894 12.3435 35.5 16.9894 -12.3435 35.5 -21.8741 -7.10665 30 4.72786 -8.23997 0 6.48936 19.9722 35.5 6.48936 -19.9722 35.5 0 -23 30 -5.94686 22.2179 0 -19.9186 11.5 0 0 -9.5 0 2.5163 22.8619 0 9.5 0.000313091 0 25.9944 -23 -22 25.9944 -23 -30 25.9944 23 -30 25.9944 23 -22 21 0 -35.5 0 -23 -22 -16.9894 12.3435 -35.5 -6.48936 19.9722 -35.5 -8.23944 -4.72857 -35.9 -21 0 -35.5 -9.72054 20.8449 0 -13.6001 -18.5482 -22 -13.52 -18.6065 -30 -21.935 -6.91769 -22 -16.9894 -12.3435 -35.5 -6.48936 -19.9722 -35.5 -21.8741 7.10665 -30 -13.52 18.6065 -30 -7.82922 -5.26728 0 0 23 -30 16.9894 -12.3435 -35.5 16.9894 12.3435 -35.5 -21.8741 -7.10665 -30 6.48936 -19.9722 -35.5 6.48936 19.9722 -35.5 0 -23 -30 8.22054 -4.76155 0 7.2895 12.6258 0 121.853 -23 0 121.853 23 -30 121.853 23 0 73.9238 23 -30 73.9238 -23 -30 121.853 -23 -30 92 23 0 101 -23 0 73.9238 -23 -22 73.9238 23 -22 92.0007 16.4997 0 121.853 -23 30 73.9238 -23 30 101 -23 0 121.853 23 30 73.9238 23 30 92 23 0 121.853 23 0 121.853 -23 0 73.9238 -23 22 73.9238 23 22 92.0007 16.4997 0 289.606 0 -15 289.606 -14.2634 4.64058 289.606 14.2638 4.63936 289.606 0 15 347.836 -9.48486 -16.4283 357.739 0 -11.6739 357.739 -11.6739 0 347.836 -9.48486 16.4283 357.739 0 11.6739 347.836 9.48486 -16.4283 312 18 -8.7178 347.836 18.9697 0 307 0 -20 307 -11.7557 -16.1804 347.836 9.48486 16.4283 328 0 20 307 11.7557 16.1804 307 -11.7557 16.1804 357.739 11.6739 0 289.606 14.2634 -4.64058 289.606 -14.2638 -4.63936 347.836 -16.4283 -9.48486 347.836 -16.4283 9.48486 333 -20 0 307 19.0211 6.18035 361.5 0 0 307 11.7557 -16.1804 307 -19.0211 -6.18035 307 -19.0211 6.18035 307 0 20 289.606 8.80575 12.1429 289.606 -8.80575 -12.1429 289.606 -14.2638 -4.63936 289.606 0 -15 289.606 0 15 145.818 14.2567 4.66297 145.818 0 -15 145.818 -14.2546 4.66931 289.606 14.2638 4.63936 145.818 0 15 145.818 14.2546 -4.66931 145.818 -14.2567 -4.66297 289.606 -14.2634 4.64058 289.606 14.2634 -4.64058 289.606 8.80575 12.1429 289.606 -8.80575 -12.1429 289.606 -8.8047 12.1436 289.606 8.8047 -12.1436 145.818 8.75137 12.1824 145.818 -8.75137 -12.1824 145.818 -8.74591 12.1863 145.818 8.74591 -12.1863</float_array>
                    <technique_common>
                        <accessor count="212" source="#shape0-lib-positions-array" stride="3">
                            <param name="X" type="float"/>
                            <param name="Y" type="float"/>
                            <param name="Z" type="float"/>
                        </accessor>
                    </technique_common>
                </source>
                <source id="shape0-lib-normals" name="normal">
                    <float_array id="shape0-lib-normals-array" count="1140">0 -1 0 -1 0 0 -1 0 0 0 0 -1 0 1 0 0.0400976 0 0.999196 1 0 0 0 -1 0 0 0 -1 1 0 0 -1 0 0 0 0.036877 0.99932 0 1 0 0.0400976 0 0.999196 -1 0 0 0 -0.0576523 0.998337 0 0 1 -1 0 0 0 0 1 1 0 0 0 1 0 0.0400976 0 -0.999196 1 0 0 0 -1 0 -1 0 0 0 1 0 -1 0 0 0 -0.0576523 -0.998337 0 -1 0 0.0400976 0 -0.999196 -1 0 0 0 0.036877 -0.99932 -1 0 0 0 0 -1 0 0 -1 0 -1 0 0 1 0 -1 0 0 0 1 0 0 0.680274 0.732958 1 0 0 1 0 0 1 0 0.000597715 0 -0.838509 0.544887 0 -1 0 -0.830436 0 0.557114 0 0 1 0 0 1 0.892251 -0.326119 0.312304 0.918772 -0.248045 0.307135 0.41196 -0.716435 0.563036 0 0 1 0.343575 0.597219 0.724766 0 0 1 0.902405 0.243191 0.355702 -0.354645 -0.616461 0.702995 0 0 1 -0.730559 -0.19688 0.653852 -0.295417 0.513773 0.80546 -0.690972 0.186508 0.698407 0 0 1 1 0 0.000597715 0.943641 0.179665 0.277962 0.980706 0 0.195487 0 0 1 0 0 1 -1 0 0 0 -1 0 1 0 0 0 1 0 0 1 0 -1 0 0 0 0.680274 -0.732958 1 0 0 1 0 -0.000597715 0 -1 0 0 -0.838509 -0.544887 0 0 -1 -0.830436 0 -0.557114 0 0 -1 0.41196 -0.716435 -0.563036 0 0 -1 0.892251 -0.326119 -0.312304 0.918772 -0.248045 -0.307135 0.343575 0.597219 -0.724766 0.902405 0.243191 -0.355702 0 0 -1 -0.354645 -0.616461 -0.702995 -0.730559 -0.19688 -0.653852 0 0 -1 -0.295417 0.513773 -0.80546 0 0 -1 -0.690972 0.186508 -0.698407 1 0 -0.000597715 0.980706 0 -0.195487 0.943641 0.179665 -0.277962 0 0 1 0 1 0 0.344607 0.938747 0 1 0 0 1 0 0 1 0 0 0.678968 -0.592179 0.433967 0.678889 0.592432 0.433745 1 0 0 1 0 0 0.344871 -0.93865 0.000205943 0.344871 0.93865 -0.000205943 1 0 0 0.678968 0.592179 -0.433967 0.667011 0.228175 -0.709248 1 0 0 1 0 0 0.667079 0.228316 0.709139 0.532905 0 0.846175 0.667011 -0.228175 0.709248 -1 0 0 0 1 0 0 0 -1 -1 0 0 0 -1 0 0 0 1 0.667079 -0.228316 -0.709139 0 0 -1 0.532905 0 -0.846175 0 -1 0 0.344607 -0.938747 0 0.678889 -0.592432 -0.433745 0 0 -1 0 0 -1 0.650588 0.303376 -0.696203 0 0 -1 0.751791 0.0402563 -0.658172 0 0 -1 1 0 0 -0.997501 0.0382281 -0.0594221 0 -1 0 0 -0.830426 -0.55713 1 0 0 0.777862 0 -0.628435 -0.67795 -0.521722 -0.517871 -0.708545 -0.507772 -0.490032 -0.270182 -0.825398 -0.495701 -0.311091 -0.950373 -0.00381108 -0.737361 0.675493 -0.00274377 -0.808602 0.587412 0.0333161 -0.514922 0.708732 0.482239 -0.799024 0.580453 0.156954 -0.83318 0.270713 0.482209 -0.0223268 0.0307303 0.999278 -0.0294671 0.00957433 0.99952 -0.0211475 -0.00687116 0.999753 -0.00986716 -0.013581 0.999859 -0.514922 -0.708732 0.482239 -0.305224 0.939259 0.156941 0 0.876028 0.482261 -0.00145424 0.999988 -0.00472524 0 1 0 0.0173208 0.00562781 0.999834 0.0140672 -0.00457065 0.999891 0.400193 -0.130029 0.90716 0.740317 0 0.672258 0.400193 0.130029 0.90716 -0.799024 -0.580453 0.156954 -0.83318 -0.270713 0.482209 -0.812804 -0.582488 -0.00757094 -0.809046 -0.587733 0.00381737 -0.987605 0 0.156957 -0.999971 0 0.00761225 0 0 -1 0.46132 -0.463213 -0.756715 2.75561e-05 -0.830408 -0.557156 0.21607 0.297396 0.929983 0 0.876028 0.482261 0 0.034019 0.999421 0.0145809 0.020069 0.999692 0 -0.0141865 0.999899 0.00799053 -0.0109981 0.999908 0 -0.876028 0.482261 0.21607 -0.297396 0.929983 0 -1 0 0 -0.876028 0.482261 -0.309054 -0.951044 0 -0.305224 -0.939259 0.156941 -0.422624 0.906302 0.00241438 -0.308849 0.950413 0.0364454 0 0 -1 -0.0758707 0.997057 -0.0109536 0 0 1 0 0 1 1 0 0 0.800098 0 0.599869 1 0 0 0.740317 0 -0.672258 0 -1 0 0 -0.852323 0.523016 -0.0124013 0.0170689 -0.999777 -0.027966 0.0090866 -0.999568 0 0 1 -0.311091 -0.950373 0.00381108 -0.268733 -0.82097 0.503777 -0.708545 -0.507772 0.490032 -0.0356125 -0.0115711 -0.999299 -0.0207868 -0.0286106 -0.999374 -0.514922 -0.708732 -0.482239 -0.83318 0.270713 -0.482209 -0.997501 0.0382281 0.0594221 -0.799024 0.580453 -0.156954 -0.808602 0.587412 -0.0333161 -0.675279 0.73693 0.0305384 -0.514922 0.708732 -0.482239 0 0 1 -0.705967 -0.50901 0.492462 -0.397691 -0.735604 0.548388 -0.305224 0.939259 -0.156941 -0.308898 0.950563 -0.0318032 -0.162609 0.986523 0.0181804 -0.00145424 0.999988 0.00472524 0 1 0 0 0.876028 -0.482261 0.0144372 -0.00469089 -0.999885 0.400193 -0.130029 -0.90716 0.400193 0.130029 -0.90716 0.012996 0.00422262 -0.999907 -0.999971 0 -0.00761225 -0.987605 0 -0.156957 -0.83318 -0.270713 -0.482209 -0.799024 -0.580453 -0.156954 -0.809046 -0.587733 -0.00381737 -0.812804 -0.582488 0.00757094 0 -0.876028 -0.482261 0.21607 -0.297396 -0.929983 0 -0.0262315 -0.999656 0.0111994 -0.0154147 -0.999818 0 0.0161918 -0.999869 0.0082083 0.0112978 -0.999902 0 0.876028 -0.482261 0.21607 0.297396 -0.929983 0 -0.876028 -0.482261 0 -1 0 -0.305224 -0.939259 -0.156941 -0.309054 -0.951044 0 0 0 1 0.332322 -0.576532 0.74644 0.684477 -0.183911 0.705456 0 0 1 0.725336 0.126993 0.67658 0.650588 0.303376 0.696203 1 0 0 0 1 0 0 0 -1 0 -1 0 0 0 -1 1 0 0 0 1 0 0 0 1 0 -1 0 0 0 1 0 -1 0 -1 0 0 0 1 0 -1 0 0 -0.772643 0 0.63484 0 0 1 -0.772563 -7.79813e-05 0.634938 -0.624193 -0.142212 0.768218 0 -1 0 0 0 1 0 0 1 0 1 0 0 0 -1 0 1 0 1 0 0 0 -1 0 0 0 -1 1 0 0 -1 0 0 0 -1 0 0 1 0 -0.772643 0 -0.63484 -1 0 0 0 0 -1 -0.624193 -0.142212 -0.768218 -0.772563 -7.79813e-05 -0.634938 -1 0 0 -1 0 0 0.712948 -0.495835 -0.495835 0.712948 -0.495835 0.495835 0.09773 0.861881 -0.497605 0.432802 0 -0.901489 0.0871318 0 -0.996197 0.0114096 -0.308993 -0.950996 0.177212 0 0.984173 0.432802 0 0.901489 0.0125769 0.329239 0.944163 -0.411933 -0.535478 0.737275 0.0125769 -0.329239 0.944163 0.537871 0.730084 0.421512 0.712948 0.495835 0.495835 0.712948 0.495835 -0.495835 0.537871 0.730084 -0.421512 -1 0 0 -1 0 0 0.0350073 -0.706673 -0.706673 0.712948 -0.495835 -0.495835 0.234058 -0.972223 0 0.432802 -0.901489 0 0.0350073 -0.706673 0.706673 0.712948 -0.495835 0.495835 -0.186042 0.974011 -0.129195 -0.263809 0.964575 -4.10385e-05 0.0765374 0.863486 0.498532 0.0413849 0.808326 0.587278 -0.263669 0.780391 0.566982 -0.00957701 0.997389 -0.0715739 0.909998 0.293175 -0.293175 0.909998 0.293175 0.293175 0.909998 -0.293175 0.293175 0.909998 -0.293175 -0.293175 -0.411933 0.535478 -0.737275 -0.232412 0.816926 -0.527842 0.037931 0.753727 -0.656092 0.0114096 0.308993 -0.950996 -0.263708 0.298074 -0.917393 0.00380281 -0.809014 -0.587778 0.0360105 -0.952513 -0.30236 -0.263669 -0.780391 -0.566982 -0.263809 -0.964575 4.10385e-05 -0.263833 -0.964568 0 -0.0376234 -0.999292 0 0.0360105 -0.952513 0.30236 0.00380281 -0.809014 0.587778 -0.263648 -0.780395 0.566986 -0.263708 -0.298074 0.917393 0 -0.309013 0.951058 0 0.309013 0.951058 -0.263741 0.297697 0.917506 -0.263513 0.298091 0.917444 -1 0 0 -0.263984 0.780001 0.567372 -0.263984 -0.780001 -0.567372 -1 0 0 -0.263741 -0.297697 -0.917506 -0.263513 -0.298091 -0.917444 1 0 0 -1 0 0 1 0 0 -1 0 0 -1 0 0 -1 0 0 -6.11078e-05 -1 0.000219404 -4.96645e-05 -1 4.25457e-05 1 0 0 1 0 0 -4.96645e-05 1 -4.25457e-05 -6.11078e-05 1 -0.000219404 1 0 0 5.64494e-05 0.808687 0.588239 1 0 0 5.64494e-05 -0.808687 -0.588239 6.81029e-05 -0.808636 0.588309 1 0 0 6.81029e-05 0.808636 -0.588309 1 0 0 0 0.306469 0.951881 0.000144799 0.308624 0.951184 -1 0 0 -0.00014274 0.806863 0.590738 -1 0 0 -0.00014274 -0.806863 -0.590738 0 -0.306469 -0.951881 0.000144799 -0.308624 -0.951184 -1 0 0 -0.000154234 -0.806598 0.5911 0 -0.306255 0.951949 0.000156343 -0.308584 0.951197 -1 0 0 -0.000154234 0.806598 -0.5911 0 0.306255 -0.951949 0.000156343 0.308584 -0.951197</float_array>
                    <technique_common>
                        <accessor count="380" source="#shape0-lib-normals-array" stride="3">
                            <param name="X" type="float"/>
                            <param name="Y" type="float"/>
                            <param name="Z" type="float"/>
                        </accessor>
                    </technique_common>
                </source>
                <vertices id="shape0-lib-vertices">
                    <input semantic="POSITION" source="#shape0-lib-positions"/>
                </vertices>
                <triangles count="380">
                    <input offset="0" semantic="VERTEX" source="#shape0-lib-vertices"/>
                    <input offset="1" semantic="NORMAL" source="#shape0-lib-normals"/>
                    <p>0 0 1 0 2 0 3 1 2 1 1 1 4 2 2 2 3 2 4 3 5 3 2 3 6 4 5 4 4 4 6 5 3 5 0 5 6 6 0 6 5 6 7 7 0 7 2 7 7 8 2 8 5 8 7 9 5 9 0 9 8 10 4 10 3 10 8 11 3 11 6 11 8 12 6 12 4 12 9 13 0 13 3 13 9 14 3 14 1 14 9 15 1 15 0 15 10 16 11 16 12 16 13 17 10 17 14 17 13 18 11 18 10 18 15 19 12 19 11 19 15 20 10 20 12 20 16 21 14 21 15 21 16 22 15 22 11 22 16 23 11 23 13 23 17 24 14 24 10 24 17 25 10 25 15 25 18 26 13 26 14 26 18 27 14 27 16 27 18 28 16 28 13 28 19 29 15 29 14 29 19 30 14 30 17 30 19 31 17 31 15 31 20 32 21 32 22 32 23 33 21 33 20 33 24 34 21 34 23 34 24 35 22 35 21 35 25 36 23 36 20 36 25 37 20 37 22 37 26 38 23 38 25 38 26 39 25 39 27 39 26 40 24 40 23 40 28 41 24 41 26 41 28 42 26 42 29 42 28 43 30 43 22 43 28 44 22 44 24 44 31 45 25 45 22 45 31 46 30 46 27 46 32 47 27 47 30 47 33 48 28 48 29 48 33 49 29 49 32 49 33 50 30 50 28 50 33 51 32 51 30 51 34 52 26 52 27 52 34 53 27 53 32 53 34 54 32 54 26 54 35 55 22 55 30 55 35 56 30 56 31 56 35 57 31 57 22 57 36 58 27 58 25 58 36 59 25 59 31 59 36 60 31 60 27 60 37 61 29 61 26 61 37 62 26 62 32 62 37 63 32 63 29 63 38 64 39 64 40 64 41 65 39 65 38 65 41 66 38 66 42 66 41 67 42 67 39 67 43 68 40 68 39 68 43 69 38 69 40 69 44 70 38 70 43 70 44 71 42 71 38 71 45 72 44 72 43 72 46 73 43 73 39 73 46 74 47 74 43 74 46 75 39 75 42 75 46 76 42 76 48 76 49 77 45 77 48 77 49 78 42 78 44 78 50 79 48 79 45 79 51 80 46 80 48 80 51 81 48 81 50 81 51 82 47 82 46 82 51 83 50 83 47 83 52 84 45 84 43 84 52 85 43 85 50 85 52 86 50 86 45 86 53 87 48 87 42 87 53 88 42 88 49 88 53 89 49 89 48 89 54 90 44 90 45 90 54 91 45 91 49 91 54 92 49 92 44 92 55 93 43 93 47 93 55 94 47 94 50 94 55 95 50 95 43 95 56 96 57 96 58 96 59 97 56 97 58 97 60 98 59 98 58 98 61 99 62 99 60 99 63 100 60 100 62 100 64 101 62 101 61 101 64 102 61 102 57 102 65 103 60 103 58 103 65 104 61 104 60 104 66 105 62 105 64 105 66 106 64 106 57 106 67 107 59 107 60 107 67 108 60 108 63 108 67 109 63 109 59 109 68 110 59 110 63 110 68 111 63 111 62 111 69 112 61 112 65 112 69 113 65 113 58 113 69 114 58 114 57 114 69 115 57 115 61 115 70 116 71 116 56 116 70 117 56 117 59 117 70 118 59 118 71 118 72 119 56 119 71 119 72 120 71 120 57 120 72 121 57 121 56 121 73 122 68 122 62 122 73 123 71 123 59 123 73 124 59 124 68 124 73 125 57 125 71 125 73 126 66 126 57 126 73 127 62 127 66 127 74 128 75 128 76 128 77 129 76 129 75 129 78 130 79 130 74 130 78 131 74 131 76 131 80 132 74 132 79 132 80 133 75 133 74 133 81 134 82 134 79 134 83 135 84 135 77 135 85 136 82 136 86 136 85 137 86 137 75 137 85 138 79 138 82 138 85 139 80 139 79 139 87 140 77 140 75 140 87 141 83 141 77 141 87 142 75 142 86 142 87 143 86 143 88 143 89 144 76 144 77 144 89 145 77 145 84 145 90 146 91 146 89 146 90 147 89 147 84 147 90 148 84 148 92 148 90 149 93 149 91 149 90 150 92 150 93 150 94 151 93 151 92 151 94 152 95 152 93 152 94 153 88 153 95 153 96 154 89 154 91 154 96 155 91 155 81 155 96 156 79 156 78 156 96 157 81 157 79 157 97 158 98 158 93 158 97 159 93 159 99 159 97 160 99 160 82 160 97 161 82 161 81 161 97 162 81 162 98 162 100 163 88 163 94 163 100 164 94 164 92 164 100 165 83 165 87 165 100 166 87 166 88 166 100 167 92 167 84 167 100 168 84 168 83 168 101 169 75 169 80 169 101 170 80 170 85 170 101 171 85 171 75 171 102 172 98 172 81 172 102 173 81 173 91 173 102 174 91 174 93 174 102 175 93 175 98 175 103 176 93 176 95 176 103 177 99 177 93 177 103 178 95 178 82 178 103 179 82 179 99 179 104 180 86 180 82 180 104 181 82 181 95 181 104 182 88 182 86 182 104 183 95 183 88 183 105 184 76 184 89 184 105 185 89 185 96 185 105 186 78 186 76 186 105 187 96 187 78 187 106 188 107 188 108 188 109 189 108 189 107 189 110 190 111 190 112 190 113 191 109 191 110 191 113 192 110 192 112 192 114 193 112 193 111 193 115 194 111 194 110 194 115 195 110 195 107 195 116 196 117 196 118 196 116 197 118 197 119 197 120 198 106 198 108 198 121 199 122 199 115 199 121 200 115 200 107 200 121 201 106 201 123 201 124 202 119 202 118 202 124 203 118 203 125 203 124 204 125 204 122 204 126 205 116 205 119 205 126 206 123 206 106 206 127 207 116 207 126 207 127 208 126 208 106 208 127 209 106 209 120 209 127 210 117 210 116 210 128 211 107 211 106 211 128 212 106 212 121 212 128 213 121 213 107 213 129 214 117 214 127 214 129 215 127 215 120 215 129 216 120 216 108 216 129 217 108 217 113 217 129 218 113 218 112 218 129 219 112 219 117 219 130 220 118 220 114 220 130 221 114 221 111 221 131 222 112 222 114 222 131 223 114 223 118 223 132 224 123 224 126 224 132 225 126 225 119 225 132 226 119 226 124 226 132 227 124 227 122 227 132 228 122 228 121 228 132 229 121 229 123 229 133 230 111 230 125 230 133 231 130 231 111 231 133 232 125 232 118 232 133 233 118 233 130 233 134 234 118 234 117 234 134 235 131 235 118 235 134 236 117 236 112 236 134 237 112 237 131 237 135 238 125 238 111 238 135 239 111 239 115 239 135 240 122 240 125 240 135 241 115 241 122 241 136 242 109 242 107 242 136 243 107 243 110 243 136 244 110 244 109 244 137 245 108 245 109 245 137 246 109 246 113 246 137 247 113 247 108 247 138 248 139 248 140 248 141 249 140 249 139 249 141 250 139 250 142 250 143 251 138 251 142 251 143 252 142 252 139 252 143 253 139 253 138 253 144 254 140 254 141 254 144 255 138 255 140 255 145 256 142 256 138 256 145 257 138 257 144 257 146 258 142 258 145 258 146 259 141 259 142 259 147 260 144 260 141 260 147 261 141 261 146 261 147 262 146 262 144 262 148 263 145 263 144 263 148 264 144 264 146 264 148 265 146 265 145 265 149 266 150 266 151 266 150 267 149 267 152 267 153 268 150 268 152 268 153 269 152 269 154 269 155 270 151 270 154 270 155 271 154 271 152 271 155 272 152 272 149 272 156 273 149 273 151 273 156 274 151 274 155 274 156 275 155 275 149 275 157 276 150 276 153 276 157 277 151 277 150 277 158 278 153 278 154 278 158 279 154 279 157 279 158 280 157 280 153 280 159 281 154 281 151 281 159 282 151 282 157 282 159 283 157 283 154 283 160 284 161 284 162 284 163 285 162 285 161 285 164 286 165 286 166 286 167 287 166 287 168 287 169 288 170 288 171 288 169 289 165 289 164 289 169 290 164 290 172 290 173 291 172 291 164 291 174 292 175 292 167 292 174 293 167 293 168 293 176 294 175 294 174 294 177 295 163 295 161 295 177 296 167 296 175 296 178 297 171 297 174 297 178 298 174 298 168 298 178 299 165 299 169 299 178 300 169 300 171 300 179 301 160 301 162 301 180 302 161 302 160 302 181 303 173 303 164 303 181 304 164 304 166 304 182 305 183 305 181 305 182 306 181 306 166 306 182 307 167 307 177 307 182 308 166 308 167 308 184 309 170 309 179 309 184 310 179 310 162 310 184 311 174 311 171 311 184 312 176 312 174 312 184 313 162 313 176 313 184 314 171 314 170 314 185 315 165 315 178 315 185 316 178 316 168 316 185 317 168 317 166 317 185 318 166 318 165 318 186 319 160 319 179 319 186 320 179 320 170 320 186 321 170 321 169 321 186 322 169 322 172 322 186 323 172 323 160 323 187 324 173 324 181 324 187 325 181 325 183 325 187 326 180 326 173 326 187 327 161 327 180 327 188 328 161 328 187 328 188 329 187 329 183 329 188 330 183 330 182 330 188 331 182 331 177 331 188 332 177 332 161 332 189 333 163 333 177 333 189 334 177 334 175 334 189 335 175 335 176 335 190 336 163 336 189 336 190 337 189 337 176 337 190 338 162 338 163 338 190 339 176 339 162 339 191 340 173 340 180 340 191 341 180 341 160 341 191 342 160 342 172 342 191 343 172 343 173 343 192 344 193 344 194 344 195 345 196 345 197 345 198 346 194 346 193 346 199 347 195 347 197 347 200 348 196 348 195 348 201 349 197 349 196 349 202 350 197 350 201 350 202 351 201 351 192 351 202 352 192 352 194 352 203 353 198 353 193 353 203 354 195 354 198 354 203 355 200 355 195 355 204 356 194 356 198 356 204 357 198 357 195 357 205 358 193 358 192 358 205 359 192 359 201 359 206 360 197 360 202 360 206 361 202 361 194 361 207 362 200 362 203 362 207 363 203 363 193 363 208 364 199 364 194 364 208 365 194 365 204 365 208 366 195 366 199 366 208 367 204 367 195 367 209 368 201 368 196 368 209 369 205 369 201 369 209 370 196 370 193 370 209 371 193 371 205 371 210 372 199 372 197 372 210 373 197 373 206 373 210 374 194 374 199 374 210 375 206 375 194 375 211 376 196 376 200 376 211 377 200 377 207 377 211 378 193 378 196 378 211 379 207 379 193 379</p>
                </triangles>
            </mesh>
        </geometry>
    </library_geometries>
    <library_visual_scenes>
        <visual_scene id="VisualSceneNode" name="VisualScene">
            <node id="node" name="node">
                <instance_geometry url="#shape0-lib">
                    <bind_material>
                        <technique_common/>
                    </bind_material>
                </instance_geometry>
            </node>
        </visual_scene>
    </library_visual_scenes>
    <scene>
        <instance_visual_scene url="#VisualSceneNode"/>
    </scene>
</COLLADA>
