<?xml version="1.0" encoding="UTF-8"?>
<COLLADA xmlns="http://www.collada.org/2005/11/COLLADASchema" version="1.4.1">
    <asset>
        <contributor>
            <author>VCGLab</author>
            <authoring_tool>VCGLib | MeshLab</authoring_tool>
        </contributor>
        <up_axis>Y_UP</up_axis>
        <created>Mon Feb 18 15:33:26 2013</created>
        <modified>Mon Feb 18 15:33:26 2013</modified>
    </asset>
    <library_images/>
    <library_materials/>
    <library_effects/>
    <library_geometries>
        <geometry id="shape0-lib" name="shape0">
            <mesh>
                <source id="shape0-lib-positions" name="position">
                    <float_array id="shape0-lib-positions-array" count="1059">125.663 -1.5 31 125.663 25 24 125.663 25 39 77.4874 23 39 77.2157 -1.5 39 125.663 -1.5 39 77.2157 -1.5 31 92.4649 25 24 77.4874 23 31 92.4649 23 24 125.663 15 25 92.4649 25 39 76.1115 -1.5 33.9092 92.4649 15 25 76.1115 -1.5 36.0908 125.663 23 24 77.2628 19 31 77.2628 19 39 125.663 -1.5 -31 125.663 25 -39 125.663 25 -24 77.4874 23 -39 80.2157 -1.5 -39 125.663 -1.5 -39 77.4874 23 -31 76.3298 2.38595 -31 80.2157 -1.5 -31 76.3298 2.38595 -39 76.1115 -1.5 -36 92.4649 25 -24 92.4649 23 -24 125.663 15 -25 92.4649 25 -39 92.4649 15 -25 76.1115 -1.5 -34 125.663 23 -24 125.663 -1.5 -39 125.663 -25 -39 74.7918 -25 -39 125.663 -23 -11.6374 80.2157 -1.5 -39 80.2157 -1.5 -31 125.663 -1.5 -31 76.1115 -1.5 -34 74.7918 -25 -21.3618 125.663 -25 -11.6374 99 -28 -25.55 76.1115 -1.5 -36 99 -28 -30.45 74.9041 -23 -21.3508 75.1287 -19 -39 96.55 -28 -28 101.45 -28 -28 74.7918 -25 39 125.663 -25 39 125.663 -1.5 39 125.663 -25 11.6374 77.2157 -1.5 39 77.2157 -1.5 31 125.663 -1.5 31 99 -28 25.55 74.7918 -25 21.3618 125.663 -23 11.6374 76.1115 -1.5 33.9092 99 -28 30.45 76.0458 -2.66988 39 76.0458 -2.66988 31 74.9041 -23 21.3508 76.1115 -1.5 36.0908 96.55 -28 28 101.45 -28 28 273.363 -14.3633 -39 273.363 -25 -39 223.545 -25 -39 223.545 -25 0 223.545 0 -34 273.363 0 -34 273.363 -25 -18.0157 259 0 -39 223.545 0 -36 239 -25 0 239 -23 0 273.363 0 -36 253.343 0 -31 223.545 -23 0 273.363 -23 -18.0157 223.545 -19 -39 259 0 -31 253.343 0 -39 223.545 0 34 223.545 -25 0 223.545 -25 39 273.363 -25 39 259 0 39 273.363 0 36 273.363 -23 18.0157 223.545 -8.20181 39 259 0 31 273.363 -25 18.0157 239 -23 0 239 -25 0 223.545 0 36 223.545 -23 0 273.363 0 34 273.363 -19 39 253.343 0 39 256.171 0 31 323.182 -25 39 323.182 -14 0 323.182 -1.5 39 296 -1.5 0 299 -14 0 273.363 -1.5 36 273.363 -25 18.0157 273.363 -25 39 279 -28 30.45 323.182 -25 21.5 323.182 -1.5 24.5 282 -1.5 39 296 -11 0 279 -28 25.55 276.55 -28 28 273.363 -1.5 34 273.363 -19 39 273.363 -23 18.0157 281.45 -28 28 323.182 -1.5 -39 323.182 -25 -39 273.363 -25 -39 323.182 -14 0 273.363 -1.5 -36 296 -1.5 0 273.363 -25 -18.0157 323.182 -1.5 -18.5 299 -14 0 323.182 -25 -21.5 279 -28 -30.45 282 -1.5 -39 273.363 -14.3633 -39 296 -11 0 279 -28 -25.55 276.55 -28 -28 273.363 -1.5 -34 273.363 -23 -18.0157 281.45 -28 -28 323.182 -14 0 337.086 -18.3942 0 331.877 1.5 0 323.182 25 -39 373 0 -39 323.182 -25 -39 361.497 -19.9193 -39 323.182 1.5 0 361.497 19.9193 -39 344.017 -10.1332 0 369.919 -11.4967 -31 369.919 11.4967 -31 361.497 19.9193 -31 323.182 -25 -21.5 332.465 25 -31.05 323.182 25 -31.05 324.5 -18 0 369.919 -11.4967 -39 369.919 11.4967 -39 373 0 -31 361.497 -19.9193 -31 332.5 -25 -21.5 350 -23 -39 350 23 -39 350 23 -31 334 -25 -37.5 350 -23 -31 332.465 25 -39 342.994 -7.82772 0 332.5 -25 -39 334 -25 -23 323.182 25 39 361.497 -19.9193 39 361.497 19.9193 39 323.182 -25 39 323.182 1.5 0 344.017 -10.1332 0 324.5 -18 0 373 0 39 361.497 19.9193 31 350 23 31 337.086 -18.3942 0 369.919 -11.4967 31 373 0 31 323.182 25 31.05 323.182 -25 21.5 334 -25 23 369.919 11.4967 31 369.919 -11.4967 39 369.919 11.4967 39 331.877 1.5 0 361.497 -19.9193 31 350 -23 39 350 23 39 323.182 -14 0 334 -25 37.5 332.465 25 31.05 332.465 25 39 350 -23 31 342.994 -7.82772 0 332.5 -25 39 332.5 -25 21.5 139 -25 0 223.545 -23 0 161.865 -1.5 0 125.663 -1.5 -39 223.545 -19 -39 125.663 -25 -39 223.545 -1.5 -34 125.663 -25 -11.6374 213.843 -1.5 -39 125.663 -1.5 -31 223.545 -25 -39 219 -28 -30.45 175.865 -1.5 0 156.55 -28 -28 223.545 -25 0 223.545 -1.5 -36 221.45 -28 -28 139 -23 0 125.663 -23 -11.6374 159 -28 -30.45 159 -28 -25.55 219 -28 -25.55 125.663 -25 39 223.545 -25 39 216.843 -1.5 39 161.865 -1.5 0 223.545 -23 0 139 -25 0 125.663 -1.5 31 125.663 -25 11.6374 125.663 -1.5 39 223.545 -1.5 36 175.865 -1.5 0 156.55 -28 28 223.545 -25 0 219 -28 25.55 223.545 -8.20181 39 221.45 -28 28 139 -23 0 125.663 -23 11.6374 223.545 -1.5 34 159 -28 30.45 219 -28 30.45 159 -28 25.55 -19.0679 -12.8614 39 74.7918 -25 39 37.3832 51.3298 39 48.457 -2.01217 0 34.8582 47.0102 0 77.4874 23 31 11.0244 -2.90241 0 74.7918 -25 21.3618 77.4874 23 39 -21.3252 8.61595 39 0 -23 39 25.8003 51.6734 39 25.8003 51.6734 31 -14.7841 17.619 31 -19.0679 -12.8614 31 -22.874 -2.40415 31 11.871 15.1825 0 31.4 51 4 26.2041 48.0002 4 45.5 -25 21.5 0 -23 31 -10.7978 -20.3078 39 27.943 47.0122 0 -22.874 -2.40415 39 -10.7978 -20.3078 31 -21.3252 8.61595 31 31.6535 53.7063 31 -14.7841 17.619 39 31.6535 53.7063 39 31.4 49 0 45 -4 0 19.6879 46.5445 21.5 11.0244 -2.90241 0 45 -4 0 31.4 49 0 74.7918 -25 -39 -10.7978 -20.3078 -39 77.4874 23 -39 25.8003 51.6734 -39 74.9041 -23 -21.3508 -21.3252 8.61595 -39 77.4874 23 -31 37.3832 51.3298 -39 45.5 -25 -21.5 -19.0679 -12.8614 -39 -19.0679 -12.8614 -31 -10.7978 -20.3078 -31 11.871 15.1825 0 48.4582 2.01023 0 -22.874 -2.40415 -31 -21.3252 8.61595 -31 -22.874 -2.40415 -39 -14.7841 17.619 -39 2.83491 32.4031 -21.5 31.6535 53.7063 -39 31.6535 53.7063 -31 0 -23 -39 74.7918 -25 -21.3618 19.6879 46.5445 -21.5 34.8582 47.0102 0 27.943 47.0122 0 0 -23 -31 -14.7841 17.619 -31 36.5959 48.0002 -4 323.182 -1.5 39 323.182 1.5 0 323.182 25 39 125.663 -1.5 39 161.865 -1.5 0 125.663 25 39 125.663 25 24 137.465 11 0 285.865 13 0 285.865 25 22.5 323.182 25 31.05 125.663 -1.5 31 296 -1.5 0 137.465 13 0 323.182 -1.5 24.5 137.465 23.9749 20.0251 125.663 15 25 137.465 25 22.5 285.865 23.9749 20.0251 323.182 25 -39 323.182 -1.5 -39 125.663 -1.5 -39 323.182 1.5 0 125.663 25 -39 161.865 -1.5 0 137.465 13 0 285.865 13 0 137.465 25 -22.5 125.663 25 -24 285.865 25 -22.5 323.182 25 -31.05 125.663 -1.5 -31 296 -1.5 0 323.182 -1.5 -18.5 137.465 11 0 125.663 15 -25 285.865 23.9749 -20.0251 137.465 23.9749 -20.0251</float_array>
                    <technique_common>
                        <accessor count="353" source="#shape0-lib-positions-array" stride="3">
                            <param name="X" type="float"/>
                            <param name="Y" type="float"/>
                            <param name="Z" type="float"/>
                        </accessor>
                    </technique_common>
                </source>
                <source id="shape0-lib-normals" name="normal">
                    <float_array id="shape0-lib-normals-array" count="1926">1 0 0 0 0 1 1 0 0 0 0 1 0 -1 0 0 -1 0 -0.132359 0.991202 0 0 0 -1 -0.417186 0 -0.908821 0 1 0 0 -0.341743 -0.939793 1 0 0 0 0 1 0 1 0 -0.132359 0.991202 0 -0.998427 0.0560705 0 0 -1 0 -0.248199 -0.120154 -0.961229 0 -0.124035 -0.992278 0 -0.341743 -0.939793 -0.998427 0.0560705 0 0 -1 0 0 0 -1 1 0 0 0 -0.124035 -0.992278 -0.934922 0.00214717 -0.354848 -0.998427 0.0560697 -6.87326e-06 -0.425906 0.023918 -0.904451 -0.418565 0.00096129 -0.908186 0 0 1 -0.998427 0.0560697 6.87326e-06 -0.934922 0.00214717 0.354848 1 0 0 0 0 -1 0 -1 0 0 0 -1 1 0 0 -0.998427 0.0560705 0 0 -1 0 0 0 -1 -0.998427 0.0560705 0 -0.998427 0.0560707 0 -0.508224 -0.508224 -0.695281 0 -1 0 0 0 1 -0.132359 0.991202 0 -0.397995 0 0.917387 -0.425906 0.0239184 0.904451 0 1 0 0 -0.341743 0.939793 1 0 0 0 0 -1 -0.132359 0.991202 0 0 1 0 0 -0.341743 0.939793 0 -0.124035 0.992278 -0.262482 -0.119686 0.957485 -0.200165 -0.200165 0.959097 -0.508224 -0.508224 0.695281 -0.998427 0.0560707 0 0 -1 0 0 0 1 0 -0.124035 0.992278 1 0 0 0 0 -1 1 0 0 0 0 -1 0 1 0 1 0 0 0 1 0 0 0.669205 0.743078 0 1 0 -0.998427 0.0560705 0 -0.187757 0 0.982216 -0.0614661 -0.944896 0.321548 1 0 0 -0.998427 0.0560705 0 0 1 0 0 -0.9436 -0.331088 -0.526099 0.452992 0.719735 -0.998427 0.0560716 2.08807e-06 -0.168962 0.438011 0.882948 -0.187949 0.00512253 0.982165 0 0 -1 -0.998427 0.0560716 -8.88696e-06 -0.581623 0.169068 -0.795695 -0.0908216 -0.991717 -0.0908214 0 -1 0 -0.136587 -0.990628 0 -0.104487 -0.989022 0.104487 0 -1 0 0.0845838 -0.99282 -0.0845837 0.12296 -0.992412 0 0.073535 -0.994578 0.0735349 0 0 1 1 0 0 0 0 1 0 1 0 1 0 0 0 1 0 -0.0614661 -0.944896 -0.321548 0 0.669205 -0.743078 1 0 0 -0.187757 0 -0.982216 0 1 0 -0.998427 0.0560705 0 0 -0.9436 0.331088 0 0 1 -0.998427 0.0560706 4.35727e-07 -0.998427 0.056071 -9.22616e-07 -0.682939 0.682939 -0.259208 -0.998427 0.0560716 -2.37929e-06 -0.409805 0.409805 -0.814935 -0.170686 0.418664 -0.891957 -0.187949 0.00512253 -0.982165 0 1 0 -0.998427 0.0560687 0 -0.682939 0.682939 0.259208 0 -1 0 -0.0908216 -0.991717 0.0908214 -0.136587 -0.990628 0 -0.104487 -0.989022 -0.104487 0.0845838 -0.99282 0.0845837 0 -1 0 0.12296 -0.992412 0 0.073535 -0.994578 -0.0735349 0 0 -1 -1 0 0 0 -1 0 1 0 0 1 0 0 0 -1 0 0 1 0 0 0 -1 -1 0 0 0 1 0 0 0 1 0 -1 0 0.464329 0 0.885663 1 0 0 0.200308 0.20031 -0.959037 0 1 0 0 1 0 0 0.803098 0.595847 -0.056321 0.826969 0.55942 -1 0 0 0 0 1 0.395428 0.524173 0.754241 0.464329 0 0.885663 1 0 0 0 0 -1 -1 0 0 0.134719 0.752209 0.645005 0 1 0 0 0.803098 0.595847 0 1 0 0 0 -1 -0.0989575 0.155197 -0.982915 -1 0 0 0 0 1 0 -1 0 1 0 0 0 1 0 0 0 1 -1 0 0 0 1 0 0.464329 0 -0.885663 1 0 0 0 -1 0 0 0 -1 0.464329 0 -0.885663 0 -1 0 0 1 0 -1 0 0 0 0.803098 -0.595847 -1 0 0 0 0 -1 0.134718 0.75221 -0.645005 0 1 0 1 0 0 0.395428 0.524173 -0.754241 0 0 1 1 0 0 0.202052 0.152746 0.96739 0 0 1 0 1 0 -0.0941313 0.341989 0.934977 0 1 0 0 0.803098 -0.595847 -0.051452 0.827186 -0.559567 1 0 0 0 0 -1 0 1 0 0 -0.853485 -0.521118 -1 0 0 0 -0.9436 0.331088 0 0 1 0.0318395 -0.889797 -0.455245 1 0 0 1 0 0 0.379063 0.824285 -0.420554 0 1 0 0 1 0 0 0 1 0 0 -1 -0.403715 -0.403715 -0.820992 -0.62272 0 -0.782445 0.0270819 -0.921589 -0.387221 -0.216803 -0.951837 -0.216804 0 -1 0 -0.202599 -0.958075 0.2026 -0.685455 -0.728115 0 0 1 0 -1 0 0 -1 0 0 0 0 1 -0.323903 0.159855 0.932487 -0.62272 0 -0.782445 -1 0 0 -0.769623 0.380949 -0.512404 0 -1 0 0.0619606 -0.996153 -0.0619608 0.0567085 -0.996779 0.0567088 0.0717029 -0.997426 0 0 0 -1 1 0 0 0 1 0 -1 0 0 1 0 0 0 1 0 0.356069 0.774283 0.523164 0 0 1 0 -0.853485 0.521118 1 0 0 0.0318395 -0.889797 0.455245 0 -0.9436 -0.331088 0 0 -1 0 1 0 -1 0 0 -0.320439 0.21515 -0.922513 0 0 -1 -0.62272 0 0.782445 -0.403715 -0.403715 0.820992 0 0 1 0.0270819 -0.921589 0.387221 0 -1 0 -0.216803 -0.951837 0.216804 -0.685455 -0.728115 0 -0.202599 -0.958075 -0.2026 0 1 0 -1 0 0 -0.62272 0 0.782445 -0.769623 0.380949 0.512404 -1 0 0 0.0619606 -0.996153 0.0619608 0 -1 0 0.0717029 -0.997426 0 0.0567085 -0.996779 -0.0567088 0 0 1 0 0 -1 -1 0 0 0 0 -1 0 0 1 -1 0 0 0 0 -1 0 0 1 0.636917 -0.534375 0.555679 0.707132 0.707081 0 -1 0 0 0 0.797373 0.603487 -1 0 0 0 0.797373 0.603487 0 1 0 0 0 1 -0.937794 -0.309087 0.158138 -0.0297517 -0.949912 0.311098 0 0 -1 0.965916 -0.258855 0 0.707132 -0.707081 0 0 0 -1 0.707132 0.707081 0 0.965916 0.258855 0 0.965916 -0.258855 0 0.965916 0.258855 0 0.747478 -0.200316 0.633365 0.687225 0.184169 0.702712 0.707132 -0.707081 0 0.6086 -0.608556 0.509182 0 -0.955899 0.293697 0 -1 0 0 0 -1 0.258826 -0.965924 0 0 0 -1 0.258826 0.965924 0 0.258826 0.965924 0 0.113323 0.993558 0 0.200021 0.746468 0.634647 0.0887779 0.793415 0.602172 0 -1 0 0.124035 -0.992278 0 0.258826 -0.965924 0 0.251019 -0.936789 0.243752 0.237213 -0.941669 0.238726 0 1 0 0.113323 0.993558 0 0 0 -1 0.631411 0.280176 0.723064 0.486473 0.486438 0.725756 0.439032 0.523247 0.730386 0 0 1 0 0 -1 0.112822 -0.987189 -0.112822 0 -1 0 0 -1 0 0.124035 -0.992278 0 0.235702 -0.942809 0.235702 0 0 1 0 0 1 -1 0 0 0 0 -1 0 0 1 0.258826 0.965924 0 0 0 -1 0.747478 -0.200316 -0.633365 0.636917 -0.534375 -0.555679 0.965916 -0.258855 0 -1 0 0 -0.0297517 -0.949912 -0.311098 0 -1 0 -1 0 0 0.707132 0.707081 0 0.687225 0.184169 -0.702712 0.965916 0.258855 0 0 0 1 0.707132 -0.707081 0 0.965916 -0.258855 0 0 0 1 0.965916 0.258855 0 0.707132 0.707081 0 0 0.797373 -0.603487 0.200021 0.746468 -0.634647 0 0 -1 0.6086 -0.608556 -0.509182 0.707132 -0.707081 0 0.258826 -0.965924 0 0 0 1 0 0 1 0.258826 0.965924 0 0 0 -1 -0.937794 -0.309087 -0.158138 -1 0 0 0 -1 0 0.124035 -0.992278 0 0.113323 0.993558 0 0.0887779 0.793415 -0.602172 0 0.797373 -0.603487 0 1 0 0 0 1 0.113323 0.993558 0 0 1 0 0.258826 -0.965924 0 0.124035 -0.992278 0 0.251019 -0.936789 -0.243752 0 0 -1 0.439032 0.523247 -0.730386 0.486473 0.486438 -0.725756 0.631411 0.280176 -0.723064 0 0 1 0 -1 0 0.112822 -0.987189 0.112822 0.237213 -0.941669 -0.238726 0.235702 -0.942809 -0.235702 0 -1 0 0 -0.955899 -0.293697 0 0 1 0 0 -1 0 1 0 1 0 0 -1 0 0 0 0 -1 0 1 0 0 1 0 -1 0 0 1 0 0 0 -0.9436 -0.331088 0 0 -1 0 0 1 0.35613 0.789779 0.499419 0 1 0 -0.0966737 -0.995316 0 1 0 0 0 0 1 1 0 0 0.291532 0.161624 -0.942808 0 1 0 0.217944 -0.951316 -0.217943 0.819885 -0.572528 0 0 -1 0 -0.657469 0 0.753481 0 0 1 -0.534922 0.568884 0.624683 -1 0 0 -0.657469 0 0.753481 -0.544039 0.561503 0.623487 0 -0.9436 -0.331088 0 -1 0 -0.0712569 -0.99491 -0.0712568 0 -1 0 0 -0.993177 0.116616 -0.060616 -0.995741 0.0694679 -0.0632384 -0.995993 0.0632383 0.0987087 -0.990209 0.0987086 0 -0.993177 0.116616 0 -1 0 0 0 1 0 0 -1 0 1 0 -1 0 0 0 0 1 0 1 0 -1 0 0 0 1 0 1 0 0 0 0 -1 0 1 0 -0.0966737 -0.995316 0 1 0 0 0 0 -1 0 -0.993177 -0.116616 0 0 1 1 0 0 0.378217 0.378223 0.844926 0.0987087 -0.990209 -0.0987086 0.819885 -0.572528 0 0 -1 0 -0.657469 0 -0.753481 -0.534922 0.568884 -0.624683 0 0 -1 -1 0 0 -0.544039 0.561503 -0.623487 -0.657469 0 -0.753481 1 0 0 0.35613 0.789779 -0.499419 0 1 0 0 -1 0 0 -0.9436 0.331088 -0.0712569 -0.99491 0.0712568 0.217944 -0.951316 0.217943 0 -0.9436 0.331088 0 -1 0 0 -0.993177 -0.116616 0 -1 0 -0.060616 -0.995741 -0.0694679 -0.0632384 -0.995993 -0.0632383 0 0 1 0.642399 0.178201 -0.745364 0 0 -1 0.998427 -0.0560705 0 0.681096 0.107188 -0.724306 0 0 1 0.998427 -0.0560705 0 0.576968 0.816767 0 0 0 1 0 0 1 0 0 1 -0.642788 0.766044 0 -0.939693 -0.342018 0 -0.657177 -0.239191 -0.714777 0 0 -1 -0.674265 0.0315627 -0.737814 -0.496114 0.85931 -0.124324 0.560017 0.821993 -0.10348 0.602527 0.761564 -0.238708 -0.0267046 -0.998644 0.0446987 -0.0439136 -0.999035 0 -0.155489 -0.802731 -0.575714 0 -1 0 -0.669129 -0.743146 0 -0.241922 -0.970296 0 0 0 1 -0.459117 0.795228 -0.396011 -0.703624 0.555502 -0.443092 0 0 -1 -0.939693 -0.342018 0 0 0 1 -0.990268 0.139176 0 -0.241922 -0.970296 0 -0.669129 -0.743146 0 -0.196786 -0.789263 -0.581669 -0.500265 -0.555603 -0.664109 -0.706551 0.513339 -0.487103 -0.676659 0.341671 -0.652222 -0.689477 0.0969014 -0.717796 -0.990268 0.139176 0 -0.809017 0.587785 0 0.487927 0.868066 -0.0915902 -0.326721 0.940708 -0.0912227 -0.328089 0.944647 0 -0.809017 0.587785 0 0 0 1 -0.642788 0.766044 0 0 0 1 0.383121 0.923698 0 -0.328089 0.944647 0 0.457598 0.795288 -0.397644 0 0 -1 -0.45736 0.795398 -0.397699 -0.00329609 -0.715411 -0.698696 -0.0231129 -0.715454 -0.698278 0 0 -1 0.270559 -0.470524 -0.839884 -0.642788 0.766044 1.38301e-06 -0.518908 0.845957 -0.122848 -0.661137 0.726918 -0.18571 0 0 1 0 0 -1 0 0 -1 0.998427 -0.0560705 -1.25883e-07 0 0 -1 0.998427 -0.0560705 0 0.576968 0.816767 0 0 0 -1 -0.0231129 -0.715454 0.698278 0 0 -1 -0.669129 -0.743146 0 -0.500265 -0.555603 0.664109 -0.669129 -0.743146 0 0 0 1 0.686285 0.112203 0.718626 0 0 1 -0.674265 0.0315627 0.737814 -0.689477 0.0969014 0.717796 -0.939693 -0.342018 0 -0.657177 -0.239191 0.714777 -0.990268 0.139176 0 0 0 -1 -0.939693 -0.342018 0 -0.990268 0.139176 0 -0.809017 0.587785 0 0 0 -1 -0.642788 0.766044 1.08722e-06 0 0 -1 -0.328089 0.944647 0 0.383121 0.923698 0 -0.241922 -0.970296 0 0 0 -1 -0.0267046 -0.998644 -0.0446987 0.60547 -0.0384002 0.794941 0.439641 -0.252963 0.861815 -0.00329609 -0.715411 0.698696 0.998427 -0.0560716 0 0 -1 0 -0.429754 0.893232 0.132093 -0.44924 0.887433 0.103179 -0.642789 0.766043 -1.41739e-06 0 0 1 0.646393 0.195354 0.737572 -0.491218 0.854281 0.170024 -0.626414 0.746528 0.224277 -0.676659 0.341671 0.652222 0 0 1 -0.241922 -0.970296 0 -0.0439136 -0.999035 0 -0.155489 -0.802731 0.575714 -0.196786 -0.789263 0.581669 -0.706551 0.513339 0.487103 -0.704021 0.551519 0.447416 -0.642788 0.766045 0 -0.809017 0.587785 0 0.562431 0.821839 0.0908343 0.661431 0.608808 0.438022 0.294015 0.944613 0.145812 0.457964 0.795926 0.395943 0.48999 0.866702 0.0934726 1 0 0 0 -1 0 0 0 1 0 0 1 0 1 0 -1 0 0 0 0 -1 0 0 -1 0 1 0 0 1 0 1 0 0 0.23863 0.774337 -0.586052 -1 0 0 0 -1 0 -0.402452 -0.785587 -0.469985 0 -1 0 0 0 -1 -0.897371 0 -0.441277 0 0 -1 1 0 0 0 -1 0 0.108899 -0.986683 -0.120818 0 0.876934 -0.48061 -0.0853879 0.873732 -0.478855 -0.906082 -0.0421002 -0.421002 -0.903383 -0.146551 -0.403016 -1 0 0 0 1 0 0 0.923884 -0.382672 -0.0485796 0.922794 -0.38222 0 0.876934 -0.48061 0 0.923884 -0.382672 0.0873428 0.920353 -0.381209 0.117092 0.870902 -0.477304 0 0 -1 1 0 0 0 0 -1 0 0 1 0 -1 0 0 0 1 0 1 0 0 1 0 -1 0 0 0 1 0 0 1 0 1 0 0 0.23863 0.774337 0.586052 -1 0 0 0 -1 0 0 0 1 0 -1 0 1 0 0 0.108305 -0.981299 0.15913 0 -1 0 0 0 1 -0.402452 -0.785587 0.469985 -0.897371 0 0.441277 -1 0 0 -0.903383 -0.146551 0.403016 -0.906082 -0.0421002 0.421002 0.117092 0.870902 0.477304 0.0873428 0.920353 0.381209 0 0.923884 0.382672 0 0.876934 0.48061 0 0.876934 0.48061 0 0.923884 0.382672 -0.0485796 0.922794 0.38222 -0.0853879 0.873732 0.478855</float_array>
                    <technique_common>
                        <accessor count="642" source="#shape0-lib-normals-array" stride="3">
                            <param name="X" type="float"/>
                            <param name="Y" type="float"/>
                            <param name="Z" type="float"/>
                        </accessor>
                    </technique_common>
                </source>
                <vertices id="shape0-lib-vertices">
                    <input semantic="POSITION" source="#shape0-lib-positions"/>
                </vertices>
                <triangles count="642">
                    <input offset="0" semantic="VERTEX" source="#shape0-lib-vertices"/>
                    <input offset="1" semantic="NORMAL" source="#shape0-lib-normals"/>
                    <p>0 0 1 0 2 0 3 1 4 1 2 1 5 2 0 2 2 2 5 3 2 3 4 3 5 4 4 4 0 4 6 5 0 5 4 5 7 6 8 6 3 6 7 7 1 7 9 7 7 8 9 8 6 8 7 9 2 9 1 9 10 10 0 10 6 10 10 11 1 11 0 11 11 12 3 12 2 12 11 13 2 13 7 13 11 14 7 14 3 14 12 15 3 15 8 15 12 16 6 16 4 16 13 17 6 17 9 17 13 18 9 18 10 18 13 19 10 19 6 19 14 20 3 20 12 20 14 21 12 21 4 21 15 22 9 22 1 22 15 23 1 23 10 23 15 24 10 24 9 24 16 25 6 25 12 25 16 26 12 26 8 26 16 27 8 27 7 27 16 28 7 28 6 28 17 29 4 29 3 29 17 30 3 30 14 30 17 31 14 31 4 31 18 32 19 32 20 32 21 33 19 33 22 33 23 34 18 34 22 34 23 35 22 35 19 35 23 36 19 36 18 36 24 37 21 37 25 37 26 38 22 38 18 38 27 39 21 39 22 39 27 40 25 40 21 40 28 41 25 41 27 41 28 42 27 42 22 42 28 43 22 43 26 43 29 44 30 44 20 44 29 45 21 45 24 45 29 46 25 46 30 46 29 47 24 47 25 47 29 48 20 48 19 48 31 49 26 49 18 49 31 50 18 50 20 50 32 51 19 51 21 51 32 52 21 52 29 52 32 53 29 53 19 53 33 54 26 54 31 54 33 55 31 55 30 55 33 56 30 56 25 56 33 57 25 57 26 57 34 58 26 58 25 58 34 59 25 59 28 59 34 60 28 60 26 60 35 61 20 61 30 61 35 62 30 62 31 62 35 63 31 63 20 63 36 64 37 64 38 64 37 65 36 65 39 65 40 66 36 66 38 66 40 67 41 67 36 67 42 68 39 68 36 68 42 69 36 69 41 69 42 70 41 70 39 70 43 71 41 71 40 71 43 72 38 72 44 72 45 73 39 73 44 73 45 74 44 74 46 74 45 75 37 75 39 75 47 76 38 76 43 76 47 77 43 77 40 77 48 78 38 78 37 78 49 79 41 79 43 79 49 80 43 80 44 80 49 81 39 81 41 81 49 82 44 82 39 82 50 83 40 83 38 83 50 84 38 84 47 84 50 85 47 85 40 85 51 86 38 86 48 86 51 87 48 87 46 87 51 88 44 88 38 88 51 89 46 89 44 89 52 90 46 90 48 90 52 91 48 91 37 91 52 92 37 92 45 92 52 93 45 93 46 93 53 94 54 94 55 94 56 95 55 95 54 95 57 96 53 96 55 96 57 97 55 97 58 97 59 98 55 98 56 98 59 99 58 99 55 99 60 100 61 100 56 100 62 101 58 101 59 101 62 102 59 102 56 102 62 103 56 103 61 103 63 104 57 104 58 104 63 105 61 105 53 105 64 106 54 106 53 106 65 107 53 107 57 107 65 108 63 108 53 108 66 109 61 109 63 109 66 110 63 110 58 110 67 111 61 111 66 111 67 112 66 112 58 112 67 113 58 113 62 113 67 114 62 114 61 114 68 115 57 115 63 115 68 116 63 116 65 116 68 117 65 117 57 117 69 118 60 118 64 118 69 119 64 119 53 119 69 120 53 120 61 120 69 121 61 121 60 121 70 122 54 122 64 122 70 123 64 123 60 123 70 124 56 124 54 124 70 125 60 125 56 125 71 126 72 126 73 126 74 127 75 127 73 127 74 128 73 128 72 128 76 129 72 129 71 129 77 130 72 130 76 130 77 131 74 131 72 131 78 132 75 132 76 132 78 133 71 133 73 133 79 134 73 134 75 134 79 135 75 135 78 135 80 136 81 136 74 136 80 137 74 137 77 137 80 138 77 138 81 138 82 139 76 139 71 139 82 140 71 140 78 140 82 141 78 141 76 141 83 142 76 142 75 142 84 143 81 143 83 143 84 144 83 144 75 144 84 145 75 145 74 145 84 146 74 146 81 146 85 147 76 147 81 147 85 148 81 148 77 148 85 149 77 149 76 149 86 150 78 150 73 150 86 151 73 151 79 151 87 152 81 152 76 152 87 153 76 153 83 153 87 154 83 154 81 154 88 155 79 155 78 155 88 156 78 156 86 156 88 157 86 157 79 157 89 158 90 158 91 158 92 159 93 159 91 159 92 160 91 160 90 160 94 161 92 161 95 161 94 162 89 162 93 162 96 163 91 163 93 163 96 164 89 164 91 164 97 165 89 165 94 165 98 166 99 166 95 166 98 167 95 167 92 167 98 168 92 168 90 168 100 169 90 169 99 169 100 170 99 170 98 170 100 171 98 171 90 171 101 172 93 172 89 172 101 173 89 173 96 173 102 174 97 174 99 174 102 175 90 175 89 175 102 176 99 176 90 176 103 177 99 177 97 177 103 178 97 178 94 178 103 179 94 179 95 179 103 180 95 180 99 180 104 181 93 181 92 181 104 182 92 182 94 182 104 183 94 183 93 183 105 184 96 184 93 184 105 185 93 185 101 185 105 186 101 186 96 186 106 187 89 187 97 187 106 188 97 188 102 188 106 189 102 189 89 189 107 190 108 190 109 190 110 191 108 191 111 191 110 192 112 192 109 192 113 193 111 193 108 193 114 194 112 194 113 194 114 195 115 195 107 195 114 196 107 196 109 196 116 197 113 197 108 197 116 198 108 198 107 198 117 199 109 199 108 199 117 200 108 200 110 200 117 201 110 201 109 201 118 202 109 202 112 202 118 203 114 203 109 203 119 204 110 204 111 204 119 205 111 205 113 205 119 206 113 206 110 206 120 207 113 207 116 207 121 208 113 208 120 208 121 209 120 209 115 209 121 210 115 210 114 210 121 211 114 211 113 211 122 212 112 212 110 212 122 213 113 213 112 213 123 214 112 214 114 214 123 215 114 215 118 215 123 216 118 216 112 216 124 217 110 217 113 217 124 218 113 218 122 218 124 219 122 219 110 219 125 220 115 220 120 220 125 221 120 221 116 221 125 222 107 222 115 222 125 223 116 223 107 223 126 224 127 224 128 224 127 225 126 225 129 225 130 226 131 226 126 226 132 227 130 227 128 227 133 228 129 228 126 228 133 229 126 229 131 229 133 230 131 230 129 230 134 231 129 231 131 231 134 232 132 232 129 232 135 233 127 233 129 233 135 234 129 234 132 234 136 235 128 235 127 235 137 236 126 236 128 236 137 237 130 237 126 237 138 238 128 238 130 238 138 239 130 239 137 239 138 240 137 240 128 240 139 241 131 241 132 241 139 242 132 242 134 242 139 243 134 243 131 243 140 244 135 244 132 244 141 245 136 245 140 245 141 246 140 246 132 246 141 247 132 247 128 247 141 248 128 248 136 248 142 249 131 249 130 249 142 250 130 250 132 250 143 251 132 251 131 251 143 252 131 252 142 252 143 253 142 253 132 253 144 254 135 254 140 254 144 255 140 255 136 255 144 256 127 256 135 256 144 257 136 257 127 257 145 258 146 258 147 258 148 259 149 259 150 259 148 260 150 260 145 260 151 261 150 261 149 261 152 262 145 262 147 262 152 263 148 263 145 263 153 264 149 264 148 264 154 265 147 265 146 265 154 266 146 266 155 266 156 267 153 267 157 267 158 268 145 268 150 268 159 269 152 269 147 269 160 270 148 270 152 270 160 271 152 271 159 271 160 272 159 272 148 272 161 273 146 273 145 273 161 274 145 274 158 274 161 275 158 275 146 275 162 276 151 276 149 276 162 277 149 277 155 277 162 278 155 278 151 278 163 279 149 279 153 279 163 280 153 280 156 280 163 281 156 281 149 281 164 282 155 282 149 282 164 283 149 283 156 283 164 284 154 284 155 284 164 285 156 285 154 285 165 286 151 286 155 286 165 287 155 287 146 287 166 288 146 288 158 288 166 289 158 289 150 289 167 290 150 290 151 290 167 291 151 291 165 291 168 292 153 292 148 292 168 293 157 293 153 293 169 294 157 294 168 294 169 295 168 295 159 295 169 296 147 296 157 296 169 297 159 297 147 297 170 298 166 298 150 298 171 299 170 299 167 299 171 300 167 300 165 300 171 301 165 301 146 301 171 302 146 302 166 302 172 303 148 303 159 303 172 304 159 304 168 304 172 305 168 305 148 305 173 306 154 306 156 306 173 307 156 307 157 307 173 308 157 308 147 308 173 309 147 309 154 309 174 310 150 310 167 310 174 311 167 311 170 311 174 312 170 312 150 312 175 313 166 313 170 313 175 314 170 314 171 314 175 315 171 315 166 315 176 316 177 316 178 316 179 317 177 317 176 317 180 318 179 318 176 318 180 319 181 319 182 319 183 320 178 320 177 320 184 321 185 321 178 321 186 322 182 322 181 322 187 323 181 323 188 323 187 324 186 324 181 324 187 325 188 325 183 325 189 326 180 326 176 326 190 327 182 327 186 327 190 328 191 328 179 328 190 329 179 329 180 329 192 330 184 330 178 330 192 331 188 331 181 331 192 332 183 332 188 332 193 333 183 333 177 333 193 334 177 334 187 334 193 335 187 335 183 335 194 336 178 336 183 336 194 337 183 337 192 337 194 338 192 338 178 338 195 339 180 339 189 339 195 340 185 340 184 340 195 341 181 341 180 341 196 342 186 342 187 342 196 343 187 343 177 343 197 344 196 344 177 344 197 345 177 345 179 345 198 346 176 346 178 346 198 347 178 347 185 347 199 348 180 348 182 348 199 349 182 349 190 349 199 350 190 350 180 350 200 351 179 351 191 351 200 352 191 352 197 352 201 353 198 353 185 353 201 354 185 354 195 354 201 355 195 355 189 355 201 356 189 356 176 356 202 357 176 357 198 357 202 358 198 358 201 358 202 359 201 359 176 359 203 360 196 360 197 360 203 361 197 361 191 361 203 362 186 362 196 362 204 363 181 363 195 363 204 364 195 364 184 364 204 365 184 365 192 365 204 366 192 366 181 366 205 367 197 367 179 367 205 368 179 368 200 368 205 369 200 369 197 369 206 370 186 370 203 370 206 371 203 371 191 371 206 372 191 372 190 372 206 373 190 373 186 373 207 374 208 374 209 374 210 375 211 375 212 375 213 376 210 376 209 376 213 377 208 377 211 377 214 378 210 378 212 378 215 379 211 379 210 379 215 380 210 380 213 380 216 381 209 381 210 381 216 382 210 382 214 382 217 383 211 383 208 383 217 384 218 384 212 384 217 385 212 385 211 385 219 386 209 386 208 386 219 387 208 387 213 387 219 388 213 388 209 388 220 389 214 389 212 389 221 390 217 390 208 390 221 391 208 391 207 391 222 392 213 392 211 392 222 393 211 393 215 393 222 394 215 394 213 394 223 395 218 395 217 395 223 396 217 396 221 396 223 397 220 397 218 397 224 398 214 398 207 398 224 399 207 399 209 399 224 400 209 400 216 400 225 401 216 401 214 401 225 402 214 402 224 402 225 403 224 403 216 403 226 404 212 404 218 404 226 405 218 405 220 405 226 406 220 406 212 406 227 407 220 407 223 407 227 408 221 408 207 408 227 409 207 409 214 409 227 410 214 410 220 410 228 411 223 411 221 411 228 412 221 412 227 412 228 413 227 413 223 413 229 414 230 414 231 414 232 415 233 415 234 415 232 416 235 416 231 416 236 417 229 417 235 417 237 418 229 418 231 418 237 419 231 419 235 419 237 420 235 420 229 420 238 421 232 421 231 421 238 422 230 422 233 422 239 423 233 423 232 423 239 424 232 424 238 424 240 425 229 425 236 425 241 426 233 426 230 426 241 427 234 427 233 427 241 428 242 428 234 428 243 429 231 429 230 429 243 430 230 430 238 430 243 431 238 431 231 431 244 432 242 432 241 432 244 433 241 433 230 433 244 434 240 434 242 434 245 435 234 435 236 435 245 436 235 436 232 436 245 437 232 437 234 437 246 438 236 438 235 438 246 439 235 439 245 439 246 440 245 440 236 440 247 441 238 441 233 441 247 442 233 442 239 442 247 443 239 443 238 443 248 444 240 444 244 444 248 445 230 445 229 445 248 446 229 446 240 446 249 447 244 447 230 447 249 448 230 448 248 448 249 449 248 449 244 449 250 450 234 450 242 450 250 451 242 451 240 451 250 452 236 452 234 452 250 453 240 453 236 453 251 454 252 454 253 454 254 455 255 455 256 455 254 456 257 456 255 456 258 457 256 457 252 457 258 458 254 458 256 458 259 459 253 459 252 459 259 460 252 460 256 460 259 461 256 461 253 461 260 462 251 462 253 462 261 463 252 463 251 463 262 464 260 464 253 464 262 465 263 465 264 465 265 466 251 466 266 466 265 467 266 467 257 467 267 468 255 468 257 468 267 469 257 469 266 469 268 470 269 470 263 470 268 471 253 471 256 471 268 472 256 472 255 472 270 473 252 473 261 473 270 474 261 474 271 474 270 475 271 475 257 475 270 476 258 476 252 476 272 477 251 477 265 477 272 478 271 478 261 478 272 479 261 479 251 479 273 480 269 480 268 480 273 481 264 481 269 481 273 482 255 482 267 482 274 483 266 483 251 483 274 484 251 484 260 484 274 485 260 485 266 485 275 486 271 486 272 486 275 487 272 487 265 487 275 488 257 488 271 488 275 489 265 489 257 489 276 490 264 490 273 490 276 491 273 491 267 491 276 492 267 492 266 492 276 493 266 493 260 493 276 494 260 494 264 494 277 495 253 495 268 495 277 496 268 496 263 496 277 497 263 497 262 497 278 498 264 498 260 498 278 499 260 499 262 499 278 500 262 500 264 500 279 501 262 501 253 501 279 502 253 502 277 502 279 503 277 503 262 503 280 504 268 504 255 504 280 505 255 505 273 505 280 506 273 506 268 506 281 507 258 507 270 507 281 508 270 508 257 508 281 509 257 509 254 509 281 510 254 510 258 510 282 511 264 511 263 511 282 512 263 512 269 512 282 513 269 513 264 513 283 514 284 514 285 514 286 515 287 515 288 515 289 516 288 516 287 516 290 517 286 517 288 517 291 518 289 518 287 518 292 519 290 519 288 519 293 520 292 520 288 520 293 521 288 521 289 521 294 522 284 522 283 522 295 523 291 523 287 523 295 524 287 524 296 524 297 525 283 525 296 525 297 526 296 526 287 526 298 527 283 527 285 527 299 528 290 528 292 528 299 529 285 529 284 529 300 530 283 530 298 530 300 531 298 531 301 531 300 532 295 532 296 532 300 533 296 533 283 533 300 534 301 534 291 534 302 535 291 535 295 535 302 536 295 536 300 536 302 537 300 537 291 537 303 538 291 538 301 538 303 539 289 539 291 539 303 540 304 540 289 540 305 541 293 541 289 541 305 542 289 542 306 542 305 543 306 543 293 543 307 544 297 544 287 544 307 545 287 545 286 545 307 546 286 546 294 546 308 547 290 547 299 547 308 548 299 548 284 548 308 549 284 549 294 549 308 550 286 550 290 550 308 551 294 551 286 551 309 552 285 552 306 552 309 553 306 553 289 553 309 554 289 554 304 554 310 555 285 555 299 555 310 556 299 556 292 556 311 557 285 557 309 557 311 558 309 558 304 558 311 559 301 559 298 559 311 560 298 560 285 560 312 561 297 561 307 561 312 562 307 562 294 562 312 563 294 563 283 563 312 564 283 564 297 564 313 565 301 565 311 565 313 566 311 566 304 566 313 567 304 567 303 567 313 568 303 568 301 568 314 569 292 569 293 569 314 570 310 570 292 570 314 571 306 571 285 571 314 572 285 572 310 572 314 573 293 573 306 573 315 574 316 574 317 574 318 575 319 575 315 575 318 576 315 576 317 576 320 577 318 577 317 577 320 578 317 578 321 578 320 579 321 579 318 579 322 580 316 580 319 580 323 581 316 581 322 581 324 582 321 582 317 582 325 583 324 583 317 583 325 584 317 584 316 584 325 585 316 585 323 585 326 586 318 586 321 586 326 587 319 587 318 587 326 588 322 588 319 588 327 589 315 589 319 589 327 590 319 590 316 590 328 591 322 591 321 591 328 592 323 592 322 592 329 593 316 593 315 593 329 594 315 594 327 594 329 595 327 595 316 595 330 596 323 596 328 596 330 597 328 597 321 597 331 598 321 598 322 598 331 599 322 599 326 599 331 600 326 600 321 600 332 601 321 601 324 601 332 602 324 602 330 602 332 603 330 603 321 603 333 604 323 604 330 604 333 605 330 605 324 605 333 606 324 606 325 606 333 607 325 607 323 607 334 608 335 608 336 608 335 609 334 609 337 609 338 610 334 610 336 610 339 611 337 611 340 611 339 612 336 612 335 612 341 613 340 613 337 613 342 614 334 614 338 614 343 615 342 615 338 615 343 616 338 616 336 616 344 617 334 617 342 617 345 618 334 618 344 618 345 619 337 619 334 619 345 620 341 620 337 620 346 621 343 621 336 621 346 622 336 622 339 622 347 623 337 623 339 623 347 624 339 624 335 624 348 625 335 625 337 625 348 626 337 626 347 626 348 627 347 627 335 627 349 628 339 628 340 628 349 629 346 629 339 629 349 630 340 630 343 630 350 631 343 631 346 631 350 632 346 632 349 632 350 633 349 633 343 633 351 634 341 634 345 634 351 635 345 635 344 635 351 636 344 636 342 636 351 637 340 637 341 637 352 638 340 638 351 638 352 639 351 639 342 639 352 640 342 640 343 640 352 641 343 641 340 641</p>
                </triangles>
            </mesh>
        </geometry>
    </library_geometries>
    <library_visual_scenes>
        <visual_scene id="VisualSceneNode" name="VisualScene">
            <node id="node" name="node">
                <instance_geometry url="#shape0-lib">
                    <bind_material>
                        <technique_common/>
                    </bind_material>
                </instance_geometry>
            </node>
        </visual_scene>
    </library_visual_scenes>
    <scene>
        <instance_visual_scene url="#VisualSceneNode"/>
    </scene>
</COLLADA>
